{
"skeleton": { "hash": "YTgIgAI/uZDQG56N0fvjQD5eueU", "spine": "3.6.52", "width": 2486, "height": 2210 },
"bones": [
	{ "name": "root" },
	{ "name": "chair 2", "parent": "root", "x": 1838.02, "y": -2094.33 }
],
"slots": [
	{ "name": "Layer 1", "bone": "root", "attachment": "Layer 1" },
	{ "name": "chair 2", "bone": "chair 2", "attachment": "chair 2" },
	{ "name": "Vector Smart Object1111211111111 copy 13", "bone": "root", "attachment": "Vector Smart Object1111211111111 copy 13" },
	{ "name": "Vector Smart Object11112111111111 copy 14", "bone": "root", "attachment": "Vector Smart Object11112111111111 copy 14" },
	{ "name": "piller", "bone": "root", "attachment": "piller" },
	{ "name": "Coffee", "bone": "root", "attachment": "Coffee" },
	{ "name": "Burger", "bone": "root", "attachment": "Burger" },
	{ "name": "Ketchup", "bone": "root", "attachment": "Ketchup" },
	{ "name": "Sandwitch", "bone": "root", "attachment": "Sandwitch" }
],
"skins": {
	"default": {
		"Burger": {
			"Burger": { "x": 804.5, "y": -1677.5, "width": 201, "height": 173 }
		},
		"Coffee": {
			"Coffee": { "x": 2135, "y": -1603, "width": 152, "height": 240 }
		},
		"Ketchup": {
			"Ketchup": { "x": 1333.5, "y": -1619.5, "width": 171, "height": 321 }
		},
		"Layer 1": {
			"Layer 1": { "x": 1242, "y": -1104, "width": 2486, "height": 2210 }
		},
		"Sandwitch": {
			"Sandwitch": { "x": 1855.5, "y": -1745, "width": 201, "height": 132 }
		},
		"Vector Smart Object1111211111111 copy 13": {
			"Vector Smart Object1111211111111 copy 13": { "x": 1242, "y": -1909, "width": 2486, "height": 600 }
		},
		"Vector Smart Object11112111111111 copy 14": {
			"Vector Smart Object11112111111111 copy 14": { "x": 1474, "y": -2074.5, "width": 742, "height": 269 }
		},
		"chair 2": {
			"chair 2": { "x": -203.02, "y": 372.33, "width": 444, "height": 820 }
		},
		"piller": {
			"piller": { "x": 191, "y": -1148.5, "width": 384, "height": 2121 }
		}
	}
},
"animations": {
	"animation": {}
}
}