%YAML 1.1
%TAG !u! tag:unity3d.com,2011:
--- !u!114 &11400000
MonoBehaviour:
  m_ObjectHideFlags: 0
  m_CorrespondingSourceObject: {fileID: 0}
  m_PrefabInternal: {fileID: 0}
  m_GameObject: {fileID: 0}
  m_Enabled: 1
  m_EditorHideFlags: 0
  m_Script: {fileID: 11500000, guid: a6b194f808b1af6499c93410e504af42, type: 3}
  m_Name: Cafateria_Atlas
  m_EditorClassIdentifier: 
  atlasFile: {fileID: 4900000, guid: 307f27031fbe54f91935f54ed6163179, type: 3}
  materials:
  - {fileID: 2100000, guid: 4e98fc205ecf34263afbbeec715bcdde, type: 2}
  - {fileID: 2100000, guid: eb16357382dc84b279ccc3691b802242, type: 2}
