%YAML 1.1
%TAG !u! tag:unity3d.com,2011:
--- !u!114 &11400000
MonoBehaviour:
  m_ObjectHideFlags: 0
  m_CorrespondingSourceObject: {fileID: 0}
  m_PrefabInternal: {fileID: 0}
  m_GameObject: {fileID: 0}
  m_Enabled: 1
  m_EditorHideFlags: 0
  m_Script: {fileID: 11500000, guid: a6b194f808b1af6499c93410e504af42, type: 3}
  m_Name: forground_Atlas
  m_EditorClassIdentifier: 
  atlasFile: {fileID: 4900000, guid: fcb379bced1d4e542aa50809ce552133, type: 3}
  materials:
  - {fileID: 2100000, guid: aeb533a403134cb42956d2b61e444352, type: 2}
  - {fileID: 2100000, guid: 88262a2e146fd114ea34c9a061282b17, type: 2}
