
Travis lounge.png
size: 2490,2212
format: RGBA8888
filter: Linear,Linear
repeat: none
1
  rotate: false
  xy: 2, 2
  size: 1242, 2208
  orig: 1242, 2208
  offset: 0, 0
  index: -1
2
  rotate: false
  xy: 1246, 2
  size: 1242, 2208
  orig: 1242, 2208
  offset: 0, 0
  index: -1
