{
"skeleton": { "hash": "5s6NbgAO7drOpND9+ucrbfGTMMc", "spine": "3.6.52", "width": 1242, "height": 2208 },
"bones": [
	{ "name": "root" }
],
"slots": [
	{ "name": "1", "bone": "root", "attachment": "1" },
	{ "name": "root", "bone": "root", "attachment": "2" }
],
"skins": {
	"default": {
		"1": {
			"1": { "y": 1105.12, "width": 1242, "height": 2208 }
		},
		"root": {
			"2": { "y": 1105.68, "width": 1242, "height": 2208 }
		}
	}
},
"animations": {
	"animation": {}
}
}