{
"skeleton": { "hash": "pF9kSGkLbouke6aa/1iUFanQEfA", "spine": "3.6.50", "width": 1611.19, "height": 2279.05 },
"bones": [
	{ "name": "root" },
	{ "name": "1", "parent": "root" }
],
"slots": [
	{ "name": "1.4", "bone": "1", "attachment": "1.4" },
	{ "name": "1.5", "bone": "1", "attachment": "1.4 (2)" }
],
"skins": {
	"default": {
		"1.4": {
			"1.4": { "y": 1104.25, "width": 1242, "height": 2208 }
		},
		"1.5": {
			"1.4 (2)": { "x": 185.19, "y": 729.2, "width": 1610, "height": 1600 }
		}
	}
},
"animations": {
	"animation": {}
}
}