
background.png
size: 2498,2136
format: RGBA8888
filter: Linear,Linear
repeat: none
Group 1 copy
  rotate: false
  xy: 1250, 452
  size: 1246, 768
  orig: 1246, 768
  offset: 0, 0
  index: -1
Rectangle 1 copy 3
  rotate: false
  xy: 2, 292
  size: 1246, 1842
  orig: 1246, 1842
  offset: 0, 0
  index: -1
Rectangle 2
  rotate: false
  xy: 1250, 2
  size: 1246, 448
  orig: 1246, 448
  offset: 0, 0
  index: -1
Rectangle 2 copy
  rotate: false
  xy: 1250, 1222
  size: 1246, 912
  orig: 1246, 912
  offset: 0, 0
  index: -1
