%YAML 1.1
%TAG !u! tag:unity3d.com,2011:
--- !u!114 &11400000
MonoBehaviour:
  m_ObjectHideFlags: 0
  m_CorrespondingSourceObject: {fileID: 0}
  m_PrefabInternal: {fileID: 0}
  m_GameObject: {fileID: 0}
  m_Enabled: 1
  m_EditorHideFlags: 0
  m_Script: {fileID: 11500000, guid: a6b194f808b1af6499c93410e504af42, type: 3}
  m_Name: Brazil_Atlas
  m_EditorClassIdentifier: 
  atlasFile: {fileID: 4900000, guid: 4cbd3d4453f84465b9e29772c2e7eb4d, type: 3}
  materials:
  - {fileID: 2100000, guid: 6fddc744cb7b74e70832b1510f696bfb, type: 2}
