%YAML 1.1
%TAG !u! tag:unity3d.com,2011:
--- !u!114 &11400000
MonoBehaviour:
  m_ObjectHideFlags: 0
  m_CorrespondingSourceObject: {fileID: 0}
  m_PrefabInternal: {fileID: 0}
  m_GameObject: {fileID: 0}
  m_Enabled: 1
  m_EditorHideFlags: 0
  m_Script: {fileID: 11500000, guid: a6b194f808b1af6499c93410e504af42, type: 3}
  m_Name: Background_Atlas
  m_EditorClassIdentifier: 
  atlasFile: {fileID: 4900000, guid: e11e1f2b48b4f442d9dbb8a77f73a463, type: 3}
  materials:
  - {fileID: 2100000, guid: cb1cc82f6339d4436b9746120625e06b, type: 2}
  - {fileID: 2100000, guid: 4626464d42b2941a0b4b482be820be75, type: 2}
