%YAML 1.1
%TAG !u! tag:unity3d.com,2011:
--- !u!114 &11400000
MonoBehaviour:
  m_ObjectHideFlags: 0
  m_CorrespondingSourceObject: {fileID: 0}
  m_PrefabInternal: {fileID: 0}
  m_GameObject: {fileID: 0}
  m_Enabled: 1
  m_EditorHideFlags: 0
  m_Script: {fileID: 11500000, guid: a6b194f808b1af6499c93410e504af42, type: 3}
  m_Name: Foreground_Atlas
  m_EditorClassIdentifier: 
  atlasFile: {fileID: 4900000, guid: aeb3a53827b97482ca019b9fd00f2797, type: 3}
  materials:
  - {fileID: 2100000, guid: 905b6be33de064c8591c749e3826df1c, type: 2}
