%YAML 1.1
%TAG !u! tag:unity3d.com,2011:
--- !u!114 &11400000
MonoBehaviour:
  m_ObjectHideFlags: 0
  m_CorrespondingSourceObject: {fileID: 0}
  m_PrefabInternal: {fileID: 0}
  m_GameObject: {fileID: 0}
  m_Enabled: 1
  m_EditorHideFlags: 0
  m_Script: {fileID: 11500000, guid: a6b194f808b1af6499c93410e504af42, type: 3}
  m_Name: Travis2_Atlas
  m_EditorClassIdentifier: 
  atlasFile: {fileID: 4900000, guid: edc7e901cd7cb479192e4d6ed23aaec7, type: 3}
  materials:
  - {fileID: 2100000, guid: 246ef59e8c33c4f118805ee71fb8d10e, type: 2}
