{
"skeleton": { "hash": "GI1nuoGgx4H7f78DQOSmGkhfiCM", "spine": "3.6.52", "width": 662.45, "height": 2035.09 },
"bones": [
	{ "name": "root", "x": 956.63, "y": -3101.04, "scaleX": -1 },
	{ "name": "Pelvis", "parent": "root", "x": -28.49, "y": 1220.82 },
	{ "name": "Torso", "parent": "Pelvis", "length": 243.71, "rotation": 78.4, "x": -54.78, "y": 9.46 },
	{ "name": "Torso2", "parent": "Torso", "length": 280.98, "rotation": 6.44, "x": 246.17, "y": 3.73 },
	{ "name": "Neck", "parent": "Torso2", "length": 113.59, "rotation": 13.97, "x": 294.71, "y": -11.46 },
	{ "name": "Head", "parent": "Neck", "length": 266.53, "rotation": 30.77, "x": 104.4, "y": 0.58 },
	{ "name": "Eyebrows", "parent": "Head", "rotation": 1.08, "x": 146.44, "y": 10.29 },
	{ "name": "Head2", "parent": "Head", "rotation": -19.58, "x": 120.98, "y": 18.39 },
	{ "name": "L eye", "parent": "Head2", "rotation": -14.07, "x": 5.24, "y": 46.73 },
	{ "name": "L hand", "parent": "root", "rotation": 14.03, "x": -256.15, "y": 1232.08 },
	{ "name": "L leg", "parent": "root", "rotation": -102.21, "x": -92.69, "y": 261.56 },
	{ "name": "L_Hair", "parent": "Head", "length": 236.47, "rotation": 158.59, "x": 237.93, "y": 19.24 },
	{ "name": "L_Hair2", "parent": "L_Hair", "length": 170.83, "rotation": -10.72, "x": 236.47 },
	{ "name": "L_Hair3", "parent": "L_Hair2", "length": 137.9, "rotation": -24.72, "x": 170.83 },
	{ "name": "L_Hand", "parent": "L hand", "length": 149.36, "rotation": -116.34, "x": 3.59, "y": -0.01 },
	{ "name": "L_Leg", "parent": "root", "length": 436.7, "rotation": -92.28, "x": -86.43, "y": 1186.3 },
	{ "name": "L_Leg2", "parent": "L_Leg", "length": 497.25, "rotation": 3.82, "x": 428.87, "y": -1.89 },
	{ "name": "L_Leg3", "parent": "L leg", "length": 206.6, "rotation": -64.24 },
	{ "name": "L_Shawl", "parent": "Torso2", "length": 277.21, "rotation": 171.58, "x": 286.13, "y": 108.01 },
	{ "name": "L_Shawl2", "parent": "L_Shawl", "length": 272.39, "rotation": 10.66, "x": 275.86, "y": -1.45 },
	{ "name": "L_Shawl3", "parent": "L_Shawl2", "length": 446.62, "rotation": 6.92, "x": 272.39 },
	{ "name": "L_Sleeves", "parent": "Torso2", "length": 287.61, "rotation": 177.27, "x": 233.93, "y": 98.58 },
	{ "name": "L_Sleeves2", "parent": "L_Sleeves", "length": 255.67, "rotation": -21.55, "x": 287.61 },
	{ "name": "Look", "parent": "Head", "x": 167.39, "y": 146.34 },
	{ "name": "R hand", "parent": "root", "rotation": -42.54, "x": -1.52, "y": 1637.62 },
	{ "name": "R leg", "parent": "root", "rotation": -3.52, "x": 139.45, "y": 236.49 },
	{ "name": "R_ eye", "parent": "Head2", "rotation": 19.58, "x": -2.57, "y": -55.24 },
	{ "name": "R_Hair", "parent": "Head", "length": 220.35, "rotation": -166.08, "x": 269.63, "y": -40.48 },
	{ "name": "R_Hair2", "parent": "R_Hair", "length": 156.19, "rotation": -47.01, "x": 223.03, "y": -1.91 },
	{ "name": "R_Hair3", "parent": "R_Hair2", "length": 143.87, "rotation": -10.39, "x": 156.18, "y": 0.82 },
	{ "name": "R_Hair4", "parent": "R_Hair3", "length": 115.23, "rotation": 33.29, "x": 143.87 },
	{ "name": "R_Hand", "parent": "R hand", "length": 205.92, "rotation": -136.4, "x": 2.67, "y": 0.2 },
	{ "name": "R_Leg", "parent": "root", "length": 460.08, "rotation": -90.39, "x": 35.31, "y": 1164.17 },
	{ "name": "R_Leg2", "parent": "R_Leg", "length": 498.83, "rotation": 11.87, "x": 449.03, "y": -1.66 },
	{ "name": "R_Leg3", "parent": "R leg", "length": 209.67, "rotation": -161.93, "x": -2.93, "y": 5.05 },
	{ "name": "R_Sleeves", "parent": "Torso2", "length": 278.9, "rotation": -162.95, "x": 263.69, "y": -190.79 },
	{ "name": "R_Sleeves2", "parent": "R_Sleeves", "length": 260.99, "rotation": -34.91, "x": 278.9 },
	{ "name": "Shawl", "parent": "Torso2", "length": 289.55, "rotation": -164.88, "x": 292.29, "y": -135.51 },
	{ "name": "Shawl2", "parent": "Shawl", "length": 282.78, "rotation": -12.49, "x": 289.55 },
	{ "name": "Shawl3", "parent": "Shawl2", "length": 506.12, "rotation": 7.5, "x": 281.97, "y": -1.83 },
	{ "name": "Shawl back", "parent": "Torso2", "length": 391.19, "rotation": -169.69, "x": 277.95, "y": -19.52 },
	{ "name": "Shawl back2", "parent": "Shawl back", "length": 353.19, "rotation": -2.3, "x": 391.19 },
	{ "name": "Shawl back3", "parent": "Shawl back2", "length": 368.1, "rotation": -10.24, "x": 354.94, "y": -0.09 }
],
"slots": [
	{ "name": "table mask", "bone": "root", "attachment": "table mask" },
	{ "name": "L_Hand", "bone": "L_Hand", "attachment": "L_Hand" },
	{ "name": "L_Sleeves", "bone": "L_Sleeves", "attachment": "L_Sleeves" },
	{ "name": "Shawl back", "bone": "Shawl back", "attachment": "Shawl back" },
	{ "name": "hip", "bone": "root", "attachment": "hip" },
	{ "name": "L_Leg", "bone": "L_Leg", "attachment": "L_Leg" },
	{ "name": "Pelvis", "bone": "Pelvis", "attachment": "Pelvis" },
	{ "name": "R_Leg", "bone": "R_Leg", "attachment": "R_Leg" },
	{ "name": "Torso", "bone": "Torso", "attachment": "Torso" },
	{ "name": "Shawl", "bone": "Shawl", "attachment": "Shawl" },
	{ "name": "L_Shawl", "bone": "L_Shawl", "attachment": "L_Shawl" },
	{ "name": "L_Hair", "bone": "L_Hair", "attachment": "L_Hair" },
	{ "name": "Neck", "bone": "Neck", "attachment": "Neck" },
	{ "name": "Head", "bone": "Head", "attachment": "Head" },
	{ "name": "R_Eye-White", "bone": "R_ eye", "attachment": "R_Eye-White" },
	{ "name": "R eye mask", "bone": "Head2", "attachment": "R eye mask" },
	{ "name": "R_pupil2", "bone": "Look", "attachment": "R_pupil" },
	{ "name": "R_pupil", "bone": "Head" },
	{ "name": "R_eye", "bone": "R_ eye", "attachment": "R_eye" },
	{ "name": "L_eye-white", "bone": "L eye", "attachment": "L_eye-white" },
	{ "name": "L eye mask2", "bone": "Head2", "attachment": "L eye mask" },
	{ "name": "L eye mask", "bone": "Look" },
	{ "name": "L_pupil", "bone": "Look", "attachment": "L_pupil" },
	{ "name": "L_Eye", "bone": "L eye", "attachment": "L_Eye" },
	{ "name": "L_Brow", "bone": "Eyebrows", "attachment": "L_Brow" },
	{ "name": "R_Brow", "bone": "Eyebrows", "attachment": "R_Brow" },
	{ "name": "hair_braid", "bone": "Head", "attachment": "hair_braid" },
	{ "name": "R_Hair", "bone": "R_Hair", "attachment": "R_Hair" },
	{ "name": "lip 2", "bone": "root" },
	{ "name": "Lip", "bone": "Head", "attachment": "Lip" },
	{ "name": "R_Hand", "bone": "R_Hand", "attachment": "R_Hand" },
	{ "name": "R_Sleeves", "bone": "R_Sleeves", "attachment": "R_Sleeves" }
],
"ik": [
	{
		"name": "L hand",
		"order": 1,
		"bones": [ "L_Sleeves", "L_Sleeves2" ],
		"target": "L hand",
		"bendPositive": false
	},
	{
		"name": "L leg",
		"order": 3,
		"bones": [ "L_Leg", "L_Leg2" ],
		"target": "L leg"
	},
	{
		"name": "R hand",
		"order": 0,
		"bones": [ "R_Sleeves", "R_Sleeves2" ],
		"target": "R hand",
		"bendPositive": false
	},
	{
		"name": "R leg",
		"order": 2,
		"bones": [ "R_Leg", "R_Leg2" ],
		"target": "R leg"
	}
],
"skins": {
	"default": {
		"Head": {
			"Head": { "x": 123.81, "y": -24.26, "rotation": -111.67, "width": 246, "height": 338 }
		},
		"L eye mask2": {
			"L eye mask": {
				"type": "clipping",
				"end": "L_pupil",
				"vertexCount": 41,
				"vertices": [ 1.31, 62.62, 3.2, 62.55, 4.83, 62.49, 7.65, 62.04, 11.54, 60.18, 13.64, 58.55, 16.19, 55.45, 17.32, 53.26, 18.34, 50.72, 18.22, 47.37, 17.98, 45.49, 17.3, 43.36, 16.36, 41.07, 14.96, 38.11, 13.95, 36.51, 12.69, 34.84, 11.24, 33, 9.27, 30.75, 7.68, 29.69, 5.29, 27.79, 3.26, 26.49, 0.54, 25.04, -3.31, 23.37, -5.84, 22.35, -8.47, 20.98, -11.61, 19.98, -12.98, 20.2, -14.02, 22.21, -14.52, 25.07, -14.77, 27.66, -15.36, 30.27, -15.34, 33.36, -15.66, 36.22, -15.54, 39.48, -15.49, 43.27, -13.49, 48.61, -11.7, 52.77, -9.79, 55.62, -6.5, 58.69, -2.64, 60.7, -0.18, 61.98 ]
			}
		},
		"L_Brow": {
			"L_Brow": { "x": 19.72, "y": 38.99, "rotation": -111.67, "width": 49, "height": 16 }
		},
		"L_Eye": {
			"L_Eye": { "x": -1.99, "y": -3.46, "rotation": -78.02, "width": 57, "height": 41 }
		},
		"L_Hair": {
			"L_Hair": {
				"type": "mesh",
				"uvs": [ 0.28926, 1, 0.21472, 1, 0.10736, 0.96025, 0, 0.9205, 0, 0.8084, 0.04252, 0.71591, 0.08107, 0.65051, 0.19673, 0.5683, 0.22757, 0.53748, 0.19159, 0.4917, 0.1479, 0.39828, 0.16589, 0.2843, 0.18388, 0.12082, 0.23014, 0.04982, 0.24813, 0, 0.39977, 0, 0.53535, 0.04025, 0.67092, 0.08049, 0.8065, 0.12074, 0.94207, 0.16099, 0.93822, 0.26235, 0.93436, 0.36371, 1, 0.52253, 0.87723, 0.55803, 0.75445, 0.59353, 0.63187, 0.66177, 0.50929, 0.73002, 0.40391, 0.84119, 0.47074, 0.94863, 0.32681, 0.93461, 0.30625, 0.97198, 0.65134, 0.3457, 0.79953, 0.23748, 0.33914, 0.25695, 0.40939, 0.54519, 0.51586, 0.24999, 0.60517, 0.48141, 0.7908, 0.42406, 0.2195, 0.75003, 0.2787, 0.41404, 0.32781, 0.66206, 0.13394, 0.85497, 0.46698, 0.3825, 0.41904, 0.1281, 0.66298, 0.17926, 0.52458, 0.56018, 0.30362, 0.09272 ],
				"triangles": [ 46, 14, 15, 13, 14, 46, 43, 15, 16, 46, 15, 43, 44, 16, 17, 44, 17, 18, 32, 44, 18, 32, 18, 19, 35, 43, 16, 35, 16, 44, 33, 46, 43, 33, 43, 35, 20, 32, 19, 12, 13, 46, 12, 46, 33, 31, 35, 44, 31, 44, 32, 21, 32, 20, 42, 33, 35, 42, 35, 31, 33, 11, 12, 39, 33, 42, 39, 11, 33, 10, 11, 39, 37, 31, 32, 37, 32, 21, 36, 42, 31, 36, 31, 37, 9, 10, 39, 23, 37, 21, 34, 39, 42, 8, 9, 39, 45, 34, 42, 8, 39, 34, 22, 23, 21, 36, 45, 42, 24, 36, 37, 24, 37, 23, 25, 36, 24, 45, 36, 25, 40, 8, 34, 7, 8, 40, 26, 34, 45, 26, 45, 25, 40, 34, 26, 38, 7, 40, 6, 7, 38, 27, 40, 26, 5, 6, 38, 38, 40, 27, 41, 5, 38, 4, 5, 41, 3, 4, 41, 29, 38, 27, 41, 38, 29, 29, 27, 28, 2, 3, 41, 41, 1, 2, 41, 29, 1, 29, 30, 1, 0, 1, 30 ],
				"vertices": [ 1, 13, 165.23, 20.82, 1, 1, 13, 167.14, 4.46, 1, 1, 13, 145.9, -21.92, 1, 2, 13, 124.66, -48.29, 0.99882, 12, 298.41, -39.97, 0.00118, 2, 13, 56.96, -56.23, 0.85211, 12, 231.38, -52.35, 0.14789, 2, 13, 0.02, -53.44, 0.5417, 12, 174.38, -53.32, 0.4583, 2, 13, -40.46, -49.6, 0.20954, 12, 133.73, -52.16, 0.79046, 3, 13, -93.08, -30.04, 0.02292, 12, 79.94, -36.11, 0.97538, 11, 308.29, -50.35, 0.0017, 2, 12, 60.27, -32.81, 0.95017, 11, 289.58, -43.45, 0.04983, 2, 12, 34.34, -45.69, 0.6647, 11, 261.71, -51.28, 0.3353, 2, 12, -19.76, -65.5, 0.33307, 11, 204.87, -60.68, 0.66693, 2, 12, -88.63, -74.18, 0.04787, 11, 135.59, -56.39, 0.95213, 1, 11, 36.21, -51.96, 1, 1, 11, -6.91, -41.54, 1, 1, 11, -37.18, -37.43, 1, 1, 11, -37.03, -3.92, 1, 1, 11, -12.42, 25.93, 1, 1, 11, 12.18, 55.78, 1, 1, 11, 36.79, 85.63, 1, 2, 12, -193.51, 80.89, 0.00276, 11, 61.39, 115.49, 0.99724, 2, 12, -132.76, 91.24, 0.05319, 11, 123.02, 114.36, 0.94681, 2, 12, -72, 101.6, 0.28094, 11, 184.64, 113.22, 0.71906, 2, 12, 20.32, 133.4, 0.5425, 11, 281.26, 127.29, 0.4575, 2, 12, 46.47, 110.64, 0.80305, 11, 302.72, 100.06, 0.19695, 3, 13, -92.19, 94.17, 0.00104, 12, 72.63, 87.88, 0.90736, 11, 324.19, 72.83, 0.0916, 3, 13, -47.83, 72.09, 0.10147, 12, 118.35, 68.78, 0.87594, 11, 365.56, 45.55, 0.02259, 3, 13, -3.46, 50.01, 0.43479, 12, 164.08, 49.68, 0.56497, 11, 406.93, 18.28, 2.4E-4, 2, 13, 66.38, 34.75, 0.76708, 12, 234.78, 39.05, 0.23292, 2, 13, 129.54, 57.02, 0.99999, 12, 296.33, 65.44, 1.0E-5, 1, 13, 124.78, 24.44, 1, 1, 13, 147.87, 22.57, 1, 2, 12, -71.41, 38.1, 0.0357, 11, 173.41, 50.73, 0.9643, 2, 12, -142.06, 58.36, 0.00121, 11, 107.75, 83.77, 0.99879, 1, 11, 119.13, -18.03, 1, 1, 12, 57.58, 7.55, 1, 1, 11, 115.08, 21.05, 1, 2, 12, 11.59, 43.06, 0.73144, 11, 255.87, 40.15, 0.26856, 2, 12, -30.16, 77.07, 0.33994, 11, 221.18, 81.33, 0.66006, 2, 13, 16.07, -12.18, 0.97822, 12, 187.67, -11.09, 0.02178, 2, 12, -15.59, -35.33, 0.18115, 11, 214.58, -31.81, 0.81885, 1, 12, 130.73, 2.73, 1, 1, 13, 81.64, -23.53, 1, 2, 12, -42, 2.1, 6.0E-4, 11, 195.6, 9.88, 0.9994, 1, 11, 40.87, -0.01, 1, 1, 11, 72.22, 53.76, 1, 2, 12, 61.92, 34.24, 0.99074, 11, 303.68, 22.12, 0.00926, 1, 11, 19.24, -25.42, 1 ],
				"hull": 31
			}
		},
		"L_Hand": {
			"L_Hand": { "x": 81.43, "y": 3.98, "rotation": 116.15, "width": 108, "height": 193 }
		},
		"L_Leg": {
			"L_Leg": {
				"type": "mesh",
				"uvs": [ 0, 0.97577, 0, 1, 0.48053, 1, 0.83806, 0.96854, 0.86582, 0.90019, 0.82663, 0.88438, 0.82663, 0.86531, 0.82663, 0.84486, 0.94908, 0.64824, 0.93439, 0.4655, 0.85276, 0.43173, 0.84133, 0.41128, 0.85602, 0.38198, 0.87888, 0.33921, 1, 0.14531, 1, 0.02861, 0.57358, 0, 0.34012, 0, 0.32543, 0.14113, 0.40543, 0.3592, 0.47073, 0.43038, 0.48542, 0.45735, 0.49195, 0.4899, 0.52624, 0.64938, 0.57358, 0.84929, 0.56869, 0.87394, 0.56379, 0.88463, 0.52297, 0.8944, 0.35808, 0.89207, 0, 0.95019, 0.40053, 0.94787, 0.64868, 0.91904, 0.68219, 0.90061, 0.69465, 0.88671, 0.69569, 0.87547, 0.69153, 0.85063, 0.68671, 0.65035, 0.71316, 0.48869, 0.70086, 0.45069, 0.67292, 0.42151, 0.66049, 0.38672, 0.66362, 0.13711 ],
				"triangles": [ 26, 25, 33, 2, 31, 3, 1, 30, 2, 2, 30, 31, 1, 0, 30, 0, 28, 30, 0, 29, 28, 31, 32, 3, 3, 32, 4, 30, 27, 31, 30, 28, 27, 31, 27, 32, 32, 5, 4, 27, 26, 32, 32, 26, 33, 32, 33, 5, 33, 34, 5, 21, 20, 39, 33, 25, 34, 34, 6, 5, 25, 24, 34, 24, 35, 34, 6, 34, 7, 34, 35, 7, 7, 35, 36, 35, 24, 36, 24, 23, 36, 7, 36, 8, 36, 37, 8, 36, 23, 37, 23, 22, 37, 37, 9, 8, 22, 38, 37, 22, 21, 38, 37, 10, 9, 37, 38, 10, 21, 39, 38, 38, 11, 10, 38, 39, 11, 20, 40, 39, 20, 19, 40, 39, 40, 11, 11, 40, 12, 13, 12, 40, 40, 19, 41, 13, 40, 41, 19, 18, 41, 13, 41, 14, 41, 15, 14, 18, 16, 41, 18, 17, 16, 41, 16, 15 ],
				"vertices": [ 1, 17, 232.48, -11.02, 1, 1, 17, 243.49, 13.23, 1, 1, 17, 106.52, 75.38, 1, 2, 16, 577.84, 41.51, 0.18449, 17, -9.67, 90.14, 0.81551, 1, 17, -48.62, 25.32, 1, 1, 17, -44.64, 4.43, 1, 1, 16, 464.38, 44.43, 1, 1, 16, 441.93, 45.72, 1, 1, 16, 228.4, 96.35, 1, 2, 15, 446.37, 103.55, 0.4, 16, 27.64, 103.25, 0.6, 2, 15, 410.3, 76.54, 0.512, 16, -10.88, 79.87, 0.488, 2, 15, 387.98, 72.07, 0.824, 16, -33.53, 77.58, 0.176, 1, 15, 355.63, 75.38, 1, 1, 15, 308.37, 80.66, 1, 1, 15, 93.94, 110.06, 1, 1, 15, -34.22, 104.95, 1, 1, 15, -60.32, -29.67, 1, 1, 15, -57.41, -102.68, 1, 1, 15, 97.75, -101.1, 1, 2, 15, 336.22, -66.54, 0.72, 16, -98.47, -55.36, 0.28, 1, 16, -19.21, -39.43, 1, 1, 16, 10.65, -36.53, 1, 1, 16, 46.48, -36.54, 1, 1, 16, 222.08, -35.86, 1, 2, 16, 442.27, -33.64, 0.952, 17, 11.56, -63.41, 0.048, 2, 16, 469.22, -36.72, 0.90611, 17, 24.15, -39.38, 0.09389, 1, 17, 30.4, -29.31, 1, 2, 16, 490.85, -52.29, 0.04937, 17, 46.47, -24.82, 0.95063, 1, 17, 92.41, -48.47, 1, 1, 17, 220.87, -36.62, 1, 1, 17, 105.65, 12.86, 1, 2, 16, 520.14, -14.56, 0.4, 17, 21.83, 16.11, 0.6, 2, 16, 500.51, -2.93, 0.496, 17, 3.91, 1.99, 0.504, 2, 16, 485.49, 1.84, 0.376, 17, -5.96, -10.31, 0.624, 1, 16, 473.18, 2.87, 1, 1, 16, 445.85, 3.14, 1, 1, 16, 226.01, 14.23, 1, 2, 15, 474.59, 35.38, 0.20915, 16, 49.12, 32.66, 0.79085, 2, 15, 433.01, 29.87, 0.88402, 16, 7.21, 31.21, 0.11598, 1, 15, 401.31, 19.85, 1, 1, 15, 363.26, 14.44, 1, 1, 15, 89.12, 4.49, 1 ],
				"hull": 30
			}
		},
		"L_Shawl": {
			"L_Shawl": {
				"type": "mesh",
				"uvs": [ 0.64198, 1, 0.84546, 0.98515, 0.84546, 0.84397, 0.84546, 0.70279, 0.74021, 0.4981, 0.649, 0.27846, 0.8245, 0.15269, 1, 0.02692, 1, 0, 0.88063, 0, 0.76126, 0, 0.64374, 0.02029, 0.52621, 0.04058, 0.29117, 0.08117, 0.1754, 0.17673, 0.05963, 0.27229, 0.07366, 0.48931, 0, 0.67796, 0, 0.78647, 0.15962, 0.83394, 0.31923, 0.88142, 0.45254, 1, 0.3551, 0.61343, 0.78742, 0.06945, 0.38625, 0.3247, 0.60099, 0.81118, 0.50153, 0.45747, 0.27113, 0.40622, 0.60855, 0.61722, 0.25186, 0.27221, 0.42078, 0.77393, 0.50485, 0.21814, 0.18956, 0.72208, 0.67545, 0.12655, 0.17794, 0.58184, 0.60088, 0.41388, 0.72832, 0.72434, 0.73195, 0.87291 ],
				"triangles": [ 9, 8, 7, 23, 10, 9, 33, 11, 10, 33, 10, 23, 6, 23, 9, 33, 23, 6, 6, 9, 7, 31, 13, 12, 29, 14, 13, 15, 14, 29, 33, 12, 11, 5, 33, 6, 33, 31, 12, 5, 31, 33, 31, 24, 13, 35, 31, 5, 24, 29, 13, 27, 29, 24, 26, 24, 31, 35, 26, 31, 27, 16, 15, 27, 15, 29, 35, 5, 4, 34, 16, 27, 26, 22, 27, 26, 27, 24, 26, 35, 28, 34, 27, 22, 28, 35, 4, 22, 26, 28, 17, 16, 34, 36, 28, 4, 32, 34, 22, 17, 34, 32, 3, 36, 4, 30, 22, 28, 32, 22, 30, 18, 17, 32, 25, 30, 28, 25, 28, 36, 19, 18, 32, 36, 3, 2, 37, 36, 2, 25, 36, 37, 20, 32, 30, 19, 32, 20, 37, 2, 1, 21, 30, 25, 20, 30, 21, 0, 25, 37, 0, 37, 1, 21, 25, 0 ],
				"vertices": [ 3, 20, 480.14, 9.93, 0.97663, 19, 747.83, 67.69, 0.01926, 18, 998.27, 203.38, 0.00412, 3, 20, 467.23, 48.36, 0.91754, 19, 730.4, 104.28, 0.05777, 18, 974.36, 236.12, 0.02469, 3, 20, 319.77, 58.64, 0.79803, 19, 582.77, 96.73, 0.11555, 18, 830.68, 201.39, 0.08642, 3, 20, 172.31, 68.92, 0.6168, 19, 435.14, 89.17, 0.17332, 18, 687, 166.66, 0.20988, 3, 20, -42.82, 64.5, 0.40851, 19, 222.11, 58.88, 0.19643, 18, 483.24, 97.49, 0.39506, 3, 20, -273.4, 63.75, 0.22174, 19, -6.7, 30.36, 0.17332, 18, 263.66, 27.15, 0.60494, 3, 20, -402.52, 105.13, 0.09433, 19, -139.86, 55.88, 0.11555, 18, 128.07, 27.6, 0.79012, 3, 20, -531.64, 146.5, 0.02865, 19, -273.02, 81.4, 0.05777, 18, -7.51, 28.05, 0.91358, 3, 20, -559.75, 148.46, 0.00543, 19, -301.16, 79.96, 0.01926, 18, -34.9, 21.43, 0.97531, 3, 20, -561.28, 126.55, 2.6E-4, 19, -300.04, 58.02, 0.00395, 18, -29.74, 0.08, 0.99579, 2, 19, -298.92, 36.09, 0.00344, 18, -24.58, -21.27, 0.99656, 3, 20, -543.11, 81.59, 1.0E-4, 19, -276.6, 15.58, 0.02026, 18, 1.15, -37.3, 0.97964, 3, 20, -523.42, 58.54, 0.00459, 19, -254.27, -4.93, 0.06737, 18, 26.88, -53.33, 0.92804, 3, 20, -484.04, 12.44, 0.02612, 19, -209.62, -45.95, 0.15337, 18, 78.35, -85.38, 0.82051, 3, 20, -385.71, -15.77, 0.08927, 19, -108.61, -62.11, 0.25859, 18, 180.6, -82.58, 0.65213, 3, 20, -287.38, -43.98, 0.21416, 19, -7.6, -78.27, 0.33605, 18, 282.86, -79.78, 0.4498, 3, 20, -60.54, -57.2, 0.39991, 19, 219.18, -64.08, 0.34097, 18, 503.11, -23.89, 0.25912, 3, 20, 135.57, -84.46, 0.60922, 19, 417.14, -67.52, 0.27104, 18, 698.29, 9.35, 0.11973, 3, 20, 248.9, -92.36, 0.79298, 19, 530.6, -61.71, 0.16543, 18, 808.72, 36.04, 0.04159, 3, 20, 300.52, -66.52, 0.91501, 19, 578.74, -29.84, 0.07518, 18, 850.13, 76.26, 0.00981, 3, 20, 352.15, -40.68, 0.97578, 19, 626.88, 2.03, 0.02306, 18, 891.54, 116.49, 0.00116, 2, 20, 477.71, -24.84, 0.99213, 19, 749.62, 32.88, 0.00787, 1, 20, 72.71, -14.58, 1, 1, 18, 44.97, 0.49, 1, 1, 19, 44.12, -15.45, 1, 1, 20, 282.39, 16.15, 1, 1, 19, 181.87, 12.84, 1, 1, 19, 130.45, -32.24, 1, 2, 20, 79.91, 31.66, 0.9994, 19, 347.91, 41.06, 6.0E-4, 2, 19, -9.5, -42.95, 0.66992, 18, 274.46, -45.42, 0.33008, 1, 20, 241.18, -14.21, 1, 2, 19, -68.41, 0.65, 0.00781, 18, 208.51, -13.47, 0.99219, 1, 20, 184.07, -52.88, 1, 1, 18, 107.91, -5.49, 1, 2, 20, 37.45, -44.8, 0.92995, 19, 314.96, -39.96, 0.07005, 1, 19, 135.35, 28.77, 1, 1, 20, 193.33, 45.85, 1, 1, 20, 348.55, 35.7, 1 ],
				"hull": 22
			}
		},
		"L_Sleeves": {
			"L_Sleeves": {
				"type": "mesh",
				"uvs": [ 0.64003, 1, 0.33774, 1, 0, 0.93322, 0, 0.84276, 0.35567, 0.51036, 0.38129, 0.47004, 0.42484, 0.42753, 0.60928, 0, 1, 0, 1, 0.12129, 0.8962, 0.46895, 0.88083, 0.51145, 0.8424, 0.54633, 0.65796, 0.91578, 0.37104, 0.90161, 0.60416, 0.52889, 0.61422, 0.49247, 0.61759, 0.45328, 0.76028, 0.15551 ],
				"triangles": [ 15, 16, 12, 12, 16, 11, 4, 5, 15, 15, 5, 16, 16, 17, 11, 11, 17, 10, 5, 6, 16, 16, 6, 17, 17, 18, 10, 10, 18, 9, 17, 6, 18, 6, 7, 18, 9, 18, 8, 18, 7, 8, 1, 14, 0, 0, 14, 13, 1, 2, 14, 2, 3, 14, 14, 15, 13, 13, 15, 12, 3, 4, 14, 14, 4, 15 ],
				"vertices": [ 1, 22, 234.38, 136.83, 1, 1, 22, 272.03, 70.96, 1, 1, 22, 279.89, -22.19, 1, 1, 22, 233.56, -48.68, 1, 2, 22, 18.99, -68.49, 0.55202, 21, 279.74, -70.64, 0.44798, 2, 22, -4.85, -74.72, 0.27572, 21, 255.29, -67.54, 0.72428, 2, 22, -32.05, -77.67, 0.07533, 21, 228.95, -60.16, 0.92467, 1, 21, -27.27, -48.94, 1, 1, 21, -40.73, 48.2, 1, 1, 21, 30.15, 58.03, 1, 2, 22, -69.55, 37.17, 0.00364, 21, 236.9, 60.39, 0.99636, 2, 22, -45.86, 46.26, 0.07185, 21, 262.27, 60.01, 0.92815, 2, 22, -23.21, 48.1, 0.28848, 21, 283.98, 53.29, 0.71152, 1, 22, 189, 116.08, 1, 1, 22, 217.48, 49.41, 1, 2, 22, -2.47, -8.92, 0.22344, 21, 282, -7.36, 0.77656, 2, 22, -22.38, -17.39, 0.02333, 21, 260.37, -7.81, 0.97667, 2, 22, -42.87, -28.13, 0.00893, 21, 237.35, -10.15, 0.99107, 1, 21, 58.41, 1.2, 1 ],
				"hull": 14
			}
		},
		"L_eye-white": {
			"L_eye-white": { "x": -2.66, "y": -5.14, "rotation": -78.02, "width": 46, "height": 39 }
		},
		"L_pupil": {
			"L_pupil": { "x": -37.33, "y": -87.67, "rotation": -111.67, "width": 34, "height": 34 }
		},
		"Lip": {
			"Lip": { "x": 43.78, "y": 55.96, "rotation": -111.67, "width": 76, "height": 38 },
			"lip 2": { "x": 49.47, "y": 55.02, "rotation": -116.95, "width": 83, "height": 25 },
			"lip 3": { "x": 50.14, "y": 59.45, "rotation": -116.59, "width": 66, "height": 30 },
			"lip 4": { "x": 48.57, "y": 58.76, "rotation": -108.54, "width": 66, "height": 30 }
		},
		"Neck": {
			"Neck": { "x": 73.06, "y": -15.64, "rotation": -98.81, "width": 126, "height": 177 }
		},
		"Pelvis": {
			"Pelvis": { "x": 15.79, "y": -10.07, "width": 329, "height": 170 }
		},
		"R eye mask": {
			"R eye mask": {
				"type": "clipping",
				"end": "R_pupil2",
				"vertexCount": 34,
				"vertices": [ -16.32, -28.13, -14.41, -28.39, -12.76, -28.9, -10.69, -30.06, -7.68, -31.83, -4.55, -33.87, -1.64, -36.47, 0.87, -38.1, 2.99, -41.38, 5.81, -46.54, 8.02, -50.85, 9.85, -55.27, 10.77, -59.72, 11.11, -64.6, 9.82, -70.06, 7.25, -73.81, 4.19, -77.03, -0.41, -80.26, -5.79, -81.98, -9.2, -82.44, -14.08, -82.64, -14.91, -80.82, -15.7, -77.91, -16.64, -73.97, -18.12, -68.92, -19.13, -64.85, -19.86, -58.67, -19.47, -53.24, -19.53, -47.73, -19.58, -43.76, -19.15, -37.31, -18.6, -32.85, -17.89, -29.09, -17.52, -27.7 ]
			}
		},
		"R_Brow": {
			"R_Brow": { "x": -19.71, "y": -56.18, "rotation": -111.67, "width": 83, "height": 25 }
		},
		"R_Eye-White": {
			"R_Eye-White": { "x": -0.36, "y": -0.71, "rotation": -111.67, "width": 59, "height": 34 }
		},
		"R_Hair": {
			"R_Hair": {
				"type": "mesh",
				"uvs": [ 0.74809, 1, 0.89156, 0.96802, 0.91012, 0.91471, 1, 0.83082, 1, 0.78364, 0.90958, 0.74213, 0.81917, 0.70062, 0.89156, 0.63814, 0.96395, 0.57566, 0.96303, 0.46731, 0.9621, 0.35896, 0.94168, 0.25934, 0.87671, 0.08544, 0.73564, 0, 0.55173, 0, 0.36782, 0, 0.18391, 0, 0, 0, 0, 0.15884, 0.15621, 0.20516, 0.31242, 0.25147, 0.35697, 0.28905, 0.44607, 0.38604, 0.43122, 0.43411, 0.38667, 0.51712, 0.3941, 0.58616, 0.34093, 0.71882, 0.37991, 0.82193, 0.50242, 0.90408, 0.59802, 0.89796, 0.69361, 0.89184, 0.69176, 1, 0.6851, 0.4717, 0.5456, 0.72807, 0.65667, 0.2134, 0.17015, 0.10263, 0.82891, 0.31216, 0.44861, 0.18999, 0.48186, 0.52075, 0.85175, 0.48386, 0.69789, 0.66188, 0.59124, 0.34907, 0.80978, 0.83945, 0.27327, 0.12482, 0.80789, 0.17411, 0.55214, 0.08105, 0.60037, 0.5463, 0.69393, 0.7866 ],
				"triangles": [ 41, 22, 37, 36, 11, 10, 22, 21, 37, 41, 34, 36, 41, 37, 34, 34, 44, 36, 36, 44, 11, 21, 20, 37, 44, 12, 11, 19, 43, 20, 20, 43, 37, 37, 45, 34, 44, 34, 13, 19, 35, 43, 19, 18, 35, 43, 15, 37, 45, 15, 14, 45, 37, 15, 34, 45, 13, 44, 13, 12, 18, 17, 35, 35, 16, 43, 43, 16, 15, 35, 17, 16, 45, 14, 13, 33, 38, 46, 46, 32, 40, 40, 32, 39, 7, 39, 8, 25, 24, 38, 39, 9, 8, 32, 46, 41, 24, 23, 38, 23, 22, 38, 46, 38, 41, 38, 22, 41, 32, 36, 39, 39, 10, 9, 39, 36, 10, 32, 41, 36, 28, 27, 33, 47, 29, 33, 42, 47, 6, 27, 26, 33, 47, 40, 6, 47, 33, 40, 26, 25, 33, 25, 38, 33, 33, 46, 40, 6, 40, 7, 40, 39, 7, 31, 30, 0, 0, 42, 1, 0, 30, 42, 1, 42, 2, 42, 5, 2, 2, 5, 3, 29, 28, 33, 30, 29, 47, 30, 47, 42, 42, 6, 5, 5, 4, 3 ],
				"vertices": [ 2, 30, 134.19, -12.44, 0.99841, 29, 277.21, 19.52, 0.00159, 2, 30, 125.14, 35.29, 0.97229, 29, 257.18, 63.77, 0.02771, 2, 30, 93.05, 49.52, 0.90761, 29, 222.63, 70.05, 0.09239, 2, 30, 47.22, 89.89, 0.77834, 29, 168.58, 98.48, 0.22166, 3, 30, 17.53, 97.62, 0.59345, 29, 137.92, 99, 0.40617, 28, 291.31, 103.6, 3.8E-4, 3, 30, -15.55, 77.65, 0.37458, 29, 110.47, 71.8, 0.60458, 28, 264.62, 75.65, 0.02083, 3, 30, -48.64, 57.68, 0.17855, 29, 83.02, 44.6, 0.71761, 28, 237.93, 47.71, 0.10384, 3, 30, -82.35, 89.36, 0.05622, 29, 42.79, 67.45, 0.65171, 28, 197.09, 69.43, 0.29206, 4, 30, -116.06, 121.04, 0.00644, 29, 2.56, 90.29, 0.4423, 28, 156.25, 91.15, 0.53311, 27, 402.95, -20.61, 0.01815, 3, 29, -67.86, 91.22, 0.20353, 28, 85.82, 90.13, 0.67411, 27, 345.51, 20.15, 0.12236, 3, 29, -138.28, 92.14, 0.05881, 28, 15.4, 89.1, 0.60351, 27, 288.07, 60.9, 0.33768, 3, 29, -203.13, 87, 0.00512, 28, -49.28, 82.17, 0.36706, 27, 231.77, 93.5, 0.62781, 2, 28, -162.1, 61.1, 0.14306, 27, 128.28, 143.12, 0.85694, 2, 28, -217.18, 17.35, 0.02505, 27, 58, 140.33, 0.97495, 1, 27, 25.25, 94.56, 1, 1, 27, -7.5, 48.8, 1, 1, 27, -40.25, 3.03, 1, 1, 27, -73, -42.73, 1, 2, 28, -111.57, -206.65, 0.00276, 27, 10.96, -102.82, 0.99724, 2, 28, -81.97, -158.54, 0.01992, 27, 63.26, -81.46, 0.98008, 2, 28, -52.37, -110.42, 0.12929, 27, 115.56, -60.11, 0.87071, 3, 29, -186.89, -92.22, 8.0E-4, 28, -28.09, -96.53, 0.34157, 27, 143.36, -63.24, 0.65763, 3, 29, -123.39, -66.04, 0.02222, 28, 34.67, -68.61, 0.61556, 27, 210.49, -77.76, 0.36222, 3, 29, -92.23, -71.12, 0.11134, 28, 65.95, -72.82, 0.74854, 27, 233.25, -99.63, 0.14013, 4, 30, -197.43, -40.3, 0.00916, 29, -38.51, -85.68, 0.3005, 28, 120.06, -85.89, 0.6677, 27, 269.2, -142.12, 0.02264, 4, 30, -153.44, -49.42, 0.07346, 29, 6.4, -84.17, 0.50439, 28, 164.9, -83.14, 0.42028, 27, 307.02, -166.38, 0.00187, 3, 30, -74.09, -86.91, 0.24099, 29, 92.34, -101.92, 0.58077, 28, 251.3, -98.5, 0.17824, 3, 30, -6.23, -92.27, 0.49966, 29, 159.55, -91.14, 0.4563, 28, 318.19, -85.87, 0.04403, 3, 30, 54.89, -69.46, 0.75915, 29, 213.58, -54.57, 0.24054, 28, 371.19, -47.82, 3.1E-4, 2, 30, 58.42, -40.15, 0.92331, 29, 210.11, -25.26, 0.07669, 2, 30, 61.95, -10.84, 0.98881, 29, 206.63, 4.06, 0.01119, 2, 30, 129.84, -29.12, 0.99835, 29, 276.92, 2.29, 0.00165, 1, 28, 89.57, 5.12, 1, 2, 30, -52.48, -27.82, 0.03957, 29, 99.42, -39.4, 0.96043, 1, 27, 156.74, 39.95, 1, 1, 27, 11.55, -39.21, 1, 2, 28, -14.59, 48.03, 0.48997, 27, 239.61, 45.46, 0.51003, 2, 28, -92.76, -69.17, 1.2E-4, 27, 107.31, -2.96, 0.99988, 2, 29, -35.65, -56.59, 0.15955, 28, 122.1, -56.74, 0.84045, 2, 29, -57.69, 56.99, 0.05234, 28, 96.94, 56.19, 0.94766, 1, 29, 57.2, 7.93, 1, 2, 28, 10.17, -24.44, 0.8046, 27, 216.8, -27.64, 0.1954, 2, 30, 37.96, 32.15, 0.89922, 29, 173.2, 40.18, 0.10078, 1, 27, 41.64, -21.95, 1, 2, 28, -104.24, 40.65, 0.00342, 27, 162.9, 92.45, 0.99658, 1, 27, 68.16, 64.01, 1, 2, 29, -18.42, -20.62, 0.11546, 28, 138.33, -20.3, 0.88454, 2, 30, -4.22, 6.51, 0.20495, 29, 138.24, 5.33, 0.79505 ],
				"hull": 32
			}
		},
		"R_Hand": {
			"R_Hand": { "x": 101.93, "y": 14.67, "rotation": 102.42, "width": 148, "height": 239 }
		},
		"R_Leg": {
			"R_Leg": {
				"type": "mesh",
				"uvs": [ 0, 0.97811, 0, 1, 0.43795, 1, 0.85247, 0.96634, 0.86854, 0.92723, 0.88001, 0.89934, 0.84232, 0.88153, 0.82638, 0.86457, 0.95827, 0.63896, 0.92059, 0.45119, 0.85537, 0.41345, 0.82058, 0.38418, 0.84377, 0.34263, 0.87131, 0.3104, 1, 0.11374, 1, 0, 0.66559, 0, 0.35244, 0, 0.34084, 0.1095, 0.40301, 0.30991, 0.42475, 0.3485, 0.45518, 0.40405, 0.46968, 0.44052, 0.51026, 0.48208, 0.53635, 0.64111, 0.58128, 0.85725, 0.57838, 0.87039, 0.55281, 0.8803, 0.5291, 0.88948, 0.35953, 0.89287, 0, 0.95436, 0.4059, 0.94673, 0.66099, 0.91619, 0.70882, 0.89414, 0.71317, 0.86658, 0.68013, 0.90737, 0.72624, 0.91117, 0.72381, 0.72961, 0.73288, 0.64215, 0.7344, 0.4722, 0.70868, 0.42679, 0.66559, 0.39233, 0.66559, 0.34469, 0.66559, 0.30486, 0.66316, 0.11159 ],
				"triangles": [ 33, 7, 6, 35, 26, 33, 36, 6, 5, 27, 26, 35, 32, 27, 35, 35, 33, 36, 3, 32, 4, 31, 28, 32, 2, 32, 3, 1, 31, 2, 0, 30, 29, 1, 0, 31, 2, 31, 32, 0, 29, 31, 31, 29, 28, 28, 27, 32, 32, 36, 4, 4, 36, 5, 32, 35, 36, 36, 33, 6, 26, 25, 33, 39, 10, 9, 38, 39, 9, 33, 34, 7, 33, 25, 34, 7, 34, 37, 34, 25, 37, 7, 37, 8, 8, 37, 38, 8, 38, 9, 25, 24, 37, 37, 24, 38, 38, 24, 39, 24, 23, 39, 23, 22, 40, 23, 40, 39, 39, 40, 10, 22, 41, 40, 40, 11, 10, 40, 41, 11, 41, 21, 42, 41, 42, 11, 42, 21, 20, 11, 42, 12, 42, 20, 43, 20, 19, 43, 42, 43, 12, 12, 43, 13, 14, 13, 44, 19, 44, 43, 19, 18, 44, 13, 43, 44, 44, 16, 14, 16, 15, 14, 18, 17, 44, 44, 17, 16, 22, 21, 41 ],
				"vertices": [ 1, 34, 236.6, -6.54, 1, 1, 34, 245.88, 15.21, 1, 1, 34, 118.56, 69.47, 1, 1, 34, -16.19, 87.39, 1, 1, 34, -37.42, 50.53, 1, 1, 34, -52.57, 24.23, 1, 2, 33, 483.92, 46.88, 0.608, 34, -49.15, 1.87, 0.392, 2, 33, 465.35, 42.89, 0.888, 34, -51.7, -16.96, 0.112, 2, 32, 666.74, 110.89, 0.00185, 33, 224.46, 98.4, 0.99815, 1, 33, 21.32, 98.08, 1, 2, 32, 423.42, 76.7, 0.232, 33, -20.55, 79.83, 0.768, 2, 32, 391.89, 65.49, 0.96, 33, -52.72, 70.66, 0.04, 1, 32, 346.96, 72.51, 1, 1, 32, 312.09, 80.97, 1, 1, 32, 99.43, 120.18, 1, 1, 32, -23.41, 119.33, 1, 1, 32, -22.68, 13.66, 1, 1, 32, -22, -85.29, 1, 1, 32, 96.28, -88.14, 1, 2, 32, 312.58, -67.01, 0.99812, 33, -140.34, -56.5, 0.00188, 2, 32, 354.21, -59.86, 0.95937, 33, -98.34, -52.02, 0.04063, 2, 32, 414.14, -49.83, 0.656, 33, -37.89, -45.84, 0.344, 1, 33, 1.7, -43.52, 1, 1, 33, 47.24, -33.27, 1, 1, 33, 219.18, -34.84, 1, 2, 33, 453.04, -33.98, 0.776, 34, 16.45, -54.6, 0.224, 2, 33, 467.16, -35.71, 0.56, 34, 22.86, -41.9, 0.44, 1, 34, 34.49, -35.23, 1, 1, 34, 45.26, -29.04, 1, 1, 34, 96, -46.68, 1, 1, 34, 226.55, -30.14, 1, 1, 34, 105.32, 12.57, 1, 1, 34, 18.24, 13.84, 1, 1, 34, -5, -2.14, 1, 1, 33, 465.47, 7.05, 1, 1, 34, 8.94, 7.45, 1, 1, 34, -2.86, 16.94, 1, 1, 33, 317.98, 18.85, 1, 2, 32, 670.68, 39.69, 4.0E-5, 33, 223.85, 27.1, 0.99996, 2, 32, 487.13, 38.91, 0.232, 33, 40.62, 38.05, 0.768, 2, 32, 438.15, 30.45, 0.344, 33, -8.8, 32.73, 0.656, 1, 32, 401.03, 16.57, 1, 1, 32, 349.57, 16.22, 1, 1, 32, 306.56, 15.92, 1, 1, 32, 97.84, 13.72, 1 ],
				"hull": 31
			}
		},
		"R_Sleeves": {
			"R_Sleeves": {
				"type": "mesh",
				"uvs": [ 0.07819, 0.89942, 0.05993, 1, 0.50467, 1, 1, 1, 1, 0.89312, 0.8109, 0.60678, 0.76091, 0.53108, 0.79547, 0.48483, 0.77078, 0.4322, 0.72635, 0.35405, 0.52396, 0, 0.21558, 0, 0, 0, 0, 0.36521, 0.1241, 0.44177, 0.13096, 0.5113, 0.11724, 0.54896, 0.12753, 0.6276, 0.53553, 0.89567, 0.49096, 0.62096, 0.47382, 0.5412, 0.46161, 0.50817, 0.44177, 0.46201, 0.37828, 0.36842 ],
				"triangles": [ 20, 15, 21, 6, 21, 7, 15, 22, 21, 15, 14, 22, 21, 8, 7, 21, 22, 8, 14, 23, 22, 22, 9, 8, 22, 23, 9, 14, 13, 23, 13, 11, 23, 23, 10, 9, 23, 11, 10, 13, 12, 11, 20, 16, 15, 20, 21, 6, 2, 18, 3, 18, 4, 3, 1, 0, 2, 2, 0, 18, 18, 17, 19, 18, 0, 17, 18, 5, 4, 18, 19, 5, 17, 20, 19, 19, 6, 5, 19, 20, 6, 17, 16, 20 ],
				"vertices": [ 1, 36, 212.43, -70.33, 1, 1, 36, 271.32, -72.7, 1, 1, 36, 269.78, 11.34, 1, 1, 36, 268.07, 104.94, 1, 1, 36, 205.55, 103.8, 1, 1, 36, 38.73, 64.99, 1, 2, 36, -5.38, 54.73, 0.552, 35, 285.91, 54.55, 0.448, 1, 35, 260.78, 66.51, 1, 1, 35, 229.69, 68.29, 1, 1, 35, 183.23, 69.49, 1, 1, 35, -27.33, 74.73, 1, 1, 35, -39.34, 17.69, 1, 1, 35, -47.73, -22.18, 1, 1, 35, 161.34, -66.19, 1, 1, 35, 209.99, -52.47, 1, 1, 35, 250.06, -59.58, 1, 2, 36, 7.31, -66.71, 0.4539, 35, 271.09, -66.65, 0.5461, 1, 36, 53.28, -63.92, 1, 1, 36, 208.65, 16.05, 1, 1, 36, 48.13, 4.68, 1, 2, 36, 1.54, 0.59, 0.616, 35, 280.53, 0.23, 0.384, 1, 35, 261.14, 1.95, 1, 1, 35, 233.95, 3.85, 1, 1, 35, 177.9, 3.38, 1 ],
				"hull": 18
			}
		},
		"R_eye": {
			"R_eye": { "x": -1.65, "y": -3.96, "rotation": -111.67, "width": 76, "height": 44 }
		},
		"R_pupil2": {
			"R_pupil": { "x": -76.67, "y": -178.56, "rotation": -111.67, "width": 34, "height": 34 }
		},
		"Shawl": {
			"Shawl": {
				"type": "mesh",
				"uvs": [ 0.45176, 1, 0.64033, 0.97853, 0.77088, 0.93994, 0.90143, 0.90135, 0.96913, 0.85064, 0.99814, 0.78559, 1, 0.64448, 0.90962, 0.53202, 0.81923, 0.41957, 0.75154, 0.19816, 0.6355, 0.08019, 0.52912, 0, 0.39684, 0, 0.26456, 0, 0.13228, 0, 0, 0, 0.0456, 0.09122, 0.13263, 0.20036, 0.08428, 0.40873, 0.04214, 0.52893, 0, 0.64913, 0, 0.7693, 0.15577, 0.80678, 0.31154, 0.84427, 0.31154, 0.9038, 0.32605, 0.97877, 0.2311, 0.60856, 0.83842, 0.75356, 0.44401, 0.28946, 0.5356, 0.69793, 0.67518, 0.4842, 0.26413, 0.40125, 0.42965, 0.49683, 0.67351, 0.86618, 0.62583, 0.32804, 0.30027, 0.17809, 0.72612, 0.66661, 0.33295, 0.69108, 0.4656, 0.85472, 0.5984, 0.53476, 0.52647, 0.15352, 0.127, 0.67565 ],
				"triangles": [ 16, 15, 14, 40, 12, 11, 40, 11, 10, 35, 13, 12, 35, 12, 40, 17, 14, 13, 17, 13, 35, 16, 14, 17, 28, 35, 40, 9, 34, 40, 9, 40, 10, 31, 17, 35, 28, 40, 34, 31, 35, 28, 18, 17, 31, 34, 9, 8, 30, 34, 8, 32, 31, 28, 32, 28, 34, 39, 32, 34, 30, 39, 34, 26, 31, 32, 7, 36, 30, 7, 30, 8, 39, 30, 36, 29, 32, 39, 26, 18, 31, 19, 18, 26, 41, 20, 19, 26, 41, 19, 37, 26, 32, 29, 39, 36, 37, 32, 29, 27, 36, 7, 27, 7, 6, 21, 20, 41, 5, 27, 6, 37, 22, 41, 37, 41, 26, 21, 41, 22, 23, 22, 37, 4, 27, 5, 38, 37, 29, 23, 37, 38, 33, 29, 36, 33, 36, 27, 38, 29, 33, 3, 27, 4, 2, 33, 27, 24, 23, 38, 3, 2, 27, 1, 38, 33, 1, 33, 2, 0, 25, 24, 38, 0, 24, 0, 38, 1 ],
				"vertices": [ 1, 39, 575.64, -35.15, 1, 1, 39, 554.95, 17.19, 1, 1, 39, 512.95, 55.82, 1, 2, 39, 470.95, 94.46, 0.99998, 38, 736.55, 153.32, 2.0E-5, 2, 39, 413.35, 117.61, 0.98655, 38, 676.43, 168.74, 0.01345, 2, 39, 338.14, 131.92, 0.88996, 38, 599.99, 173.11, 0.11004, 2, 39, 173.56, 146.71, 0.6823, 38, 434.88, 166.29, 0.3177, 3, 39, 40.28, 134.07, 0.39034, 38, 304.4, 136.36, 0.50074, 37, 616.23, 67.28, 0.10892, 3, 39, -93, 121.42, 0.1536, 38, 173.91, 106.42, 0.51745, 37, 482.36, 66.28, 0.32895, 3, 39, -352.87, 125.86, 0.02795, 38, -84.31, 76.88, 0.31196, 37, 223.86, 93.3, 0.66009, 2, 38, -220.94, 39.82, 0.11549, 37, 82.45, 86.67, 0.88451, 2, 38, -313.5, 7.28, 0.00219, 37, -14.95, 74.93, 0.99781, 1, 37, -21.06, 40.14, 1, 1, 37, -27.16, 5.36, 1, 1, 37, -33.27, -29.43, 1, 2, 38, -307.24, -133.85, 0.00182, 37, -39.38, -64.22, 0.99818, 3, 39, -493.94, -51.08, 0.01176, 38, -201.07, -116.96, 0.10298, 37, 67.93, -70.69, 0.88525, 3, 39, -364.6, -38.99, 0.1332, 38, -74.42, -88.09, 0.20558, 37, 197.84, -69.9, 0.66122, 3, 39, -122.63, -72.97, 0.36576, 38, 169.91, -90.18, 0.30454, 37, 435.93, -124.81, 0.3297, 3, 39, 16.62, -96.36, 0.6859, 38, 311.03, -95.19, 0.2048, 37, 572.62, -160.22, 0.10929, 2, 39, 155.87, -119.76, 0.89779, 38, 452.14, -100.2, 0.10221, 2, 39, 296.06, -131.93, 0.99857, 38, 592.72, -93.98, 0.00143, 1, 39, 343.39, -94.3, 1, 1, 39, 390.72, -56.66, 1, 1, 39, 460.17, -62.7, 1, 1, 39, 547.97, -66.44, 1, 1, 39, 113.89, -54.17, 1, 2, 39, 297.08, 92.68, 0.99785, 38, 564.4, 128.85, 0.00215, 2, 38, 26.14, -0.41, 0.99989, 37, 314.97, -6.06, 1.1E-4, 2, 39, 225.18, 17.77, 0.99822, 38, 502.9, 45.19, 0.00178, 2, 39, -20.93, 76.56, 0.00435, 38, 251.22, 71.34, 0.99565, 2, 39, -127.2, -24.38, 0.03701, 38, 159.04, -42.6, 0.96299, 1, 38, 268.9, 6.51, 1, 1, 39, 424.66, 37.4, 1, 2, 38, 69.11, 50.09, 0.98803, 37, 367.86, 33.95, 0.01197, 1, 37, 179.89, -21.31, 1, 2, 39, 193.04, 71.62, 0.95655, 38, 464.01, 94.38, 0.04345, 1, 39, 212.51, -35.44, 1, 1, 39, 406.47, -16.74, 1, 2, 39, 36.28, 51.01, 0.28832, 38, 311.28, 53.48, 0.71168, 1, 37, 161.99, 43.15, 1, 1, 39, 189.75, -88.66, 1 ],
				"hull": 26
			}
		},
		"Shawl back": {
			"Shawl back": {
				"type": "mesh",
				"uvs": [ 0.40821, 1, 0.50332, 0.99769, 0.55087, 0.98583, 0.65655, 0.97451, 0.76223, 0.96319, 0.91811, 0.92977, 1, 0.86939, 1, 0.72493, 0.97095, 0.55998, 0.94453, 0.40366, 0.88897, 0.2006, 0.85462, 0.11867, 0.73573, 0.02918, 0.57061, 0.01459, 0.40548, 0, 0.30773, 0.01194, 0.16506, 0.05775, 0.0224, 0.10357, 0.01315, 0.21192, 0.0039, 0.32027, 0.00126, 0.46689, 0, 0.609, 0, 0.67908, 0, 0.7222, 0.1171, 0.85265, 0.22806, 0.94105, 0.34167, 1, 0.3197, 0.73491, 0.24433, 0.27631, 0.79073, 0.7188, 0.64829, 0.3084, 0.56573, 0.50607, 0.16232, 0.51381, 0.45681, 0.18717, 0.55666, 0.84394, 0.42269, 0.45233, 0.56469, 0.63806, 0.73636, 0.56999, 0.79227, 0.425, 0.30767, 0.54675, 0.12992, 0.66542, 0.4679, 0.34581, 0.69065, 0.84656, 0.0853, 0.35808, 0.39298, 0.91953, 0.31592, 0.1067, 0.69249, 0.14309 ],
				"triangles": [ 23, 22, 40, 29, 8, 7, 34, 27, 36, 42, 34, 36, 29, 42, 36, 24, 23, 40, 24, 40, 27, 29, 7, 6, 44, 27, 34, 25, 24, 27, 5, 29, 6, 42, 29, 5, 44, 25, 27, 4, 42, 5, 3, 34, 42, 3, 42, 4, 34, 1, 44, 2, 34, 3, 2, 1, 34, 26, 25, 44, 0, 26, 44, 1, 0, 44, 38, 10, 9, 20, 19, 43, 31, 30, 38, 35, 41, 31, 32, 43, 28, 39, 32, 28, 20, 43, 32, 35, 39, 28, 37, 31, 38, 21, 20, 32, 36, 35, 31, 36, 31, 37, 39, 35, 36, 40, 21, 32, 40, 32, 39, 22, 21, 40, 8, 29, 37, 36, 37, 29, 38, 9, 8, 8, 37, 38, 27, 39, 36, 40, 39, 27, 45, 15, 14, 16, 15, 45, 46, 13, 12, 46, 12, 11, 33, 14, 13, 33, 13, 46, 45, 14, 33, 28, 16, 45, 28, 45, 33, 30, 33, 46, 18, 17, 16, 41, 33, 30, 28, 33, 41, 16, 28, 18, 43, 18, 28, 19, 18, 43, 46, 10, 30, 10, 46, 11, 38, 30, 10, 35, 28, 41, 31, 41, 30 ],
				"vertices": [ 1, 42, 416.58, -29.12, 1, 1, 42, 407.89, 16.36, 1, 1, 42, 390.91, 37.47, 1, 1, 42, 370.93, 86.66, 1, 1, 42, 350.95, 135.86, 1, 2, 41, 688.47, 148.83, 1.2E-4, 42, 301.72, 205.86, 0.99988, 2, 41, 618.63, 192.15, 0.05647, 42, 225.29, 236.07, 0.94353, 3, 40, 845.67, 182.61, 5.0E-5, 41, 446.78, 200.7, 0.35434, 42, 54.67, 213.92, 0.64561, 3, 40, 648.74, 186.17, 0.07247, 41, 249.87, 196.36, 0.61514, 42, -138.33, 174.63, 0.31239, 3, 40, 462.16, 190.09, 0.40142, 41, 63.29, 192.78, 0.56318, 42, -321.31, 137.93, 0.03541, 2, 40, 218.87, 184.89, 0.73469, 41, -179.6, 177.83, 0.26531, 2, 40, 120.18, 177.02, 0.99562, 41, -277.9, 166, 0.00438, 1, 40, 8.85, 129.03, 1, 1, 40, -15.66, 50.67, 1, 1, 40, -40.17, -27.7, 1, 1, 40, -30.27, -76.29, 1, 2, 40, 17.86, -150.24, 0.99879, 41, -367, -165.1, 0.00121, 2, 40, 65.99, -224.2, 0.9736, 41, -315.94, -237.07, 0.0264, 2, 40, 194.11, -240.25, 0.85342, 41, -187.28, -247.96, 0.14658, 3, 40, 322.23, -256.3, 0.56741, 41, -58.62, -258.86, 0.42294, 42, -360.95, -328.2, 0.00965, 3, 40, 496.03, -273.25, 0.26036, 41, 115.72, -268.82, 0.63301, 42, -187.62, -306.99, 0.10663, 3, 40, 664.55, -289.04, 0.0472, 41, 284.74, -277.84, 0.67066, 42, -19.69, -285.81, 0.28214, 3, 40, 747.67, -296.53, 0.0011, 41, 368.1, -281.99, 0.50862, 42, 63.08, -275.07, 0.49029, 2, 41, 419.39, -284.54, 0.29069, 42, 114.01, -268.45, 0.70931, 2, 41, 577.39, -235.42, 0.13345, 42, 260.75, -192.02, 0.86655, 2, 41, 685.23, -186.79, 0.01791, 42, 358.22, -124.98, 0.98209, 2, 41, 758.09, -135.13, 5.8E-4, 42, 420.74, -61.19, 0.99942, 2, 41, 442.23, -130.1, 0.16734, 42, 109.02, -112.42, 0.83266, 2, 40, 280.56, -135.23, 0.85234, 41, -105.11, -139.56, 0.14766, 2, 41, 434.44, 99.49, 0.1229, 42, 60.52, 112.12, 0.8771, 2, 40, 336.24, 56.87, 0.92192, 41, -57.19, 54.62, 0.07808, 1, 41, 175.95, 2.86, 1, 3, 40, 558.71, -200.3, 0.0449, 41, 175.42, -193.42, 0.89394, 42, -142.27, -222.17, 0.06116, 2, 40, 184.09, -22.86, 0.99975, 41, -206.01, -31.15, 2.5E-4, 1, 42, 222.97, 18.5, 1, 3, 40, 497.14, -67.7, 0.0225, 41, 108.58, -63.4, 0.97732, 42, -231.18, -106.11, 1.9E-4, 1, 41, 332.95, -5.46, 1, 2, 41, 256.12, 81.9, 0.96047, 42, -111.83, 63.1, 0.03953, 2, 40, 480.83, 114.11, 0.11294, 41, 84.99, 117.62, 0.88706, 3, 40, 604.13, -133.47, 0.00587, 41, 218.12, -124.81, 0.92906, 42, -112.46, -147.07, 0.06506, 2, 41, 354.98, -218.11, 0.51344, 42, 38.81, -214.54, 0.48656, 2, 40, 372.76, -34.44, 0.7654, 41, -17.03, -35.15, 0.2346, 1, 42, 217.68, 83.48, 1, 3, 40, 370.63, -220.95, 0.49653, 41, -11.67, -221.59, 0.50335, 42, -321.38, -283.18, 1.2E-4, 2, 41, 663.61, -105.46, 2.0E-4, 42, 322.48, -48.8, 0.9998, 2, 40, 82.5, -82.45, 1, 41, -305.13, -94.77, 0, 1, 40, 142.08, 95.93, 1 ],
				"hull": 27
			}
		},
		"Torso": {
			"Torso": {
				"type": "mesh",
				"uvs": [ 0.69566, 1, 0.52957, 0.99375, 0.36348, 0.9875, 0.14124, 0.96444, 0.01959, 0.93369, 0.01959, 0.88885, 0.04767, 0.78763, 0.06638, 0.69025, 0.06638, 0.5916, 0.03363, 0.48013, 0, 0.37763, 0, 0.25975, 0.0617, 0.18032, 0.12954, 0.10088, 0.17399, 0.05603, 0.21844, 9.4E-4, 0.33833, 9.4E-4, 0.45822, 9.4E-4, 0.57811, 9.4E-4, 0.698, 9.4E-4, 0.83134, 0.05475, 0.93428, 0.08935, 1, 0.17391, 1, 0.29435, 0.99276, 0.35457, 0.90152, 0.4481, 0.88749, 0.48269, 0.88983, 0.57366, 0.85708, 0.62875, 0.89685, 0.68256, 0.96703, 0.79275, 1, 0.91063, 0.9834, 0.96572, 0.88281, 1, 0.23819, 0.34096, 0.68037, 0.69258, 0.78389, 0.26796, 0.22943, 0.72398, 0.69458, 0.51139, 0.50004, 0.77565, 0.44656, 0.21244, 0.31427, 0.51958, 0.53538, 0.43529, 0.62551, 0.16202, 0.87215, 0.86332, 0.24668, 0.12752, 0.47514, 0.64334, 0.37298, 0.84769, 0.3563, 0.32716, 0.65551, 0.86499 ],
				"triangles": [ 25, 26, 38, 46, 42, 38, 41, 37, 8, 46, 41, 42, 8, 9, 41, 9, 34, 41, 41, 48, 42, 41, 34, 48, 36, 25, 38, 9, 10, 34, 36, 38, 42, 25, 36, 24, 48, 40, 42, 42, 43, 36, 42, 40, 43, 10, 11, 34, 24, 36, 23, 11, 12, 34, 34, 12, 45, 45, 12, 13, 34, 45, 48, 45, 13, 14, 48, 45, 40, 36, 22, 23, 36, 43, 20, 36, 21, 22, 36, 20, 21, 20, 43, 19, 40, 17, 43, 17, 18, 43, 45, 16, 40, 40, 16, 17, 43, 18, 19, 14, 15, 45, 45, 15, 16, 0, 44, 33, 33, 44, 32, 1, 49, 0, 0, 49, 44, 2, 47, 1, 47, 39, 1, 1, 39, 49, 2, 3, 47, 32, 44, 31, 3, 5, 6, 3, 37, 47, 3, 6, 37, 3, 4, 5, 44, 30, 31, 49, 35, 44, 49, 39, 35, 44, 35, 29, 44, 29, 30, 29, 35, 28, 39, 47, 46, 6, 7, 37, 47, 37, 46, 39, 46, 35, 37, 41, 46, 35, 38, 28, 35, 46, 38, 37, 7, 8, 28, 38, 27, 38, 26, 27 ],
				"vertices": [ 1, 2, -4.19, -136.35, 1, 1, 2, -11.59, -81.41, 1, 1, 2, -18.99, -26.46, 1, 2, 2, -20.14, 48.85, 0.99994, 3, -259.57, 74.68, 6.0E-5, 2, 2, -9.97, 92.29, 0.99892, 3, -244.6, 116.71, 0.00108, 2, 2, 16.74, 97.77, 0.97983, 3, -217.45, 119.17, 0.02017, 2, 2, 78.9, 100.99, 0.8851, 3, -155.31, 115.4, 0.1149, 2, 2, 138.15, 106.79, 0.64145, 3, -95.79, 114.52, 0.35855, 2, 2, 196.91, 118.85, 0.33022, 3, -36.05, 119.92, 0.66978, 2, 2, 261.1, 143.17, 0.09167, 3, 30.47, 136.88, 0.90833, 2, 2, 319.9, 166.67, 0.00302, 3, 91.52, 153.65, 0.99698, 1, 3, 162.9, 160.1, 1, 1, 3, 212.85, 143.98, 1, 1, 3, 262.99, 125.83, 1, 1, 3, 291.48, 113.54, 1, 1, 3, 326.17, 101.82, 1, 1, 3, 329.76, 62.06, 1, 1, 3, 333.36, 22.3, 1, 1, 3, 336.95, -17.47, 1, 2, 2, 590.99, -14.96, 8.7E-4, 3, 340.55, -57.23, 0.99913, 2, 2, 567.87, -65.03, 0.00402, 3, 311.96, -104.4, 0.99598, 2, 2, 554.16, -102.84, 0.01472, 3, 294.1, -140.43, 0.98528, 2, 2, 508.19, -134.62, 0.05335, 3, 244.86, -166.85, 0.94665, 1, 3, 171.93, -173.44, 1, 1, 3, 135.25, -174.34, 1, 2, 2, 338.3, -136.02, 0.28791, 3, 75.88, -149.2, 0.71209, 2, 2, 316.76, -135.67, 0.50273, 3, 54.51, -146.44, 0.49727, 2, 2, 262.73, -147.56, 0.81545, 3, -0.5, -152.19, 0.18455, 2, 2, 227.73, -143.61, 0.95072, 3, -34.85, -144.35, 0.04928, 2, 2, 198.34, -163.16, 0.99018, 3, -66.24, -160.48, 0.00982, 2, 2, 137.41, -199.53, 0.99963, 3, -130.86, -189.79, 3.7E-4, 1, 2, 69.42, -224.7, 1, 1, 2, 35.5, -226.02, 1, 1, 2, 8.34, -197.4, 1, 1, 3, 120.87, 76.66, 1, 1, 2, 177.88, -93.77, 1, 1, 3, 181.43, -100.33, 1, 1, 2, 128.98, 49.48, 1, 2, 2, 286.75, -76.25, 0.47244, 3, 31.35, -84.03, 0.52756, 1, 2, 116.33, -45.1, 1, 1, 3, 204.94, 14.59, 1, 2, 2, 256.4, 46.8, 0.00171, 3, 14.99, 41.65, 0.99829, 1, 3, 72.66, -27.07, 1, 2, 2, 490.2, -11.01, 0.00303, 3, 240.83, -42, 0.99697, 1, 2, 89.03, -177.21, 1, 1, 3, 250.36, 85.53, 1, 2, 2, 193.46, -20.81, 0.808, 3, -55.13, -18.48, 0.192, 1, 2, 64.92, -12.47, 1, 1, 3, 132.76, 38.24, 1, 1, 2, 73.53, -106.75, 1 ],
				"hull": 34
			}
		},
		"hair_braid": {
			"hair_braid": { "x": 150.4, "y": 0.69, "rotation": -111.67, "width": 166, "height": 165 }
		},
		"hip": {
			"hip": { "x": -5.2, "y": 1169.25, "width": 350, "height": 249 }
		},
		"lip 2": {
			"lip 2": { "x": -80.7, "y": 1890.25, "width": 83, "height": 25 }
		},
		"table mask": {
			"table mask": {
				"type": "clipping",
				"end": "Head",
				"vertexCount": 8,
				"vertices": [ 376.03, 1483.13, -459.35, 1491.7, -437.93, 2299.24, 7.61, 2453.46, 223.95, 2382.77, 386.74, 2052.91, 628.79, 1648.07, 609.51, 1489.56 ]
			}
		}
	}
},
"animations": {
	"animation": {
		"slots": {
			"Lip": {
				"attachment": [
					{ "time": 3.2667, "name": "lip 4" },
					{ "time": 3.4333, "name": "lip 3" },
					{ "time": 4, "name": "Lip" }
				]
			}
		},
		"bones": {
			"Torso2": {
				"rotate": [
					{ "time": 0, "angle": 0.11 }
				]
			},
			"Head": {
				"rotate": [
					{
						"time": 0,
						"angle": 0,
						"curve": [ 0.25, 0, 0.75, 1 ]
					},
					{
						"time": 0.8333,
						"angle": -1.39,
						"curve": [ 0.25, 0, 0.75, 1 ]
					},
					{ "time": 1.1667, "angle": -16.76, "curve": "stepped" },
					{ "time": 2.8333, "angle": -16.76, "curve": "stepped" },
					{
						"time": 4.3333,
						"angle": -16.76,
						"curve": [ 0.25, 0, 0.75, 1 ]
					},
					{
						"time": 4.8333,
						"angle": -1.71,
						"curve": [ 0.25, 0, 0.75, 1 ]
					},
					{ "time": 6.6667, "angle": 0 }
				]
			},
			"R_Hair3": {
				"rotate": [
					{ "time": 0, "angle": 0, "curve": "stepped" },
					{
						"time": 0.8333,
						"angle": 0,
						"curve": [ 0.25, 0, 0.75, 1 ]
					},
					{
						"time": 1.5,
						"angle": 30.91,
						"curve": [ 0.25, 0, 0.75, 1 ]
					},
					{
						"time": 2,
						"angle": 23.17,
						"curve": [ 0.25, 0, 0.75, 1 ]
					},
					{
						"time": 4.6667,
						"angle": 11.99,
						"curve": [ 0.25, 0, 0.75, 1 ]
					},
					{
						"time": 5.1667,
						"angle": 6.38,
						"curve": [ 0.25, 0, 0.75, 1 ]
					},
					{ "time": 5.6667, "angle": 0, "curve": "stepped" },
					{ "time": 6.6667, "angle": 0 }
				]
			},
			"R_Hair2": {
				"rotate": [
					{ "time": 0, "angle": 0, "curve": "stepped" },
					{ "time": 0.8333, "angle": 0 },
					{ "time": 1.5667, "angle": 2.59 },
					{ "time": 2.6, "angle": 4.35, "curve": "stepped" },
					{
						"time": 3,
						"angle": 4.35,
						"curve": [ 0.305, 0.24, 0.667, 0.67 ]
					},
					{
						"time": 3.8333,
						"angle": -6.29,
						"curve": [ 0.382, 0.56, 0.737, 1 ]
					},
					{
						"time": 4.5,
						"angle": 4.35,
						"curve": [ 0.25, 0, 0.75, 1 ]
					},
					{ "time": 5.1667, "angle": -8.11 },
					{ "time": 5.8333, "angle": 0, "curve": "stepped" },
					{ "time": 6.6667, "angle": 0 }
				]
			},
			"L_Hair3": {
				"rotate": [
					{ "time": 0, "angle": 17.24, "curve": "stepped" },
					{ "time": 0.8333, "angle": 17.24 },
					{ "time": 1.5, "angle": 31.74 },
					{ "time": 2, "angle": 17.24, "curve": "stepped" },
					{ "time": 4.6667, "angle": 17.24 },
					{ "time": 5.1667, "angle": 38.37 },
					{ "time": 5.6667, "angle": 17.24, "curve": "stepped" },
					{ "time": 6.6667, "angle": 17.24 }
				]
			},
			"L_Hair2": {
				"rotate": [
					{ "time": 0, "angle": 0, "curve": "stepped" },
					{ "time": 0.8333, "angle": 0 },
					{ "time": 1.5, "angle": 9.52 },
					{ "time": 2, "angle": 5.46, "curve": "stepped" },
					{ "time": 4.6667, "angle": 5.46 },
					{ "time": 5.1667, "angle": -11.26 },
					{ "time": 5.6667, "angle": 0, "curve": "stepped" },
					{ "time": 6.6667, "angle": 0 }
				]
			},
			"R hand": {
				"rotate": [
					{ "time": 0, "angle": 0 },
					{ "time": 2.3333, "angle": 9.22 },
					{ "time": 2.9, "angle": -115.24 },
					{ "time": 4.0333, "angle": -123.72 },
					{ "time": 4.8333, "angle": 19.3 },
					{ "time": 6.6667, "angle": 0 }
				],
				"translate": [
					{ "time": 0, "x": 0, "y": 0 },
					{ "time": 2.5, "x": -23.9, "y": -23.9 },
					{ "time": 3, "x": 59.76, "y": 250.99 },
					{ "time": 3.5, "x": 47.81, "y": 115.14 },
					{ "time": 4.6667, "x": -93.62, "y": -101.43 },
					{ "time": 5.5, "x": -27.89, "y": -15.94 },
					{ "time": 6.6667, "x": 0, "y": 0 }
				]
			},
			"Look": {
				"translate": [
					{ "time": 0, "x": -3.65, "y": 1.42, "curve": "stepped" },
					{ "time": 1.4333, "x": -3.65, "y": 1.42 },
					{ "time": 1.6333, "x": 6.89, "y": 10.43 },
					{ "time": 3.5, "x": 5.07, "y": 3.77 },
					{ "time": 3.8333, "x": -5.42, "y": -3.2 },
					{ "time": 5, "x": -5.12, "y": 2.18 },
					{ "time": 6.6667, "x": -3.65, "y": 1.42 }
				]
			},
			"Head2": {
				"scale": [
					{ "time": 0.8333, "x": 1, "y": 1 },
					{ "time": 1, "x": 0.152, "y": 1 },
					{ "time": 1.1667, "x": 1, "y": 1, "curve": "stepped" },
					{ "time": 2.6667, "x": 1, "y": 1 },
					{ "time": 2.8333, "x": 0.152, "y": 1 },
					{ "time": 3, "x": 1, "y": 1, "curve": "stepped" },
					{ "time": 5, "x": 1, "y": 1 },
					{ "time": 5.1667, "x": 0.152, "y": 1 },
					{ "time": 5.3333, "x": 1, "y": 1 }
				]
			}
		}
	}
}
}