%YAML 1.1
%TAG !u! tag:unity3d.com,2011:
--- !u!114 &11400000
MonoBehaviour:
  m_ObjectHideFlags: 0
  m_CorrespondingSourceObject: {fileID: 0}
  m_PrefabInternal: {fileID: 0}
  m_GameObject: {fileID: 0}
  m_Enabled: 1
  m_EditorHideFlags: 0
  m_Script: {fileID: 11500000, guid: a6b194f808b1af6499c93410e504af42, type: 3}
  m_Name: Travis2_Atlas
  m_EditorClassIdentifier: 
  atlasFile: {fileID: 4900000, guid: 38ea60a57c57e490d9cf0fcbe41f4e6a, type: 3}
  materials:
  - {fileID: 2100000, guid: 194cbd6bc8d6a4496b189067de759a1d, type: 2}
