{
"skeleton": { "hash": "thKsy3bfm00Hber6bjhhhrU2yGc", "spine": "3.6.52", "width": 794.62, "height": 2476.13 },
"bones": [
	{ "name": "root", "x": 2961.58, "y": -3190.64 },
	{ "name": "hip", "parent": "root", "x": -20.33, "y": 1456.39 },
	{ "name": "Torso", "parent": "hip", "length": 220.66, "rotation": 90, "x": -1.96, "y": 100.18 },
	{ "name": "Torso2", "parent": "Torso", "length": 415.67, "rotation": -4.46, "x": 220.66 },
	{ "name": "Torso3", "parent": "Torso2", "length": 151.01, "rotation": -5.12, "x": 418.97, "y": 3.86 },
	{ "name": "Head", "parent": "Torso3", "length": 188.36, "rotation": -8.17, "x": 152.12, "y": 5.65 },
	{ "name": "Blink", "parent": "Head", "rotation": 20.16, "x": 41.93, "y": 87.24 },
	{ "name": "L", "parent": "root", "rotation": 41.3, "x": -288.07, "y": 1540.76 },
	{ "name": "L arm", "parent": "Torso2", "length": 311.56, "rotation": -174.15, "x": 392.73, "y": 179.6 },
	{ "name": "L arm2", "parent": "L arm", "length": 346.77, "rotation": -19.86, "x": 311.56 },
	{ "name": "L Wrist", "parent": "L arm2", "length": 146.09, "rotation": 23.2, "x": 346.78 },
	{ "name": "LL", "parent": "root", "x": -101.78, "y": 400.31 },
	{ "name": "L leg", "parent": "hip", "length": 545.11, "rotation": -96.3, "x": -63.16, "y": -33.24 },
	{ "name": "L leg2", "parent": "L leg", "length": 480.32, "rotation": 11.87, "x": 545.11 },
	{ "name": "L boot", "parent": "L leg2", "length": 273.3, "rotation": -45.82, "x": 486.39, "y": -7.18 },
	{ "name": "Look", "parent": "Head", "x": 1.32, "y": 198.82 },
	{ "name": "R", "parent": "root", "x": 261.15, "y": 1529.04 },
	{ "name": "R arm", "parent": "Torso2", "length": 363.8, "rotation": -158.62, "x": 387.6, "y": -217.83 },
	{ "name": "R arm2", "parent": "R arm", "length": 261.62, "rotation": -25.52, "x": 363.8 },
	{ "name": "RL", "parent": "root", "x": 245.24, "y": 336.91 },
	{ "name": "R leg", "parent": "hip", "length": 567.58, "rotation": -76.45, "x": 103.04, "y": -53.18 },
	{ "name": "R leg2", "parent": "R leg", "length": 506.82, "rotation": -6.24, "x": 567.58 },
	{ "name": "R boot", "parent": "R leg2", "length": 277.39, "rotation": -50.48, "x": 500.45, "y": 3.84 },
	{ "name": "R eyebriw", "parent": "Head", "x": 66.38, "y": 95.06 },
	{ "name": "R wrist", "parent": "R arm2", "length": 166.58, "rotation": -3.52, "x": 261.62 },
	{ "name": "lip default", "parent": "Head", "rotation": 20.63, "x": -39.48, "y": 69.77 }
],
"slots": [
	{ "name": "L wrist", "bone": "L Wrist", "attachment": "L wrist" },
	{ "name": "L arm", "bone": "L arm", "attachment": "L arm" },
	{ "name": "L boot", "bone": "L boot", "attachment": "L boot" },
	{ "name": "R boot", "bone": "R boot", "attachment": "R boot" },
	{ "name": "Torso", "bone": "Torso", "attachment": "Torso" },
	{ "name": "L leg", "bone": "L leg", "attachment": "L leg" },
	{ "name": "hip", "bone": "hip", "attachment": "hip" },
	{ "name": "R leg", "bone": "R leg", "attachment": "R leg" },
	{ "name": "Head", "bone": "Head", "attachment": "Head" },
	{ "name": "lip default", "bone": "lip default", "attachment": "lip default" },
	{ "name": "R eye", "bone": "Blink", "attachment": "R eye" },
	{ "name": "L eye", "bone": "Blink", "attachment": "L eye" },
	{ "name": "R eyebriw", "bone": "R eyebriw", "attachment": "R eyebriw" },
	{ "name": "L eyebrow", "bone": "R eyebriw", "attachment": "L eyebrow" },
	{ "name": "R", "bone": "Blink", "attachment": "R" },
	{ "name": "R pupil", "bone": "Look", "attachment": "R pupil" },
	{ "name": "L", "bone": "Blink", "attachment": "L" },
	{ "name": "L pupil", "bone": "Look", "attachment": "L pupil" },
	{ "name": "shirt", "bone": "Torso" },
	{ "name": "Lshrt", "bone": "L arm", "attachment": "L arm_Shirt" },
	{ "name": "tshirt", "bone": "Torso", "attachment": "Tshirt-Torso" },
	{ "name": "R Wrist", "bone": "R wrist", "attachment": "R wrist" },
	{ "name": "R arm", "bone": "R arm", "attachment": "R arm" },
	{ "name": "Rshrt", "bone": "R arm", "attachment": "R-arm shirt" }
],
"ik": [
	{
		"name": "L",
		"order": 1,
		"bones": [ "L arm", "L arm2" ],
		"target": "L",
		"bendPositive": false
	},
	{
		"name": "LL",
		"order": 2,
		"bones": [ "L leg", "L leg2" ],
		"target": "LL"
	},
	{
		"name": "R",
		"order": 0,
		"bones": [ "R arm", "R arm2" ],
		"target": "R",
		"bendPositive": false
	},
	{
		"name": "RL",
		"order": 3,
		"bones": [ "R leg", "R leg2" ],
		"target": "RL"
	}
],
"skins": {
	"default": {
		"Head": {
			"Head": { "x": 54.51, "y": 22.01, "rotation": -72.26, "width": 256, "height": 306 }
		},
		"L": {
			"L": {
				"type": "clipping",
				"end": "L pupil",
				"vertexCount": 17,
				"vertices": [ 2.38, 39.77, 4.42, 37.7, 6.31, 35.72, 7.59, 33.39, 8.99, 30.66, 9.92, 27.43, 10.19, 22.93, 7.94, 18.31, 5.66, 14.75, 2.93, 11.29, 0.45, 10.33, -0.1, 13.48, -1.84, 17.43, -2.47, 22.32, -3.02, 27.59, -2.74, 32.15, -0.56, 36.77 ]
			}
		},
		"L arm": {
			"L arm": {
				"type": "mesh",
				"uvs": [ 0.31366, 1, 0, 0.95987, 0, 0.80433, 0, 0.78326, 0, 0.74613, 0.25256, 0.42402, 0.2642, 0.40596, 0.26711, 0.38589, 0.20601, 0.16627, 0.45624, 0, 0.72102, 0, 1, 0, 0.87524, 0.17831, 0.69775, 0.38904, 0.69193, 0.41011, 0.69193, 0.42918, 0.34858, 0.74621, 0.32821, 0.77431, 0.3544, 0.8004, 0.38059, 0.95794, 0.55436, 0.17254, 0.47677, 0.38742, 0.47694, 0.40802, 0.47134, 0.42659, 0.2031, 0.74618, 0.17625, 0.77845, 0.15928, 0.80256, 0.20318, 0.95884 ],
				"triangles": [ 5, 6, 23, 3, 4, 25, 25, 24, 17, 25, 4, 24, 17, 24, 16, 16, 23, 15, 16, 24, 23, 24, 5, 23, 24, 4, 5, 23, 22, 15, 23, 6, 22, 13, 14, 21, 6, 7, 22, 7, 21, 22, 14, 22, 21, 21, 20, 13, 13, 20, 12, 20, 21, 8, 21, 7, 8, 20, 10, 12, 12, 10, 11, 8, 9, 20, 20, 9, 10, 22, 14, 15, 1, 27, 0, 0, 27, 19, 1, 26, 27, 1, 2, 26, 27, 18, 19, 27, 26, 18, 26, 17, 18, 2, 3, 26, 26, 3, 25, 26, 25, 17 ],
				"vertices": [ 1, 10, 178.33, 26.07, 1, 1, 10, 132.35, -63.69, 1, 1, 10, -1.51, -47.39, 1, 2, 10, -19.65, -45.19, 0.504, 9, 346.52, -49.27, 0.496, 1, 9, 315.61, -58.29, 1, 1, 9, 26.37, -63.99, 1, 2, 8, 301.71, -65.11, 0.62858, 9, 10.36, -65.03, 0.37142, 1, 8, 284.34, -63.82, 1, 1, 8, 93.55, -77.46, 1, 1, 8, -48.75, 0.84, 1, 1, 8, -46.83, 79.99, 1, 1, 8, -44.8, 163.38, 1, 1, 8, 108.84, 122.33, 1, 1, 8, 290.2, 64.84, 1, 2, 8, 308.42, 62.65, 0.50013, 9, -21.99, 58.75, 0.49987, 2, 8, 324.95, 62.25, 0.16, 9, -6.12, 63.38, 0.84, 1, 9, 286.5, 41.79, 1, 2, 10, -15.49, 53.17, 0.55427, 9, 311.59, 42.76, 0.44573, 1, 10, 7.91, 58.21, 1, 1, 10, 144.44, 49.47, 1, 1, 8, 101.51, 26.54, 1, 1, 8, 287.19, -1.18, 1, 2, 8, 305.05, -1.56, 0.87416, 9, -5.73, -3.46, 0.12584, 1, 9, 10.19, -0.57, 1, 1, 9, 298.65, 0.02, 1, 2, 10, -17.42, 7.63, 0.52, 9, 327.76, 0.15, 0.48, 1, 10, 2.72, 0.07, 1, 1, 10, 138.8, -3.28, 1 ],
				"hull": 20
			}
		},
		"L boot": {
			"L boot": { "x": 146.32, "y": 11.25, "rotation": 131.05, "width": 369, "height": 287 }
		},
		"L eye": {
			"L eye": { "x": 2.23, "y": 26.47, "rotation": -92.42, "width": 45, "height": 26 }
		},
		"L eyebrow": {
			"L eyebrow": { "x": -14.67, "y": 22.64, "rotation": -72.26, "width": 50, "height": 17 }
		},
		"L leg": {
			"L leg": {
				"type": "mesh",
				"uvs": [ 0.51294, 1, 0, 0.96244, 0, 0.58171, 0, 0.54772, 0, 0.51509, 0, 0.16156, 0.04417, 0, 0.49321, 0, 1, 0, 1, 0.14134, 0.79776, 0.51254, 0.75622, 0.55198, 0.75029, 0.57645, 0.74436, 0.94902, 0.63755, 0.99661, 0.45656, 0.15233, 0.28562, 0.51418, 0.28495, 0.54932, 0.28558, 0.57971 ],
				"triangles": [ 17, 3, 4, 17, 16, 11, 12, 17, 11, 18, 17, 12, 2, 3, 17, 2, 17, 18, 12, 14, 18, 1, 2, 18, 18, 0, 1, 12, 13, 14, 14, 0, 18, 16, 17, 4, 7, 8, 9, 15, 6, 7, 15, 7, 9, 5, 6, 15, 10, 15, 9, 16, 5, 15, 16, 15, 10, 4, 5, 16, 11, 16, 10 ],
				"vertices": [ 1, 13, 551.25, 21.94, 1, 1, 13, 495.24, -113.4, 1, 2, 12, 603.71, -65.84, 0.04654, 13, 44.88, -75.87, 0.95346, 2, 12, 563.6, -70.27, 0.3223, 13, 4.67, -72.52, 0.6777, 2, 12, 525.1, -74.53, 0.73627, 13, -33.94, -69.3, 0.26373, 1, 12, 108, -120.59, 1, 1, 12, -83.93, -129.7, 1, 1, 12, -97.34, -8.29, 1, 1, 12, -112.47, 128.72, 1, 1, 12, 54.29, 147.14, 1, 2, 12, 498.28, 140.82, 0.896, 13, -18.92, 147.19, 0.104, 2, 12, 546.05, 134.73, 0.12126, 13, 26.78, 132.05, 0.87874, 1, 13, 55.6, 128.02, 1, 1, 13, 496.17, 89.69, 1, 1, 13, 550.06, 56.05, 1, 1, 12, 83.47, 1.64, 1, 2, 12, 515.5, 2.58, 0.99529, 13, -28.56, 8.21, 0.00471, 2, 12, 556.99, 6.97, 0.06089, 13, 13, 4.56, 0.93911, 2, 12, 592.82, 11.1, 0.00176, 13, 48.96, 1.74, 0.99824 ],
				"hull": 15
			}
		},
		"L pupil": {
			"L pupil": { "x": 33.9, "y": -85.34, "rotation": -72.26, "width": 18, "height": 17 }
		},
		"L wrist": {
			"L wrist": { "x": 58.48, "y": -26.47, "rotation": 65.87, "width": 102, "height": 201 },
			"L wrist 2": { "x": 45.63, "y": -11.52, "rotation": 77.48, "width": 120, "height": 201 }
		},
		"Lshrt": {
			"L arm_Shirt": { "x": 107.35, "y": 39.18, "rotation": 105.08, "width": 247, "height": 301 }
		},
		"R": {
			"R": {
				"type": "clipping",
				"end": "R pupil",
				"vertexCount": 16,
				"vertices": [ 0.01, -23.54, 3.43, -27.78, 5.27, -32.45, 7.44, -36.58, 8.74, -43.92, 7.8, -49.33, 7.06, -53.26, 5.58, -57.5, 2.49, -61.87, 0.88, -64.51, -1.08, -61.12, -2.96, -55.94, -4.1, -49.79, -4.03, -43.28, -3.42, -33.6, -2.18, -27.95 ]
			}
		},
		"R Wrist": {
			"R wrist": { "x": 69.49, "y": 12.87, "rotation": 97, "width": 134, "height": 249 },
			"R wrist 2": { "x": 53.6, "y": -13.79, "rotation": 105, "width": 160, "height": 162 }
		},
		"R arm": {
			"R arm": {
				"type": "mesh",
				"color": "c6c6c6ff",
				"uvs": [ 0.0377, 0.01589, 0, 0.07229, 0, 0.15911, 0.38297, 0.41365, 0.46583, 0.46337, 0.49806, 0.48044, 0.50496, 0.50344, 0.50727, 0.58128, 0.50496, 0.72079, 0.51417, 0.74825, 0.47964, 0.77125, 0.38297, 0.87618, 0.35995, 0.99491, 0.61545, 1, 0.87786, 0.99417, 0.90548, 0.88212, 0.87095, 0.78564, 0.87095, 0.75596, 0.88016, 0.73592, 1, 0.57576, 1, 0.4689, 0.99985, 0.44441, 0.99295, 0.41398, 0.98604, 0.32493, 0.77888, 0.04769, 0.51187, 0.00391, 0.12747, 0, 0.64526, 0.88155, 0.66655, 0.77972, 0.67187, 0.74997, 0.68252, 0.72308, 0.76238, 0.58148, 0.74641, 0.48651, 0.7535, 0.45434, 0.73576, 0.43317, 0.67365, 0.35594, 0.3631, 0.10272, 0.27615, 0.04379 ],
				"triangles": [ 10, 9, 28, 27, 10, 28, 16, 27, 28, 16, 15, 27, 14, 27, 15, 27, 12, 11, 27, 11, 10, 13, 12, 27, 13, 27, 14, 6, 5, 32, 32, 33, 20, 37, 26, 25, 0, 26, 37, 1, 0, 37, 36, 37, 25, 36, 25, 24, 2, 1, 37, 2, 37, 36, 35, 36, 24, 35, 24, 23, 3, 36, 35, 2, 36, 3, 34, 35, 23, 22, 34, 23, 33, 34, 22, 4, 3, 35, 4, 35, 34, 5, 4, 34, 5, 34, 33, 33, 22, 21, 33, 21, 20, 32, 5, 33, 31, 32, 20, 7, 6, 32, 19, 31, 20, 7, 32, 31, 30, 7, 31, 8, 7, 30, 18, 31, 19, 30, 31, 18, 29, 9, 8, 30, 29, 8, 17, 30, 18, 29, 30, 17, 28, 9, 29, 29, 17, 16, 28, 29, 16 ],
				"vertices": [ 1, 17, -53.93, -58.67, 1, 1, 17, -10.92, -82.6, 1, 1, 17, 59.93, -104.16, 1, 2, 18, -37.57, -85.53, 0.01094, 17, 298.31, -66.62, 0.98906, 1, 17, 345.51, -57.17, 1, 2, 18, 17.13, -50.11, 0.128, 17, 362.02, -52.93, 0.872, 2, 18, 36.58, -46.89, 0.736, 17, 381.35, -56.83, 0.264, 1, 18, 102.79, -41.78, 1, 2, 18, 221.56, -34.38, 0.98931, 24, -37.87, -36.78, 0.01069, 2, 18, 244.76, -30.28, 0.80645, 24, -14.97, -31.26, 0.19355, 2, 18, 264.98, -38.43, 0.28432, 24, 5.71, -38.15, 0.71568, 1, 24, 97.89, -52.99, 1, 1, 24, 199.14, -46.24, 1, 1, 24, 194.4, 24, 1, 1, 24, 180.18, 94.92, 1, 2, 18, 351.42, 84.79, 2.3E-4, 24, 84.42, 90.15, 0.99977, 2, 18, 269.96, 69.77, 0.3524, 24, 4.03, 70.15, 0.6476, 2, 18, 244.7, 68.06, 0.67713, 24, -21.07, 66.89, 0.32287, 2, 18, 227.48, 69.43, 0.84823, 24, -38.35, 67.2, 0.15177, 2, 18, 88.94, 93.09, 0.99968, 17, 480, 55.45, 3.2E-4, 2, 18, -2, 86.94, 0.76222, 17, 392.8, 81.99, 0.23778, 2, 18, -22.84, 85.49, 0.24, 17, 372.8, 88.03, 0.76, 1, 17, 347.42, 93.77, 1, 2, 18, -124.27, 74.83, 0.00274, 17, 274.2, 114.07, 0.99726, 1, 17, 31.37, 128.43, 1, 1, 17, -25.74, 69.05, 1, 1, 17, -59.71, -31.11, 1, 1, 24, 93.15, 19.13, 1, 2, 18, 268.71, 13.34, 0.27284, 24, 6.26, 13.75, 0.72716, 2, 18, 243.3, 13.09, 0.92337, 24, -19.1, 11.94, 0.07663, 2, 18, 220.22, 14.47, 0.98754, 24, -42.22, 11.89, 0.01246, 1, 18, 98.22, 28.22, 1, 2, 18, 17.69, 18.38, 0.576, 17, 386.86, 10.9, 0.424, 1, 17, 361.18, 20.75, 1, 1, 17, 342.49, 21.34, 1, 1, 17, 274.49, 24.18, 1, 1, 17, 42.98, 5.37, 1, 1, 17, -12.07, -2.87, 1 ],
				"hull": 27
			}
		},
		"R boot": {
			"R boot": { "x": 127.7, "y": 21.92, "rotation": 135.97, "width": 369, "height": 287 }
		},
		"R eye": {
			"R eye": { "x": -0.77, "y": -44.47, "rotation": -92.42, "width": 59, "height": 32 }
		},
		"R eyebriw": {
			"R eyebriw": { "x": 11.77, "y": -40.29, "rotation": -72.26, "width": 72, "height": 25 }
		},
		"R leg": {
			"R leg": {
				"type": "mesh",
				"uvs": [ 0.48231, 0.97267, 0.40931, 0.68568, 0.41249, 0.6248, 0.39345, 0.59436, 0.37123, 0.54653, 0.08151, 0.19792, 0, 0.13487, 0, 0.02616, 0.24337, 0, 0.69402, 0, 0.73845, 0.03594, 0.81461, 0.124, 0.90348, 0.53383, 0.90665, 0.56645, 0.91617, 0.58601, 0.96377, 0.67516, 0.97647, 0.97737, 0.92569, 1, 0.72893, 1, 0.53534, 1, 0.7291, 0.97502, 0.6787, 0.68057, 0.64562, 0.60685, 0.64651, 0.5806, 0.63102, 0.54033, 0.37983, 0.1586, 0.30049, 0.08793 ],
				"triangles": [ 23, 12, 13, 16, 17, 20, 17, 18, 20, 18, 19, 20, 19, 0, 20, 20, 15, 16, 0, 21, 20, 20, 21, 15, 0, 1, 21, 1, 22, 21, 1, 2, 22, 21, 14, 15, 21, 22, 14, 22, 2, 23, 22, 13, 14, 22, 23, 13, 23, 2, 3, 3, 4, 24, 4, 25, 24, 4, 5, 25, 24, 11, 12, 24, 25, 11, 5, 26, 25, 5, 6, 26, 25, 10, 11, 25, 26, 10, 6, 7, 26, 7, 8, 26, 26, 9, 10, 26, 8, 9, 3, 24, 23, 23, 24, 12 ],
				"vertices": [ 1, 21, 496.65, -100.01, 1, 2, 20, 702.24, -125.5, 0.224, 21, 152.7, -102.8, 0.776, 2, 20, 631.88, -107.21, 0.52953, 21, 80.33, -95.78, 0.47047, 2, 20, 594.72, -106.27, 0.72602, 21, 43.49, -100.69, 0.27398, 1, 20, 537.07, -101.72, 1, 1, 20, 104.65, -119.41, 1, 1, 20, 23.65, -134.19, 1, 1, 20, -102.53, -103.78, 1, 1, 20, -109.58, 0.3, 1, 1, 20, -66.4, 179.49, 1, 1, 20, -20.43, 187.1, 1, 1, 20, 89.08, 192.76, 1, 2, 20, 573.33, 113.46, 0.848, 21, -12.14, 112.96, 0.152, 2, 20, 611.49, 105.6, 0.352, 21, 26.78, 111.18, 0.648, 1, 21, 50.38, 113.23, 1, 1, 21, 158.02, 124.26, 1, 1, 21, 518.15, 101.04, 1, 1, 21, 543.45, 78.21, 1, 1, 21, 537.12, -2.02, 1, 1, 21, 530.89, -80.95, 1, 1, 21, 507.39, 0.4, 1, 1, 21, 155.28, 7.52, 1, 1, 21, 66.47, 0.96, 1, 1, 21, 35.25, 3.79, 1, 1, 20, 554.77, 3.31, 1, 1, 20, 87.59, 10.21, 1, 1, 20, -2.04, -1.58, 1 ],
				"hull": 20
			}
		},
		"R pupil": {
			"R pupil": { "x": 57.94, "y": -150.62, "rotation": -72.26, "width": 21, "height": 19 }
		},
		"Rshrt": {
			"R-arm shirt": { "x": 106.79, "y": 22.97, "rotation": 77.31, "width": 265, "height": 329 }
		},
		"Torso": {
			"Torso": {
				"type": "mesh",
				"uvs": [ 0.10872, 0.93602, 0.34741, 1, 0.73613, 0.92752, 0.69112, 0.81703, 0.71976, 0.71693, 0.74295, 0.66215, 0.77841, 0.61965, 0.82342, 0.53844, 0.85616, 0.41095, 0.83297, 0.24275, 0.72931, 0.21159, 0.58473, 0.17476, 0.57382, 0.15115, 0.58201, 0.11526, 0.59974, 0.0145, 0.43159, 0.01802, 0.28467, 0.02111, 0.27785, 0.11932, 0.27376, 0.14954, 0.26148, 0.17598, 0.12372, 0.22698, 0, 0.25248, 0, 0.39886, 0, 0.52446, 0.07735, 0.61795, 0.0869, 0.6739, 0.10054, 0.7334, 0.11008, 0.83067, 0.35961, 0.949, 0.3626, 0.82608, 0.36409, 0.7073, 0.36707, 0.66391, 0.37304, 0.6009, 0.37751, 0.5255, 0.39392, 0.41808, 0.41033, 0.25798, 0.41183, 0.22433, 0.41928, 0.18611, 0.42376, 0.15719, 0.42525, 0.1231 ],
				"triangles": [ 39, 16, 15, 13, 15, 14, 19, 18, 37, 37, 38, 12, 37, 18, 38, 18, 17, 38, 38, 39, 12, 38, 17, 39, 12, 39, 13, 17, 16, 39, 39, 15, 13, 37, 12, 11, 21, 20, 35, 30, 31, 4, 4, 31, 5, 31, 26, 25, 25, 24, 31, 31, 32, 5, 31, 24, 32, 5, 32, 6, 32, 33, 6, 6, 33, 7, 32, 24, 33, 33, 24, 23, 33, 34, 7, 7, 34, 8, 34, 33, 22, 33, 23, 22, 8, 35, 9, 8, 34, 35, 35, 34, 21, 34, 22, 21, 35, 10, 9, 35, 36, 10, 36, 11, 10, 35, 20, 36, 20, 19, 36, 36, 19, 37, 36, 37, 11, 30, 26, 31, 1, 28, 2, 1, 0, 28, 28, 3, 2, 28, 29, 3, 0, 27, 28, 28, 27, 29, 27, 26, 29, 29, 30, 3, 29, 26, 30, 3, 30, 4 ],
				"vertices": [ 2, 2, 18.6, 154.59, 0.99994, 3, -213.46, 138.42, 6.0E-5, 1, 2, -37.76, 8.99, 1, 2, 2, 26.09, -228.13, 0.98924, 3, -176.26, -242.56, 0.01076, 2, 2, 123.43, -200.67, 0.85753, 3, -81.35, -207.62, 0.14247, 2, 2, 211.62, -218.15, 0.49039, 3, 7.94, -218.19, 0.50961, 2, 2, 259.88, -232.29, 0.272, 3, 57.15, -228.54, 0.728, 1, 3, 96.15, -247.2, 1, 1, 3, 169.62, -269.01, 1, 1, 3, 283.15, -280.2, 1, 1, 3, 429.78, -254.58, 1, 1, 3, 452.24, -189.41, 1, 2, 3, 477.74, -98.96, 0.664, 4, 67.71, -97.17, 0.336, 2, 3, 497.96, -90.71, 0.24258, 4, 87.12, -87.14, 0.75742, 2, 3, 529.87, -93.23, 0.12149, 4, 119.12, -86.81, 0.87851, 1, 5, 68.32, -79.45, 1, 1, 5, 34.1, 17.29, 1, 1, 5, 4.2, 101.82, 1, 1, 4, 84.74, 95.55, 1, 2, 3, 485.15, 91.89, 0.296, 4, 58.07, 93.58, 0.704, 2, 3, 461.35, 97.54, 0.552, 4, 33.85, 97.09, 0.448, 1, 3, 410.03, 177.83, 1, 1, 3, 381.77, 251.33, 1, 1, 3, 253.2, 241.31, 1, 1, 3, 142.88, 232.71, 1, 1, 3, 64.42, 179.27, 1, 2, 2, 249.53, 167.9, 0.24, 3, 15.74, 169.64, 0.76, 3, 2, 197.11, 159.58, 0.49251, 3, -35.88, 157.27, 0.504, 4, -466.72, 112.22, 0.00349, 1, 2, 111.42, 153.76, 1, 1, 2, 7.17, 1.55, 1, 2, 2, 115.46, -0.27, 0.816, 3, -104.86, -8.45, 0.184, 2, 2, 220.11, -1.18, 0.52494, 3, -0.46, -1.22, 0.47506, 2, 2, 258.33, -3, 0.24, 3, 37.79, -0.07, 0.76, 2, 3, 93.41, 0.61, 0.99996, 4, -323.97, -32.27, 4.0E-5, 2, 3, 159.85, 3.05, 0.99964, 4, -258.01, -23.92, 3.6E-4, 1, 3, 254.98, 0.43, 1, 1, 3, 396.39, 1.4, 1, 1, 3, 426.01, 2.8, 1, 2, 3, 459.93, 0.88, 0.328, 4, 41.07, 0.69, 0.672, 2, 3, 485.55, 0.14, 0.28, 4, 66.65, 2.24, 0.72, 1, 4, 96.41, 6.33, 1 ],
				"hull": 28
			}
		},
		"hip": {
			"hip": { "x": 45.63, "y": -2.08, "width": 459, "height": 361 }
		},
		"lip default": {
			"Lip1": { "x": -2.04, "y": -11.1, "rotation": -93.99, "width": 65, "height": 18 },
			"Lip2": { "x": -1.05, "y": -13.77, "rotation": -102.54, "width": 65, "height": 32 },
			"Lip3": { "x": -0.9, "y": -10.79, "rotation": -95.97, "width": 58, "height": 19 },
			"Lip4": { "x": 0.12, "y": -12.71, "rotation": -92.88, "width": 69, "height": 23 },
			"Lip5": { "x": -6.43, "y": -9.52, "scaleX": 0.907, "rotation": -92.88, "width": 65, "height": 30 },
			"Lip6": { "x": -2.14, "y": -7.07, "rotation": -91.87, "width": 62, "height": 28 },
			"lip default": { "x": -6.26, "y": -14.34, "rotation": -92.88, "width": 73, "height": 39 }
		},
		"tshirt": {
			"Tshirt-Torso": {
				"type": "mesh",
				"uvs": [ 0.27587, 0.95027, 0.37982, 0.97514, 0.48376, 1, 0.5769, 0.99122, 0.67003, 0.98243, 0.76317, 0.97365, 0.8563, 0.96486, 0.83468, 0.84006, 0.83634, 0.75902, 0.83967, 0.66339, 0.85131, 0.54993, 0.88291, 0.45755, 0.89455, 0.34085, 0.89122, 0.23064, 0.85963, 0.1188, 0.77481, 0.05883, 0.67502, 0.01021, 0.51869, 0.00534, 0.42389, 0.00615, 0.32909, 0.00696, 0.22931, 0.06693, 0.18607, 0.17229, 0.21268, 0.3214, 0.27255, 0.49483, 0.30248, 0.61639, 0.27255, 0.76874, 0.25758, 0.90165, 0.5876, 0.23711, 0.56082, 0.80126, 0.64317, 0.55825, 0.33382, 0.18692, 0.4486, 0.43317, 0.7431, 0.40073, 0.48805, 0.65391, 0.6964, 0.75056, 0.45113, 0.25702, 0.60623, 0.35636, 0.38984, 0.84606, 0.76514, 0.24933, 0.3438, 0.33866, 0.43094, 0.55133, 0.63523, 0.11561, 0.4915, 0.13443, 0.62699, 0.68054, 0.60251, 0.46856, 0.74799, 0.63903, 0.74474, 0.5122 ],
				"triangles": [ 24, 23, 40, 42, 17, 41, 30, 19, 18, 20, 19, 30, 29, 46, 45, 45, 46, 10, 40, 44, 29, 29, 44, 46, 40, 31, 44, 40, 23, 31, 10, 46, 11, 44, 32, 46, 46, 32, 11, 23, 39, 31, 23, 22, 39, 44, 31, 36, 36, 31, 35, 44, 36, 32, 36, 35, 27, 11, 32, 12, 31, 39, 35, 32, 38, 12, 32, 36, 38, 36, 27, 38, 38, 13, 12, 22, 30, 39, 39, 30, 35, 22, 21, 30, 35, 42, 27, 35, 30, 42, 27, 41, 38, 38, 14, 13, 38, 15, 14, 38, 41, 15, 27, 42, 41, 41, 16, 15, 41, 17, 16, 21, 20, 30, 30, 18, 42, 42, 18, 17, 28, 3, 2, 2, 1, 37, 2, 37, 28, 3, 28, 4, 5, 4, 34, 1, 0, 37, 4, 28, 34, 5, 7, 6, 5, 34, 7, 0, 26, 37, 26, 25, 37, 37, 25, 33, 37, 33, 28, 33, 24, 40, 24, 33, 25, 7, 34, 8, 28, 43, 34, 28, 33, 43, 34, 45, 8, 8, 45, 9, 34, 43, 45, 43, 29, 45, 43, 33, 29, 9, 45, 10, 33, 40, 29 ],
				"vertices": [ 1, 2, -107.37, 178.25, 1, 1, 2, -126.52, 90.08, 1, 1, 2, -145.67, 1.91, 1, 1, 2, -135.97, -76.37, 1, 1, 2, -126.27, -154.65, 1, 2, 2, -116.57, -232.93, 0.99985, 3, -318.12, -258.43, 1.5E-4, 2, 2, -106.87, -311.21, 0.9994, 3, -302.36, -335.72, 6.0E-4, 2, 2, 0.56, -290.1, 0.95799, 3, -196.9, -306.32, 0.04201, 2, 2, 70.67, -289.62, 0.86599, 3, -127.04, -300.4, 0.13401, 2, 2, 153.43, -290.21, 0.66934, 3, -44.48, -294.55, 0.33066, 2, 2, 251.8, -297.39, 0.35406, 3, 54.15, -294.07, 0.64594, 2, 2, 332.4, -321.87, 0.16042, 3, 136.41, -312.22, 0.83958, 2, 2, 433.57, -328.98, 0.04784, 3, 237.82, -311.44, 0.95216, 2, 2, 528.8, -323.62, 0.00819, 3, 332.34, -298.7, 0.99181, 2, 2, 624.79, -294.4, 4.0E-5, 3, 425.77, -262.11, 0.99996, 2, 3, 469.9, -185.59, 0.97666, 4, 67.63, -184.14, 0.02334, 1, 3, 502.95, -97.54, 1, 1, 3, 493.38, 33.97, 1, 1, 3, 484.34, 113.37, 1, 1, 3, 475.3, 192.78, 1, 1, 3, 414.93, 271.02, 1, 1, 3, 320.49, 297.76, 1, 1, 3, 194.55, 261.99, 1, 1, 3, 50.63, 196.14, 1, 3, 2, 181.94, 163.56, 0.68675, 3, -51.31, 160.06, 0.30902, 4, -482.34, 113.63, 0.00423, 2, 2, 49.52, 185.26, 0.99389, 3, -185.02, 171.4, 0.00611, 1, 2, -65.74, 194.79, 1, 1, 3, 300.06, -44.74, 1, 2, 2, 27.92, -58.42, 0.99773, 3, -187.62, -73.22, 0.00227, 2, 2, 239.91, -122.18, 0.38625, 3, 28.68, -120.32, 0.61375, 1, 3, 320.9, 172.57, 1, 1, 3, 119.16, 54.11, 1, 1, 3, 172.98, -189.88, 1, 1, 2, 153.68, 6.32, 1, 2, 2, 74.82, -171.49, 0.90463, 3, -132.08, -182.31, 0.09537, 1, 3, 270.92, 67.89, 1, 2, 2, 413.64, -86.37, 0.00586, 3, 199.11, -71.12, 0.99414, 1, 2, -14.69, 84.62, 1, 2, 2, 509.78, -217.8, 0.00673, 3, 305.17, -194.68, 0.99327, 1, 3, 191.24, 150.5, 1, 3, 2, 241.09, 56.82, 0.30338, 3, 15.95, 58.24, 0.69342, 4, -406.26, 18.21, 0.0032, 1, 3, 408.77, -73.7, 1, 1, 3, 379.93, 45.11, 1, 2, 2, 133.8, -111.39, 0.86339, 3, -77.95, -117.8, 0.13661, 1, 3, 102.26, -78.13, 1, 2, 2, 172.43, -212.38, 0.63823, 3, -31.59, -215.49, 0.36177, 2, 2, 282.02, -206.71, 0.27531, 3, 77.24, -201.31, 0.72469 ],
				"hull": 27
			}
		}
	}
},
"animations": {
	"2.3": {
		"slots": {
			"lip default": {
				"attachment": [
					{ "time": 0, "name": "Lip1" },
					{ "time": 0.6667, "name": "Lip6" },
					{ "time": 0.9333, "name": "Lip3" },
					{ "time": 1.1, "name": "Lip2" },
					{ "time": 1.3333, "name": "Lip2" },
					{ "time": 1.5, "name": "Lip6" },
					{ "time": 1.9667, "name": "Lip1" },
					{ "time": 4.8333, "name": "lip default" },
					{ "time": 4.9667, "name": "Lip6" },
					{ "time": 5.2333, "name": "Lip3" },
					{ "time": 5.4, "name": "Lip2" },
					{ "time": 5.6333, "name": "Lip2" },
					{ "time": 5.8, "name": "Lip6" },
					{ "time": 6.2667, "name": "lip default" },
					{ "time": 6.6667, "name": "Lip1" }
				]
			}
		},
		"bones": {
			"root": {
				"translate": [
					{ "time": 0, "x": -859.79, "y": 383.9, "curve": "stepped" },
					{ "time": 6.6667, "x": -859.79, "y": 383.9 }
				],
				"scale": [
					{ "time": 0, "x": 1, "y": 1, "curve": "stepped" },
					{ "time": 6.6667, "x": 1, "y": 1 }
				]
			},
			"hip": {
				"translate": [
					{ "time": 0, "x": -42.08, "y": -212.87, "curve": "stepped" },
					{ "time": 6.6667, "x": -42.08, "y": -212.87 }
				]
			},
			"LL": {
				"translate": [
					{ "time": 0, "x": -187.67, "y": -71.51, "curve": "stepped" },
					{ "time": 6.6667, "x": -187.67, "y": -71.51 }
				]
			},
			"L": {
				"translate": [
					{ "time": 0, "x": -196.37, "y": 362.7, "curve": "stepped" },
					{
						"time": 4.3333,
						"x": -196.37,
						"y": 362.7,
						"curve": [ 0.25, 0, 0.75, 1 ]
					},
					{
						"time": 4.6667,
						"x": -185.88,
						"y": 407.31,
						"curve": [ 0.25, 0, 0.75, 1 ]
					},
					{
						"time": 4.8333,
						"x": -196.37,
						"y": 348.65,
						"curve": [ 0.25, 0, 0.75, 1 ]
					},
					{
						"time": 5.0333,
						"x": -196.37,
						"y": 362.7,
						"curve": [ 0.25, 0, 0.75, 1 ]
					},
					{
						"time": 5.3667,
						"x": -175.38,
						"y": 386.32,
						"curve": [ 0.25, 0, 0.75, 1 ]
					},
					{
						"time": 5.5333,
						"x": -196.37,
						"y": 348.65,
						"curve": [ 0.25, 0, 0.75, 1 ]
					},
					{ "time": 6.6667, "x": -196.37, "y": 362.7 }
				]
			},
			"R": {
				"rotate": [
					{ "time": 0, "angle": 20.44, "curve": "stepped" },
					{ "time": 6.6667, "angle": 20.44 }
				],
				"translate": [
					{ "time": 0, "x": -205, "y": -77.55 },
					{ "time": 3, "x": -56.39, "y": 17.8 },
					{ "time": 3.3333, "x": -46.17, "y": 56.97 },
					{ "time": 3.6667, "x": -71.72, "y": -77.57, "curve": "stepped" },
					{ "time": 6, "x": -71.72, "y": -77.57 },
					{ "time": 6.3333, "x": -55.54, "y": -67.35 },
					{ "time": 6.6667, "x": -205, "y": -77.55 }
				]
			},
			"Head": {
				"rotate": [
					{ "time": 0, "angle": 2.07 },
					{ "time": 0.7, "angle": -0.52 },
					{ "time": 1.3, "angle": 9.85 },
					{ "time": 6.6667, "angle": 2.07 }
				]
			},
			"Torso2": {
				"rotate": [
					{ "time": 0, "angle": -8.11 },
					{ "time": 1.6667, "angle": 7.14 },
					{ "time": 3.3333, "angle": 5.03 },
					{ "time": 5, "angle": 7.14 },
					{ "time": 6.6667, "angle": -8.11 }
				]
			},
			"Torso3": {
				"rotate": [
					{ "time": 0, "angle": 28.87, "curve": "stepped" },
					{ "time": 6.6667, "angle": 28.87 }
				]
			},
			"RL": {
				"translate": [
					{ "time": 0, "x": 47.99, "y": -383.9, "curve": "stepped" },
					{ "time": 6.6667, "x": 47.99, "y": -383.9 }
				]
			},
			"R wrist": {
				"rotate": [
					{ "time": 0, "angle": 34.66, "curve": "stepped" },
					{ "time": 3.2667, "angle": 34.66 },
					{ "time": 3.7333, "angle": -15.27, "curve": "stepped" },
					{ "time": 6.2667, "angle": -15.27 },
					{ "time": 6.6667, "angle": 34.66 }
				]
			},
			"L arm": {
				"translate": [
					{ "time": 0, "x": -45.4, "y": 13.47, "curve": "stepped" },
					{ "time": 6.6667, "x": -45.4, "y": 13.47 }
				]
			},
			"Look": {
				"translate": [
					{ "time": 0, "x": 0, "y": 0, "curve": "stepped" },
					{ "time": 1, "x": 0, "y": 0 },
					{ "time": 1.3333, "x": -2.74, "y": 5.55, "curve": "stepped" },
					{ "time": 3, "x": -2.74, "y": 5.55 },
					{ "time": 3.3333, "x": -2.48, "y": -0.76, "curve": "stepped" },
					{ "time": 6.3333, "x": -2.48, "y": -0.76 },
					{ "time": 6.6667, "x": 0, "y": 0 }
				]
			},
			"lip default": {
				"translate": [
					{ "time": 1.8333, "x": 0, "y": 0, "curve": "stepped" },
					{ "time": 6.1333, "x": 0, "y": 0 }
				],
				"scale": [
					{ "time": 0.6667, "x": 1, "y": 1 },
					{ "time": 0.7667, "x": 0.605, "y": 1 },
					{ "time": 0.9333, "x": 0.925, "y": 1 },
					{ "time": 1.1, "x": 0.355, "y": 0.702 },
					{ "time": 1.2, "x": 0.876, "y": 0.958 },
					{ "time": 1.3333, "x": 0.534, "y": 0.705 },
					{ "time": 1.5, "x": 1.099, "y": 0.705 },
					{ "time": 1.6, "x": 0.387, "y": 0.913 },
					{ "time": 1.7333, "x": 0.518, "y": 0.913 },
					{ "time": 1.8333, "x": 1, "y": 1, "curve": "stepped" },
					{ "time": 4.9667, "x": 1, "y": 1 },
					{ "time": 5.0667, "x": 0.605, "y": 1 },
					{ "time": 5.2333, "x": 0.925, "y": 1 },
					{ "time": 5.4, "x": 0.355, "y": 0.702 },
					{ "time": 5.5, "x": 0.876, "y": 0.958 },
					{ "time": 5.6333, "x": 0.534, "y": 0.705 },
					{ "time": 5.8, "x": 1.099, "y": 0.705 },
					{ "time": 5.9, "x": 0.387, "y": 0.913 },
					{ "time": 6.0333, "x": 0.518, "y": 0.913 },
					{ "time": 6.1333, "x": 1, "y": 1 }
				]
			},
			"Blink": {
				"scale": [
					{ "time": 0.3333, "x": 1, "y": 1 },
					{ "time": 0.4667, "x": 0.144, "y": 1 },
					{ "time": 0.6, "x": 1, "y": 1, "curve": "stepped" },
					{ "time": 2.4667, "x": 1, "y": 1 },
					{ "time": 2.6, "x": 0.144, "y": 1 },
					{ "time": 2.7333, "x": 1, "y": 1, "curve": "stepped" },
					{ "time": 5.1333, "x": 1, "y": 1 },
					{ "time": 5.2667, "x": 0.144, "y": 1 },
					{ "time": 5.4, "x": 1, "y": 1 }
				]
			},
			"R eyebriw": {
				"translate": [
					{ "time": 0, "x": 0, "y": 0 },
					{ "time": 0.5333, "x": -1.61, "y": -3.24 },
					{ "time": 0.6667, "x": -4.72, "y": -2.71, "curve": "stepped" },
					{ "time": 2.4, "x": -4.72, "y": -2.71 },
					{ "time": 2.7667, "x": 5.94, "y": -0.41 },
					{ "time": 3.6333, "x": 0, "y": 0, "curve": "stepped" },
					{ "time": 6.6667, "x": 0, "y": 0 }
				]
			},
			"Torso": {
				"rotate": [
					{ "time": 0, "angle": -10.47, "curve": "stepped" },
					{ "time": 6.6667, "angle": -10.47 }
				]
			}
		},
		"drawOrder": [
			{
				"time": 0,
				"offsets": [
					{ "slot": "Lshrt", "offset": -11 },
					{ "slot": "tshirt", "offset": -11 }
				]
			},
			{
				"time": 6.6667,
				"offsets": [
					{ "slot": "Lshrt", "offset": -11 },
					{ "slot": "tshirt", "offset": -11 }
				]
			}
		]
	},
	"fight pose": {
		"bones": {
			"root": {
				"translate": [
					{ "time": 0, "x": 368.97, "y": 98.39, "curve": "stepped" },
					{ "time": 2.9, "x": 368.97, "y": 98.39, "curve": "stepped" },
					{ "time": 5.8, "x": 368.97, "y": 98.39, "curve": "stepped" },
					{ "time": 8.6667, "x": 368.97, "y": 98.39 }
				],
				"scale": [
					{ "time": 0, "x": 0.61, "y": 0.61, "curve": "stepped" },
					{ "time": 2.9, "x": 0.61, "y": 0.61, "curve": "stepped" },
					{ "time": 5.8, "x": 0.61, "y": 0.61, "curve": "stepped" },
					{ "time": 8.6667, "x": 0.61, "y": 0.61 }
				]
			},
			"hip": {
				"translate": [
					{ "time": 0, "x": 12.61, "y": -105.12 },
					{ "time": 1.4333, "x": 24.7, "y": -177.65 },
					{ "time": 2.9, "x": 12.61, "y": -105.12 },
					{ "time": 4.3333, "x": 24.7, "y": -177.65 },
					{ "time": 5.8, "x": 12.61, "y": -105.12 },
					{ "time": 7.2333, "x": 24.7, "y": -177.65 },
					{ "time": 8.6667, "x": 12.61, "y": -105.12 }
				]
			},
			"LL": {
				"translate": [
					{ "time": 0, "x": -180.81, "y": 75.69, "curve": "stepped" },
					{ "time": 2.9, "x": -180.81, "y": 75.69, "curve": "stepped" },
					{ "time": 5.8, "x": -180.81, "y": 75.69, "curve": "stepped" },
					{ "time": 8.6667, "x": -180.81, "y": 75.69 }
				]
			},
			"RL": {
				"rotate": [
					{ "time": 0, "angle": 7.92, "curve": "stepped" },
					{ "time": 2.9, "angle": 7.92, "curve": "stepped" },
					{ "time": 5.8, "angle": 7.92, "curve": "stepped" },
					{ "time": 8.6667, "angle": 7.92 }
				],
				"translate": [
					{ "time": 0, "x": 29.43, "y": 42.05, "curve": "stepped" },
					{ "time": 2.9, "x": 29.43, "y": 42.05, "curve": "stepped" },
					{ "time": 5.8, "x": 29.43, "y": 42.05, "curve": "stepped" },
					{ "time": 8.6667, "x": 29.43, "y": 42.05 }
				]
			},
			"L boot": {
				"rotate": [
					{ "time": 0, "angle": -16.86, "curve": "stepped" },
					{ "time": 2.9, "angle": -16.86, "curve": "stepped" },
					{ "time": 5.8, "angle": -16.86, "curve": "stepped" },
					{ "time": 8.6667, "angle": -16.86 }
				]
			},
			"R boot": {
				"rotate": [
					{ "time": 0, "angle": -18.21, "curve": "stepped" },
					{ "time": 2.9, "angle": -18.21, "curve": "stepped" },
					{ "time": 5.8, "angle": -18.21, "curve": "stepped" },
					{ "time": 8.6667, "angle": -18.21 }
				]
			},
			"Torso2": {
				"rotate": [
					{ "time": 0, "angle": 17.02, "curve": "stepped" },
					{ "time": 2.9, "angle": 17.02, "curve": "stepped" },
					{ "time": 5.8, "angle": 17.02, "curve": "stepped" },
					{ "time": 8.6667, "angle": 17.02 }
				]
			},
			"R": {
				"translate": [
					{ "time": 0, "x": -433.11, "y": 75.69, "curve": "stepped" },
					{ "time": 2.9, "x": -433.11, "y": 75.69, "curve": "stepped" },
					{ "time": 5.8, "x": -433.11, "y": 75.69, "curve": "stepped" },
					{ "time": 8.6667, "x": -433.11, "y": 75.69 }
				]
			},
			"L": {
				"translate": [
					{ "time": 0, "x": -193.43, "y": 222.86, "curve": "stepped" },
					{ "time": 2.9, "x": -193.43, "y": 222.86, "curve": "stepped" },
					{ "time": 5.8, "x": -193.43, "y": 222.86, "curve": "stepped" },
					{ "time": 8.6667, "x": -193.43, "y": 222.86 }
				]
			},
			"R eyebriw": {
				"translate": [
					{ "time": 0, "x": -8.23, "y": 0, "curve": "stepped" },
					{ "time": 2.9, "x": -8.23, "y": 0, "curve": "stepped" },
					{ "time": 5.8, "x": -8.23, "y": 0, "curve": "stepped" },
					{ "time": 8.6667, "x": -8.23, "y": 0 }
				]
			}
		}
	},
	"fight pose hit": {
		"bones": {
			"root": {
				"translate": [
					{ "time": 0, "x": 368.97, "y": 98.39, "curve": "stepped" },
					{ "time": 2.9, "x": 368.97, "y": 98.39, "curve": "stepped" },
					{ "time": 5.8, "x": 368.97, "y": 98.39, "curve": "stepped" },
					{ "time": 8.6667, "x": 368.97, "y": 98.39 }
				],
				"scale": [
					{ "time": 0, "x": 0.61, "y": 0.61, "curve": "stepped" },
					{ "time": 2.9, "x": 0.61, "y": 0.61, "curve": "stepped" },
					{ "time": 5.8, "x": 0.61, "y": 0.61, "curve": "stepped" },
					{ "time": 8.6667, "x": 0.61, "y": 0.61 }
				]
			},
			"hip": {
				"translate": [
					{ "time": 0, "x": 12.61, "y": -105.12 },
					{ "time": 1.4333, "x": 24.7, "y": -177.65 },
					{ "time": 2.9, "x": 12.61, "y": -105.12 },
					{ "time": 4.3333, "x": 24.7, "y": -177.65 },
					{ "time": 5.8, "x": 12.61, "y": -105.12 },
					{ "time": 7.2333, "x": 24.7, "y": -177.65 },
					{ "time": 8.6667, "x": 12.61, "y": -105.12 }
				]
			},
			"LL": {
				"translate": [
					{ "time": 0, "x": -180.81, "y": 75.69, "curve": "stepped" },
					{ "time": 2.9, "x": -180.81, "y": 75.69, "curve": "stepped" },
					{ "time": 5.8, "x": -180.81, "y": 75.69, "curve": "stepped" },
					{ "time": 8.6667, "x": -180.81, "y": 75.69 }
				]
			},
			"RL": {
				"rotate": [
					{ "time": 0, "angle": 7.92, "curve": "stepped" },
					{ "time": 2.9, "angle": 7.92, "curve": "stepped" },
					{ "time": 5.8, "angle": 7.92, "curve": "stepped" },
					{ "time": 8.6667, "angle": 7.92 }
				],
				"translate": [
					{ "time": 0, "x": 29.43, "y": 42.05, "curve": "stepped" },
					{ "time": 2.9, "x": 29.43, "y": 42.05, "curve": "stepped" },
					{ "time": 5.8, "x": 29.43, "y": 42.05, "curve": "stepped" },
					{ "time": 8.6667, "x": 29.43, "y": 42.05 }
				]
			},
			"L boot": {
				"rotate": [
					{ "time": 0, "angle": -16.86, "curve": "stepped" },
					{ "time": 2.9, "angle": -16.86, "curve": "stepped" },
					{ "time": 5.8, "angle": -16.86, "curve": "stepped" },
					{ "time": 8.6667, "angle": -16.86 }
				]
			},
			"R boot": {
				"rotate": [
					{ "time": 0, "angle": -18.21, "curve": "stepped" },
					{ "time": 2.9, "angle": -18.21, "curve": "stepped" },
					{ "time": 5.8, "angle": -18.21, "curve": "stepped" },
					{ "time": 8.6667, "angle": -18.21 }
				]
			},
			"Torso2": {
				"rotate": [
					{ "time": 0, "angle": 17.02, "curve": "stepped" },
					{ "time": 1.4333, "angle": 17.02 },
					{ "time": 1.6667, "angle": 4.27 },
					{ "time": 2.2333, "angle": 17.02, "curve": "stepped" },
					{ "time": 2.9, "angle": 17.02, "curve": "stepped" },
					{ "time": 5.8, "angle": 17.02 }
				]
			},
			"R": {
				"translate": [
					{ "time": 0, "x": -433.11, "y": 75.69, "curve": "stepped" },
					{ "time": 2.9, "x": -433.11, "y": 75.69 },
					{ "time": 5.2667, "x": -733.03, "y": 476.88 },
					{ "time": 6.8, "x": -433.11, "y": 75.69, "curve": "stepped" },
					{ "time": 8.6667, "x": -433.11, "y": 75.69 }
				]
			},
			"L": {
				"translate": [
					{ "time": 0, "x": -193.43, "y": 222.86, "curve": "stepped" },
					{ "time": 2.9, "x": -193.43, "y": 222.86, "curve": "stepped" },
					{ "time": 5.8, "x": -193.43, "y": 222.86, "curve": "stepped" },
					{ "time": 8.6667, "x": -193.43, "y": 222.86 }
				]
			},
			"R eyebriw": {
				"translate": [
					{ "time": 0, "x": -8.23, "y": 0, "curve": "stepped" },
					{ "time": 2.9, "x": -8.23, "y": 0, "curve": "stepped" },
					{ "time": 5.8, "x": -8.23, "y": 0, "curve": "stepped" },
					{ "time": 8.6667, "x": -8.23, "y": 0 }
				]
			},
			"Torso3": {
				"rotate": [
					{ "time": 1.3, "angle": 0 },
					{ "time": 1.4333, "angle": -21.79 },
					{ "time": 2.2, "angle": 0 }
				]
			},
			"Head": {
				"rotate": [
					{ "time": 1.1667, "angle": 0 },
					{ "time": 1.4333, "angle": -27.26 },
					{ "time": 2, "angle": 0 }
				]
			}
		}
	},
	"idle": {
		"bones": {
			"Torso2": {
				"rotate": [
					{
						"time": 0,
						"angle": 0,
						"curve": [ 0.25, 0, 0.75, 1 ]
					},
					{
						"time": 0.8333,
						"angle": -1.4,
						"curve": [ 0.25, 0, 0.75, 1 ]
					},
					{
						"time": 1.6667,
						"angle": 0,
						"curve": [ 0.25, 0, 0.75, 1 ]
					},
					{
						"time": 2.5,
						"angle": -1.4,
						"curve": [ 0.25, 0, 0.75, 1 ]
					},
					{ "time": 3.3333, "angle": 0 }
				]
			},
			"L": {
				"translate": [
					{
						"time": 0,
						"x": -50.42,
						"y": 14.01,
						"curve": [ 0.25, 0, 0.75, 1 ]
					},
					{
						"time": 1,
						"x": -19.61,
						"y": 11.2,
						"curve": [ 0.25, 0, 0.75, 1 ]
					},
					{
						"time": 1.6667,
						"x": -50.42,
						"y": 14.01,
						"curve": [ 0.25, 0, 0.75, 1 ]
					},
					{
						"time": 2.6667,
						"x": -19.61,
						"y": 11.2,
						"curve": [ 0.25, 0, 0.75, 1 ]
					},
					{ "time": 3.3333, "x": -50.42, "y": 14.01 }
				]
			},
			"R": {
				"translate": [
					{
						"time": 0,
						"x": 0,
						"y": 0,
						"curve": [ 0.25, 0, 0.75, 1 ]
					},
					{
						"time": 1,
						"x": -28.01,
						"y": -5.6,
						"curve": [ 0.25, 0, 0.75, 1 ]
					},
					{
						"time": 1.6667,
						"x": 0,
						"y": 0,
						"curve": [ 0.25, 0, 0.75, 1 ]
					},
					{
						"time": 2.6667,
						"x": -28.01,
						"y": -5.6,
						"curve": [ 0.25, 0, 0.75, 1 ]
					},
					{ "time": 3.3333, "x": 0, "y": 0 }
				]
			},
			"Blink": {
				"scale": [
					{ "time": 0.4333, "x": 1, "y": 1 },
					{ "time": 0.5, "x": 0.102, "y": 1 },
					{ "time": 0.6333, "x": 1, "y": 1, "curve": "stepped" },
					{ "time": 1.2333, "x": 1, "y": 1 },
					{ "time": 1.3, "x": 0.102, "y": 1 },
					{ "time": 1.4333, "x": 1, "y": 1, "curve": "stepped" },
					{ "time": 2.1, "x": 1, "y": 1 },
					{ "time": 2.1667, "x": 0.102, "y": 1 },
					{ "time": 2.3, "x": 1, "y": 1, "curve": "stepped" },
					{ "time": 2.9, "x": 1, "y": 1 },
					{ "time": 2.9667, "x": 0.102, "y": 1 },
					{ "time": 3.1, "x": 1, "y": 1 }
				]
			},
			"Head": {
				"rotate": [
					{ "time": 0.6, "angle": 0 },
					{ "time": 0.9, "angle": 8.92, "curve": "stepped" },
					{ "time": 2, "angle": 8.92 },
					{ "time": 2.4667, "angle": 0 }
				]
			},
			"hip": {
				"translate": [
					{ "time": 0, "x": 0, "y": 0 },
					{ "time": 1.2, "x": 21.33, "y": -8.53 },
					{ "time": 3.3333, "x": 0, "y": 0 }
				]
			},
			"RL": {
				"translate": [
					{ "time": 0, "x": -2.57, "y": 7.72 }
				]
			},
			"LL": {
				"translate": [
					{ "time": 0, "x": -5.15, "y": 5.15 }
				]
			},
			"R boot": {
				"rotate": [
					{ "time": 0, "angle": -12.34 }
				]
			},
			"L boot": {
				"rotate": [
					{ "time": 0, "angle": -3.48 }
				]
			}
		}
	},
	"walk": {
		"bones": {
			"root": {
				"translate": [
					{ "time": 0, "x": 1170.53, "y": 490.62 },
					{ "time": 3, "x": -849.07, "y": 531.55 }
				],
				"scale": [
					{ "time": 0, "x": 0.9, "y": 0.9, "curve": "stepped" },
					{ "time": 4.6, "x": 0.9, "y": 0.9 }
				]
			},
			"hip": {
				"translate": [
					{
						"time": 0,
						"x": -11.01,
						"y": -104.56,
						"curve": [ 0.25, 0, 0.75, 1 ]
					},
					{
						"time": 0.5,
						"x": 33.02,
						"y": -33.02,
						"curve": [ 0.25, 0, 0.75, 1 ]
					},
					{
						"time": 1,
						"x": -11.01,
						"y": -104.56,
						"curve": [ 0.25, 0, 0.75, 1 ]
					},
					{
						"time": 1.5,
						"x": 33.02,
						"y": -33.02,
						"curve": [ 0.25, 0, 0.75, 1 ]
					},
					{ "time": 1.9667, "x": -11.01, "y": -104.56 },
					{
						"time": 2.5667,
						"x": 33.02,
						"y": -33.02,
						"curve": [ 0.25, 0, 0.75, 1 ]
					},
					{
						"time": 2.7333,
						"x": -159.63,
						"y": -60.53,
						"curve": [ 0.245, 0, 0.71, 0.83 ]
					},
					{
						"time": 3.1,
						"x": -50.29,
						"y": -91.62,
						"curve": [ 0.36, 0.64, 0.696, 1 ]
					},
					{ "time": 6.6667, "x": -45.27, "y": -99.67 }
				]
			},
			"LL": {
				"translate": [
					{
						"time": 0,
						"x": -247.65,
						"y": -27.52,
						"curve": [ 0.25, 0, 0.75, 1 ]
					},
					{
						"time": 0.5,
						"x": 82.55,
						"y": -22.01,
						"curve": [ 0.25, 0, 0.75, 1 ]
					},
					{
						"time": 1,
						"x": 539.33,
						"y": 187.11,
						"curve": [ 0.25, 0, 0.75, 1 ]
					},
					{
						"time": 1.5,
						"x": 308.19,
						"y": 346.71,
						"curve": [ 0.25, 0, 0.75, 1 ]
					},
					{ "time": 1.9667, "x": -247.65, "y": -27.52 },
					{
						"time": 2.5667,
						"x": 82.55,
						"y": -22.01,
						"curve": [ 0.25, 0, 0.75, 1 ]
					},
					{ "time": 3, "x": -82.55, "y": -18.67 },
					{ "time": 4.6, "x": -247.65, "y": -27.52 }
				]
			},
			"RL": {
				"translate": [
					{
						"time": 0,
						"x": 126.58,
						"y": 93.56,
						"curve": [ 0.25, 0, 0.75, 1 ]
					},
					{
						"time": 0.5,
						"x": 5.5,
						"y": 308.19,
						"curve": [ 0.25, 0, 0.75, 1 ]
					},
					{
						"time": 1,
						"x": -346.71,
						"y": 11.01,
						"curve": [ 0.25, 0, 0.75, 1 ]
					},
					{
						"time": 1.5,
						"x": -154.09,
						"y": -27.52,
						"curve": [ 0.25, 0, 0.75, 1 ]
					},
					{ "time": 1.9667, "x": 126.58, "y": 93.56 },
					{
						"time": 2.3333,
						"x": 5.5,
						"y": 308.19,
						"curve": [ 0.25, 0, 0.625, 0.5 ]
					},
					{
						"time": 2.6667,
						"x": -352.61,
						"y": 84.91,
						"curve": [ 0.375, 0.5, 0.75, 1 ]
					},
					{ "time": 3, "x": -130.19, "y": -7.66 }
				]
			},
			"L": {
				"translate": [
					{
						"time": 0,
						"x": 93.56,
						"y": -88.05,
						"curve": [ 0.25, 0, 0.75, 1 ]
					},
					{
						"time": 0.5333,
						"x": 26.64,
						"y": -27.41,
						"curve": [ 0.25, 0, 0.75, 1 ]
					},
					{
						"time": 1,
						"x": -99.13,
						"y": -83.57,
						"curve": [ 0.25, 0, 0.75, 1 ]
					},
					{
						"time": 1.5333,
						"x": 42.02,
						"y": -5.15,
						"curve": [ 0.25, 0, 0.75, 1 ]
					},
					{ "time": 1.9667, "x": 93.56, "y": -88.05 },
					{
						"time": 2.6,
						"x": 26.64,
						"y": -27.41,
						"curve": [ 0.25, 0, 0.75, 1 ]
					},
					{ "time": 3, "x": -26.24, "y": -31.48 },
					{
						"time": 4.6,
						"x": 93.56,
						"y": -88.05,
						"curve": [ 0.25, 0, 0.75, 1 ]
					},
					{ "time": 6.6667, "x": 39.72, "y": -88.05 }
				]
			},
			"R": {
				"translate": [
					{
						"time": 0,
						"x": -239.71,
						"y": -46.07,
						"curve": [ 0.25, 0, 0.75, 1 ]
					},
					{
						"time": 0.4667,
						"x": -120.95,
						"y": 7.93,
						"curve": [ 0.25, 0, 0.75, 1 ]
					},
					{
						"time": 1,
						"x": -14.04,
						"y": -93.6,
						"curve": [ 0.25, 0, 0.75, 1 ]
					},
					{
						"time": 1.5333,
						"x": -102.23,
						"y": -16.06,
						"curve": [ 0.25, 0, 0.75, 1 ]
					},
					{
						"time": 2.0667,
						"x": -239.71,
						"y": -46.07,
						"curve": [ 0.25, 0, 0.75, 1 ]
					},
					{
						"time": 2.5333,
						"x": -120.95,
						"y": 7.93,
						"curve": [ 0.25, 0, 0.75, 1 ]
					},
					{ "time": 3, "x": -35.53, "y": 3.86 },
					{
						"time": 3.2333,
						"x": -239.71,
						"y": -46.07,
						"curve": [ 0.25, 0, 0.75, 1 ]
					},
					{ "time": 6.6667, "x": -176.08, "y": -55.86 }
				]
			},
			"Head": {
				"rotate": [
					{ "time": 0, "angle": 0, "curve": "stepped" },
					{ "time": 2, "angle": 0 },
					{ "time": 3, "angle": 6.29, "curve": "stepped" },
					{ "time": 6.5333, "angle": 6.29 }
				]
			},
			"Torso2": {
				"rotate": [
					{ "time": 0, "angle": 0 },
					{ "time": 3, "angle": 6.22 },
					{ "time": 6.6667, "angle": 0 }
				]
			},
			"Torso3": {
				"rotate": [
					{ "time": 6.5333, "angle": 0 }
				]
			},
			"Look": {
				"translate": [
					{ "time": 2.8333, "x": 0.23, "y": -1.94 }
				]
			}
		}
	}
}
}