%YAML 1.1
%TAG !u! tag:unity3d.com,2011:
--- !u!114 &11400000
MonoBehaviour:
  m_ObjectHideFlags: 0
  m_CorrespondingSourceObject: {fileID: 0}
  m_PrefabInternal: {fileID: 0}
  m_GameObject: {fileID: 0}
  m_Enabled: 1
  m_EditorHideFlags: 0
  m_Script: {fileID: 11500000, guid: a6b194f808b1af6499c93410e504af42, type: 3}
  m_Name: bg_Atlas
  m_EditorClassIdentifier: 
  atlasFile: {fileID: 4900000, guid: 2fad3fb07c1da4701a5f7c5c5f13d484, type: 3}
  materials:
  - {fileID: 2100000, guid: 05663e2d9467f4a47a679c10fed91c5c, type: 2}
