
Cafateria.png
size: 2490,2485
format: RGBA8888
filter: Linear,Linear
repeat: none
Burger
  rotate: false
  xy: 1311, 98
  size: 201, 173
  orig: 201, 173
  offset: 0, 0
  index: -1
Coffee
  rotate: true
  xy: 1069, 119
  size: 152, 240
  orig: 152, 240
  offset: 0, 0
  index: -1
Ketchup
  rotate: true
  xy: 746, 100
  size: 171, 321
  orig: 171, 321
  offset: 0, 0
  index: -1
Layer 1
  rotate: false
  xy: 2, 273
  size: 2486, 2210
  orig: 2486, 2210
  offset: 0, 0
  index: -1
Sandwitch
  rotate: false
  xy: 1514, 139
  size: 201, 132
  orig: 201, 132
  offset: 0, 0
  index: -1
Vector Smart Object11112111111111 copy 14
  rotate: false
  xy: 2, 2
  size: 742, 269
  orig: 742, 269
  offset: 0, 0
  index: -1

Cafateria2.png
size: 2490,1436
format: RGBA8888
filter: Linear,Linear
repeat: none
Vector Smart Object1111211111111 copy 13
  rotate: false
  xy: 2, 834
  size: 2486, 600
  orig: 2486, 600
  offset: 0, 0
  index: -1
chair 2
  rotate: true
  xy: 2, 2
  size: 444, 820
  orig: 444, 820
  offset: 0, 0
  index: -1
piller
  rotate: true
  xy: 2, 448
  size: 384, 2121
  orig: 384, 2121
  offset: 0, 0
  index: -1
