{
"skeleton": { "hash": "SMDSeZrUF80v8Y98p4gRQwe56h8", "spine": "3.6.50", "width": 766.99, "height": 2281.93 },
"bones": [
	{ "name": "root", "x": 550.7, "y": -94.26 },
	{ "name": "Hip", "parent": "root", "x": -48.49, "y": 1189.59 },
	{ "name": "Torso 01", "parent": "Hip", "length": 304.43, "rotation": 83, "x": -30.05, "y": 31.78 },
	{ "name": "Torso 2", "parent": "Torso 01", "length": 450.61, "rotation": -0.21, "x": 299.17, "y": -0.65 },
	{ "name": "neck", "parent": "Torso 2", "length": 50.23, "rotation": -4.68, "x": 447.97, "y": 6.79 },
	{ "name": "head", "parent": "neck", "length": 267.56, "rotation": 10.35, "x": 54.59, "y": 3.32 },
	{ "name": "Blink", "parent": "head", "x": 143.68, "y": 225.85 },
	{ "name": "Brow", "parent": "head", "x": 189.66, "y": 11.44 },
	{ "name": "L hand", "parent": "root", "x": -223.46, "y": 1280.76 },
	{ "name": "L-Arm", "parent": "Torso 2", "length": 353.73, "rotation": -167.52, "x": 364.27, "y": 199 },
	{ "name": "L-Arm2", "parent": "L-Arm", "length": 279.88, "rotation": -18.19, "x": 353.72 },
	{ "name": "L-Eye", "parent": "Blink", "x": 8.76, "y": -173.7 },
	{ "name": "L-Leg", "parent": "root", "x": -186.41, "y": 231.94, "scaleX": 0.618, "scaleY": 0.618 },
	{ "name": "L-Leg01", "parent": "Hip", "length": 442.48, "rotation": -82.8, "x": -102.16, "y": -24.77 },
	{ "name": "L-Leg02", "parent": "L-Leg01", "length": 501.92, "rotation": -7.92, "x": 438.09, "y": -3.25 },
	{ "name": "L-Foot01", "parent": "L-Leg02", "length": 142.67, "rotation": -44.28, "x": 501.92 },
	{ "name": "L-Foot02", "parent": "L-Foot01", "length": 121.06, "rotation": -45, "x": 142.67 },
	{ "name": "L-Hand", "parent": "L hand", "length": 170.3, "rotation": -94.78 },
	{ "name": "Look", "parent": "head", "rotation": -91.95, "x": 146.34, "y": 188.65 },
	{ "name": "L-Pupil", "parent": "Look", "rotation": 91.95, "x": 67.83, "y": 4.49 },
	{ "name": "L-coat", "parent": "Torso 2", "length": 694.59, "rotation": -174.75, "x": 420.41, "y": 129.54 },
	{ "name": "R-Eye", "parent": "Blink", "x": 9.07, "y": -279.23 },
	{ "name": "R-arm", "parent": "Torso 2", "length": 384.53, "rotation": -168.56, "x": 442.6, "y": -217.03 },
	{ "name": "R-arm2", "parent": "R-arm", "length": 297.12, "rotation": -18.82, "x": 384.53 },
	{ "name": "R-Hand", "parent": "R-arm2", "length": 180.86, "rotation": -4.6, "x": 294.69, "y": -4.12 },
	{ "name": "R-Leg", "parent": "root", "rotation": -23.96, "x": 179.41, "y": 236.41 },
	{ "name": "R-Leg01", "parent": "Hip", "length": 449.68, "rotation": -79.82, "x": 108.01, "y": -18.46 },
	{ "name": "R-Leg02", "parent": "R-Leg01", "length": 506.65, "x": 448.22, "y": -1.02 },
	{ "name": "R-Pupil", "parent": "Look", "rotation": 91.95, "x": 89.02, "y": 8.28 },
	{ "name": "R-coat", "parent": "Torso 2", "length": 682.61, "rotation": -176.16, "x": 451.76, "y": -132.79 },
	{ "name": "R-foot01", "parent": "R-Leg02", "length": 146.23, "rotation": -60.64, "x": 506.65 },
	{ "name": "R-foot02", "parent": "R-foot01", "length": 137.45, "rotation": -44.47, "x": 146.23 },
	{ "name": "Torso 4", "parent": "R-coat", "x": 682.61 },
	{ "name": "hair 1", "parent": "head", "length": 75.66, "rotation": 87.73, "x": 310.01, "y": 26.32 },
	{ "name": "hair 2", "parent": "hair 1", "length": 62.33, "rotation": -35.57, "x": 75.66 },
	{ "name": "mouth", "parent": "head", "x": 53.03, "y": 15.32 }
],
"slots": [
	{ "name": "L-Hand", "bone": "L-Hand", "attachment": "L-Hand" },
	{ "name": "L-Arm", "bone": "L-Arm", "attachment": "L-Arm" },
	{ "name": "neck", "bone": "neck", "attachment": "neck" },
	{ "name": "L-Leg", "bone": "L-Leg01", "attachment": "L-Leg" },
	{ "name": "Hip", "bone": "Hip", "attachment": "Hip" },
	{ "name": "R-Leg01", "bone": "R-Leg01", "attachment": "R-Leg01" },
	{ "name": "Torso 01", "bone": "Torso 01", "attachment": "Torso 01" },
	{ "name": "R-Suit", "bone": "R-coat", "attachment": "R-Suit" },
	{ "name": "L-Suit", "bone": "L-coat", "attachment": "L-Suit" },
	{ "name": "R-Hand", "bone": "R-Hand", "attachment": "R-Hand" },
	{ "name": "R-arm", "bone": "R-arm", "attachment": "R-arm" },
	{ "name": "head", "bone": "head", "attachment": "head" },
	{ "name": "R-brow", "bone": "Brow", "attachment": "R-brow" },
	{ "name": "L-Brow", "bone": "Brow", "attachment": "L-Brow" },
	{ "name": "R-Eye", "bone": "R-Eye", "attachment": "R-Eye" },
	{ "name": "R-eye mask", "bone": "R-Eye", "attachment": "R-eye mask" },
	{ "name": "R-Pupil", "bone": "R-Pupil", "attachment": "R-Pupil" },
	{ "name": "L-Eye", "bone": "L-Eye", "attachment": "L-Eye" },
	{ "name": "L-Eye Mask", "bone": "L-Eye", "attachment": "L-Eye Mask" },
	{ "name": "L-Pupil", "bone": "L-Pupil", "attachment": "L-Pupil" },
	{ "name": "lip01", "bone": "mouth", "attachment": "lip01" },
	{ "name": "glasses", "bone": "head", "attachment": "glasses" }
],
"ik": [
	{
		"name": "L hand",
		"order": 2,
		"bones": [ "L-Arm", "L-Arm2" ],
		"target": "L hand",
		"bendPositive": false
	},
	{
		"name": "L-Leg",
		"order": 1,
		"bones": [ "L-Leg01", "L-Leg02" ],
		"target": "L-Leg"
	},
	{
		"name": "R-Leg",
		"order": 0,
		"bones": [ "R-Leg01", "R-Leg02" ],
		"target": "R-Leg"
	}
],
"skins": {
	"default": {
		"Hip": {
			"Hip": { "path": "Layer 3", "x": 24.7, "y": -1.91, "width": 395, "height": 215 }
		},
		"L-Arm": {
			"L-Arm": {
				"type": "mesh",
				"uvs": [ 0.31791, 1, 0.18294, 0.98183, 0.00151, 0.9574, 8.1E-4, 0.92629, 0, 0.88999, 0.19326, 0.6832, 0.246, 0.62678, 0.25798, 0.59538, 0.27716, 0.56306, 0.29394, 0.52335, 0.34034, 0.39358, 0.45214, 0.08098, 0.61513, 0, 0.75665, 0, 0.85482, 0, 1, 0.04311, 1, 0.16225, 0.93632, 0.41991, 0.8692, 0.53905, 0.86441, 0.58245, 0.84284, 0.61847, 0.7901, 0.66188, 0.71752, 0.7326, 0.50007, 0.94448, 0.41858, 1, 0.7442, 0.01446, 0.71104, 0.11938, 0.61122, 0.40555, 0.58521, 0.5313, 0.5649, 0.57256, 0.54499, 0.60671, 0.4969, 0.64296, 0.19447, 0.96046, 0.24627, 0.91682, 0.4357, 0.70984 ],
				"triangles": [ 7, 8, 30, 20, 29, 19, 30, 8, 29, 8, 9, 29, 19, 28, 18, 28, 27, 18, 18, 27, 17, 9, 10, 28, 28, 10, 27, 27, 26, 17, 17, 26, 16, 10, 11, 27, 27, 11, 26, 26, 25, 16, 25, 15, 16, 11, 12, 26, 26, 12, 25, 15, 25, 14, 25, 13, 14, 25, 12, 13, 29, 9, 28, 29, 28, 19, 30, 29, 20, 23, 24, 33, 1, 32, 0, 0, 32, 24, 33, 24, 32, 32, 1, 3, 4, 33, 32, 3, 1, 2, 33, 34, 23, 23, 34, 22, 32, 3, 4, 4, 5, 33, 33, 5, 34, 34, 31, 22, 22, 31, 21, 5, 6, 34, 34, 6, 31, 31, 30, 21, 21, 30, 20, 6, 7, 31, 31, 7, 30 ],
				"vertices": [ 1, 10, 304.82, 36.09, 1, 1, 10, 304.92, -1.36, 1, 1, 10, 305.06, -51.72, 1, 1, 10, 285.17, -58.92, 1, 1, 10, 261.96, -67.33, 1, 1, 10, 112.51, -66.33, 1, 1, 10, 71.73, -66.06, 1, 2, 10, 50.55, -70.2, 0.60119, 9, 386.28, -80.15, 0.39881, 2, 10, 28.15, -72.77, 0.17711, 9, 363.9, -77.36, 0.82289, 2, 10, 1.22, -77.6, 0.08, 9, 336.59, -75.7, 0.92, 2, 10, -86.04, -95.47, 0.00399, 9, 247.58, -72.46, 0.99601, 1, 9, 33.14, -64.67, 1, 1, 9, -25.94, -27.72, 1, 1, 9, -29.66, 9.17, 1, 1, 9, -32.24, 34.76, 1, 1, 9, -6.9, 75.55, 1, 1, 9, 73.71, 83.69, 1, 1, 9, 249.71, 84.69, 1, 1, 9, 332.08, 75.33, 1, 2, 10, -10.57, 76.72, 0.18276, 9, 361.57, 77.05, 0.81724, 2, 10, 14.41, 79.54, 0.54413, 9, 386.5, 73.89, 0.45587, 2, 10, 46.84, 76.32, 0.74931, 9, 417.26, 63.1, 0.25069, 1, 10, 98.52, 74.38, 1, 1, 10, 253.34, 68.55, 1, 1, 10, 296.05, 60.97, 1, 1, 9, -19.55, 6.92, 1, 1, 9, 52.31, 5.44, 1, 1, 9, 248.55, -1.03, 1, 1, 9, 334.31, 0.77, 1, 2, 10, 9.18, 0.48, 0.256, 9, 362.76, -1.7, 0.744, 2, 10, 32.82, 3.28, 0.54488, 9, 386.39, -4.56, 0.45512, 2, 10, 60.25, -0.4, 0.848, 9, 412.18, -14.62, 0.152, 1, 10, 290.21, -3.35, 1, 1, 10, 257.71, -0.41, 1, 1, 10, 108.47, -0.41, 1 ],
				"hull": 25
			}
		},
		"L-Brow": {
			"L-Brow": { "x": -6.6, "y": 46.83, "rotation": -88.46, "width": 58, "height": 22 }
		},
		"L-Eye": {
			"L-Eye": { "x": 1.26, "y": 0.33, "rotation": -88.46, "width": 40, "height": 33 }
		},
		"L-Eye Mask": {
			"L-Eye Mask": {
				"type": "clipping",
				"end": "L-Pupil",
				"vertexCount": 18,
				"vertices": [ 0.13, 18.77, -5.83, 15.58, -10.26, 11.43, -13.04, 7.19, -13.5, 1.01, -12.85, -4.77, -10.71, -9.38, -7.29, -14.58, -3.89, -19.15, -0.67, -17.05, 3.54, -14.04, 7.72, -10.4, 10.9, -6.53, 12.62, -0.31, 12.73, 4.99, 11.06, 10.99, 7.18, 14.67, 3.08, 17.21 ]
			}
		},
		"L-Hand": {
			"L-Hand": { "x": 81.2, "y": -11.45, "rotation": 115.29, "width": 181, "height": 204 }
		},
		"L-Leg": {
			"L-Leg": {
				"type": "mesh",
				"path": "Layer 2",
				"uvs": [ 0.96547, 0.97459, 0.84566, 1, 0.46229, 1, 0.31713, 1, 0.14778, 1, 0, 1, 0, 0.98364, 0, 0.95809, 0.16057, 0.94026, 0.31869, 0.92271, 0.41914, 0.90128, 0.53524, 0.87651, 0.57789, 0.83818, 0.55492, 0.58757, 0.54508, 0.47258, 0.52868, 0.42737, 0.51883, 0.39494, 0.4729, 0.29764, 0.35479, 0.07258, 0.4204, 0, 0.59758, 0, 0.801, 0, 0.9552, 0.06865, 0.99785, 0.29764, 1, 0.38413, 1, 0.41558, 1, 0.46374, 1, 0.5856, 1, 0.83229, 0.91911, 0.87848, 0.92567, 0.94531, 0.62054, 0.06865, 0.70586, 0.29763, 0.73866, 0.39002, 0.74194, 0.41853, 0.74522, 0.46374, 0.7485, 0.58364, 0.75506, 0.82541, 0.7485, 0.85981, 0.69601, 0.91091, 0.48931, 0.96005, 0.31849, 0.96829, 0.57684, 0.93924, 0.16442, 0.97571 ],
				"triangles": [ 3, 41, 2, 4, 43, 3, 3, 43, 41, 43, 4, 6, 4, 5, 6, 6, 7, 43, 7, 8, 43, 43, 8, 41, 41, 8, 9, 2, 40, 1, 40, 42, 1, 1, 42, 0, 2, 41, 40, 42, 39, 0, 39, 30, 0, 41, 9, 40, 9, 10, 40, 40, 10, 42, 39, 38, 30, 10, 11, 42, 42, 11, 39, 11, 12, 39, 38, 29, 30, 39, 12, 38, 38, 37, 29, 29, 37, 28, 38, 12, 37, 12, 36, 37, 12, 13, 36, 37, 27, 28, 37, 36, 27, 36, 13, 35, 36, 26, 27, 13, 14, 35, 36, 35, 26, 14, 34, 35, 35, 25, 26, 14, 15, 34, 35, 34, 25, 15, 33, 34, 15, 16, 33, 25, 34, 24, 34, 33, 24, 16, 32, 33, 16, 17, 32, 33, 23, 24, 33, 32, 23, 32, 22, 23, 17, 31, 32, 17, 18, 31, 32, 31, 22, 18, 19, 31, 31, 21, 22, 19, 20, 31, 31, 20, 21 ],
				"vertices": [ 2, 14, 588.6, 77.3, 0.02711, 15, 8.09, 115.86, 0.97289, 2, 14, 617.17, 38, 0.00156, 15, 55.98, 107.67, 0.99844, 2, 15, 145.71, 17.94, 0.70781, 16, -10.54, 14.84, 0.29219, 1, 16, 37.51, 14.84, 1, 1, 16, 93.57, 14.84, 1, 1, 16, 142.48, 14.84, 1, 1, 16, 142.48, -3.24, 1, 1, 16, 142.48, -31.47, 1, 2, 15, 169.65, -99.35, 0.03667, 16, 89.33, -51.17, 0.96333, 3, 14, 533.96, -137.48, 0.00116, 15, 118.92, -76.06, 0.43018, 16, 36.99, -70.57, 0.56866, 3, 14, 509.86, -104.53, 0.04263, 15, 78.67, -69.29, 0.78896, 16, 3.75, -94.25, 0.1684, 3, 14, 482.02, -66.45, 0.39799, 15, 32.15, -61.47, 0.58896, 16, -34.68, -121.61, 0.01305, 2, 14, 439.49, -52.87, 0.9207, 15, -7.78, -81.43, 0.0793, 1, 14, 162.68, -63.95, 1, 2, 13, 463.94, -76.31, 0.00737, 14, 35.67, -68.8, 0.99263, 2, 13, 413.69, -75.44, 0.61329, 14, -14.22, -74.86, 0.38671, 2, 13, 377.73, -74.18, 0.71946, 14, -50.01, -78.57, 0.28054, 2, 13, 269.16, -75.78, 0.99935, 14, -157.33, -95.12, 6.5E-4, 1, 13, 17.53, -83.39, 1, 1, 13, -59.32, -51.78, 1, 1, 13, -51.96, 6.4, 1, 1, 13, -43.52, 73.2, 1, 1, 13, 38.13, 114.33, 1, 1, 13, 290.95, 96.61, 1, 1, 13, 385.85, 85.33, 1, 2, 13, 420.33, 80.98, 0.8, 14, -29.21, 80.97, 0.2, 1, 14, 24, 81.64, 1, 1, 14, 158.66, 83.33, 1, 1, 14, 431.22, 86.76, 1, 2, 14, 482.59, 60.63, 0.85852, 15, -56.16, 29.91, 0.14148, 2, 14, 556.41, 63.73, 0.11567, 15, -5.48, 83.67, 0.88433, 1, 13, 24.25, 4.43, 1, 1, 13, 278.82, 0.72, 1, 2, 13, 381.47, -1.31, 0.9979, 14, -56.35, -5.88, 0.0021, 2, 13, 412.85, -4.18, 0.85227, 14, -24.88, -4.4, 0.14773, 1, 14, 25.06, -2.68, 1, 1, 14, 157.53, 0.07, 1, 1, 14, 424.64, 5.59, 1, 1, 14, 462.67, 3.9, 1, 1, 15, 21.4, 3.04, 1, 2, 15, 108.17, -6.95, 0.97675, 16, -19.48, -29.3, 0.02326, 2, 15, 154.59, -40.49, 0.11902, 16, 37.06, -20.2, 0.88098, 3, 14, 551.16, -51.81, 0.00106, 15, 71.43, -2.72, 0.99744, 16, -48.45, -52.3, 0.0015, 2, 15, 196.45, -70.75, 0.0032, 16, 88.06, -12, 0.9968 ],
				"hull": 31
			}
		},
		"L-Pupil": {
			"L-Pupil": { "x": 3.85, "y": -68.23, "rotation": -88.46, "width": 27, "height": 29 }
		},
		"L-Suit": {
			"L-Suit": { "x": 334.29, "y": -20.71, "rotation": 91.95, "width": 234, "height": 856 }
		},
		"R-Eye": {
			"R-Eye": { "x": 0.27, "y": 1.3, "rotation": -88.46, "width": 57, "height": 36 }
		},
		"R-Hand": {
			"R-Hand": { "x": 82.28, "y": -3.48, "rotation": 109.11, "width": 126, "height": 228 }
		},
		"R-Leg01": {
			"R-Leg01": {
				"type": "mesh",
				"path": "Layer 1",
				"uvs": [ 0.39379, 1, 0.53636, 1, 0.72335, 1, 1, 1, 1, 0.93933, 1, 0.86539, 0.97197, 0.76365, 0.94587, 0.56234, 0.90658, 0.52514, 0.86012, 0.48116, 0.84521, 0.42921, 0.78928, 0.07205, 0.66252, 0, 0.37041, 0, 0.12564, 0, 0.06598, 0.07962, 0.37171, 0.43787, 0.38289, 0.49415, 0.41645, 0.54502, 0.45, 0.58398, 0.5283, 0.76581, 0.54321, 0.86431, 0.45923, 0.87786, 0.34356, 0.89653, 0, 0.95197, 0, 0.97607, 0, 1, 0.40547, 0.07772, 0.61583, 0.43597, 0.64388, 0.48483, 0.66491, 0.53232, 0.68595, 0.571, 0.77009, 0.76573, 0.81216, 0.86751, 0.74672, 0.91297, 0.50831, 0.96385, 0.35873, 0.96725 ],
				"triangles": [ 0, 35, 1, 26, 36, 0, 0, 36, 35, 26, 25, 36, 25, 23, 36, 25, 24, 23, 36, 22, 35, 36, 23, 22, 2, 34, 3, 34, 4, 3, 2, 1, 34, 1, 35, 34, 35, 21, 34, 35, 22, 21, 34, 33, 4, 34, 21, 33, 29, 10, 9, 33, 5, 4, 21, 32, 33, 33, 6, 5, 33, 32, 6, 21, 20, 32, 20, 31, 32, 20, 19, 31, 32, 7, 6, 32, 31, 7, 19, 30, 31, 19, 18, 30, 31, 8, 7, 31, 30, 8, 18, 29, 30, 30, 9, 8, 30, 29, 9, 18, 17, 29, 29, 28, 10, 17, 28, 29, 17, 16, 28, 16, 27, 28, 16, 15, 27, 28, 11, 10, 28, 27, 11, 15, 14, 27, 14, 13, 27, 27, 12, 11, 27, 13, 12 ],
				"vertices": [ 1, 31, 43.28, 26.92, 1, 2, 30, 162.2, 22.66, 0.43005, 31, -4.48, 27.36, 0.56995, 2, 30, 117.91, 66.96, 0.99899, 31, -67.12, 27.93, 0.00101, 1, 30, 52.37, 132.49, 1, 2, 27, 574.54, 47.81, 0.11049, 30, 2.87, 82.98, 0.88951, 2, 27, 490.01, 59.49, 0.93591, 30, -57.47, 22.65, 0.06409, 1, 27, 372.42, 66.26, 1, 1, 27, 141.1, 89.4, 1, 1, 27, 96.78, 82.24, 1, 2, 26, 495.53, 70.9, 0.104, 27, 44.37, 73.77, 0.896, 1, 26, 435.64, 76.57, 1, 1, 26, 26.64, 130.95, 1, 1, 26, -62.7, 103.84, 1, 1, 26, -79.98, 7.52, 1, 1, 26, -94.47, -73.19, 1, 1, 26, -7.56, -109.09, 1, 1, 26, 417.45, -81.32, 1, 2, 26, 482.04, -89.1, 0.50416, 27, 37.34, -86.65, 0.49584, 2, 26, 541.8, -88.41, 0.30502, 27, 97.03, -83.55, 0.69498, 2, 26, 588.05, -85.29, 0.176, 27, 143.11, -78.57, 0.824, 2, 27, 354.55, -81.32, 0.99033, 30, -26.98, -170.34, 0.00967, 3, 27, 467.83, -91.92, 0.39802, 30, 49.85, -86.44, 0.52708, 31, -8.21, -129.21, 0.07491, 3, 27, 479.47, -121.93, 0.12814, 30, 80.8, -95.28, 0.61042, 31, 20.06, -113.82, 0.26144, 3, 27, 495.5, -163.27, 0.02047, 30, 123.44, -107.44, 0.37165, 31, 59.01, -92.64, 0.60787, 1, 31, 174.68, -29.71, 1, 1, 31, 174.94, -1.91, 1, 1, 31, 175.19, 25.71, 1, 1, 26, 10.37, 3.24, 1, 1, 26, 429.74, -0.44, 1, 1, 27, 38.65, 1.43, 1, 1, 27, 93.9, 0.91, 1, 1, 27, 139.08, 1.78, 1, 2, 27, 365.54, -1.06, 0.99997, 30, -84.33, -113.14, 3.0E-5, 3, 27, 483.82, -3.18, 0.98579, 30, -11.25, -20.12, 0.01414, 31, -98.28, -124.68, 7.0E-5, 1, 30, 41.35, 1.47, 1, 3, 27, 580.02, -119.23, 1.8E-4, 30, 139.35, -13.48, 0.57335, 31, 4.53, -14.44, 0.42647, 2, 30, 177.55, -46.14, 0.03411, 31, 54.68, -10.98, 0.96589 ],
				"hull": 27
			}
		},
		"R-Pupil": {
			"R-Pupil": { "x": 0.54, "y": -149.41, "rotation": -88.46, "width": 32, "height": 35 }
		},
		"R-Suit": {
			"R-Suit": { "x": 329.14, "y": 8.55, "rotation": 93.37, "width": 289, "height": 855 }
		},
		"R-arm": {
			"R-arm": {
				"type": "mesh",
				"uvs": [ 0, 0.95627, 0.25068, 0.98182, 0.42915, 1, 0.67008, 1, 0.85162, 0.71163, 0.8966, 0.65866, 0.93777, 0.61016, 0.96008, 0.53782, 0.94223, 0.31796, 1, 0.20732, 1, 0.0527, 0.83069, 0, 0.66116, 0, 0.44254, 0, 0.33992, 0.04845, 0.273, 0.19313, 0.25069, 0.30661, 0.26408, 0.51513, 0.26854, 0.55201, 0.23285, 0.59031, 0.18952, 0.64863, 0, 0.90379, 0.32107, 0.94989, 0.52739, 0.63581, 0.59202, 0.58012, 0.58955, 0.52574, 0.60762, 0.31654, 0.66639, 0.05055, 0.63413, 0.20018, 0.5002, 0.67721 ],
				"triangles": [ 19, 18, 23, 3, 22, 29, 3, 29, 4, 1, 22, 2, 3, 2, 22, 1, 0, 22, 0, 21, 22, 21, 20, 22, 22, 20, 29, 29, 23, 4, 4, 23, 5, 20, 19, 29, 29, 19, 23, 23, 24, 5, 23, 18, 24, 7, 6, 25, 18, 17, 25, 7, 25, 8, 25, 26, 8, 25, 17, 26, 17, 16, 26, 28, 16, 15, 8, 28, 9, 26, 16, 8, 16, 28, 8, 28, 27, 9, 27, 10, 9, 15, 14, 28, 28, 14, 27, 27, 11, 10, 14, 13, 27, 13, 12, 27, 27, 12, 11, 6, 24, 25, 18, 25, 24, 5, 24, 6 ],
				"vertices": [ 1, 23, 317.44, -58.38, 1, 1, 23, 320.94, 3.12, 1, 1, 23, 323.43, 46.9, 1, 1, 23, 309.31, 101.48, 1, 2, 22, 478.07, 89.07, 0.00986, 23, 93.53, 89.07, 0.99014, 2, 22, 440.27, 88.89, 0.28376, 23, 55.74, 88.89, 0.71624, 2, 22, 418.4, 85.12, 0.54396, 23, 15.84, 90.23, 0.45604, 1, 22, 364.97, 87.75, 1, 1, 22, 203.54, 75.75, 1, 1, 22, 121.55, 85.31, 1, 1, 22, 7.88, 79.8, 1, 1, 22, -28.94, 38.35, 1, 1, 22, -27.02, -1.27, 1, 1, 22, -24.55, -52.37, 1, 1, 22, 12.23, -74.63, 1, 1, 22, 119.35, -85.11, 1, 1, 22, 203.03, -86.29, 1, 2, 22, 356.16, -75.73, 0.888, 23, -12.37, -79.92, 0.112, 1, 22, 383.23, -73.37, 1, 2, 22, 411.79, -80.35, 0.144, 23, 43.03, -73.13, 0.856, 1, 23, 84.84, -73.23, 1, 1, 23, 280.04, -68.06, 1, 1, 23, 294.06, 13.17, 1, 2, 22, 441.9, -9.89, 0.296, 23, 58.18, 1.99, 0.704, 2, 22, 400.23, 3.23, 0.72, 23, 14.71, 6.36, 0.28, 1, 22, 360.28, 0.72, 1, 1, 22, 206.29, -2.51, 1, 1, 22, 10.08, 1.75, 1, 1, 22, 120.44, -0.46, 1, 1, 23, 89.27, 3.46, 1 ],
				"hull": 22
			}
		},
		"R-brow": {
			"R-brow": { "x": -2.7, "y": -61.11, "rotation": -88.46, "width": 88, "height": 24 }
		},
		"R-eye mask": {
			"R-eye mask": {
				"type": "clipping",
				"end": "R-Pupil",
				"vertexCount": 17,
				"vertices": [ -5.47, 27.7, 0.66, 23.8, 6.94, 19.38, 11.97, 7.72, 13.32, -3.51, 12.24, -11.93, 9.63, -17.31, 6.08, -21.86, 0.93, -25.4, -1.56, -25.34, -5.55, -23.09, -10.16, -17.32, -13.72, -11.51, -15.52, -3.04, -15.91, 6.38, -12.28, 17.49, -8.91, 24 ]
			}
		},
		"Torso 01": {
			"Torso 01": {
				"type": "mesh",
				"path": "Layer 5",
				"uvs": [ 0.28688, 0, 0.10241, 0.0959, 0.06398, 0.27777, 0.10241, 0.50772, 0.09216, 0.57686, 0.07422, 0.66403, 0.02972, 0.79832, 0, 0.88798, 0, 1, 0.35349, 1, 0.70963, 1, 0.89154, 0.88197, 0.89154, 0.80381, 0.89154, 0.65351, 0.90435, 0.56935, 0.94022, 0.48067, 1, 0.26274, 1, 0.08388, 0.766, 0, 0.50466, 0, 0.49697, 0.08087, 0.46366, 0.28378, 0.36887, 0.60692, 0.37143, 0.66403, 0.35349, 0.88347, 0.39705, 0.48969, 0.36529, 0.73915 ],
				"triangles": [ 11, 10, 24, 8, 24, 9, 10, 9, 24, 8, 7, 24, 7, 6, 24, 11, 24, 12, 24, 6, 26, 24, 26, 12, 12, 26, 13, 26, 23, 13, 6, 5, 26, 26, 5, 23, 23, 4, 22, 23, 5, 4, 23, 22, 13, 4, 3, 22, 13, 22, 14, 22, 25, 14, 22, 3, 25, 14, 25, 15, 3, 2, 25, 25, 21, 15, 25, 2, 21, 15, 21, 16, 2, 1, 21, 21, 20, 16, 21, 1, 20, 20, 17, 16, 1, 0, 20, 20, 18, 17, 20, 19, 18, 20, 0, 19 ],
				"vertices": [ 2, 3, 501.64, 105.78, 0.99992, 2, 801.19, 103.32, 8.0E-5, 2, 3, 410.64, 185.57, 0.98868, 2, 710.47, 183.44, 0.01132, 2, 3, 257.26, 185.19, 0.82867, 2, 557.09, 183.61, 0.17133, 2, 3, 68.67, 142.32, 0.59619, 2, 368.35, 141.42, 0.40381, 2, 3, 10.63, 140.05, 0.15506, 2, 310.3, 139.36, 0.84494, 2, 3, -62.86, 139.63, 0.03061, 2, 236.81, 139.21, 0.96939, 2, 3, -177.11, 147.2, 0.00461, 2, 122.59, 147.2, 0.99539, 2, 3, -253.39, 152.26, 0.00193, 2, 46.32, 152.53, 0.99807, 2, 3, -346.42, 140.5, 0.00392, 2, -46.74, 141.11, 0.99608, 1, 2, -25.58, -31.17, 1, 1, 2, -4.27, -204.73, 1, 1, 2, 104.68, -281.33, 1, 1, 2, 169.6, -273.36, 1, 2, 3, -3.77, -257.4, 0.59846, 2, 294.47, -258.03, 0.40154, 2, 3, 66.91, -254.8, 0.75569, 2, 365.15, -255.68, 0.24431, 2, 3, 142.76, -262.96, 0.99299, 2, 440.97, -264.12, 0.00701, 2, 3, 327.41, -269.19, 0.99992, 2, 625.6, -271.02, 8.0E-5, 1, 3, 475.93, -250.4, 1, 1, 3, 531.16, -127.6, 1, 1, 3, 515.06, -0.3, 1, 2, 3, 447.43, -5.05, 0.99996, 2, 746.58, -7.32, 4.0E-5, 2, 3, 276.89, -10.14, 0.99068, 2, 576.02, -11.79, 0.00932, 2, 3, 2.72, 2.1, 0.45671, 2, 301.89, 1.45, 0.54329, 2, 3, -44.55, -5.15, 0.22373, 2, 254.6, -5.63, 0.77627, 1, 2, 71.23, -19.28, 1, 2, 3, 101.8, 0.69, 0.70939, 2, 400.97, -0.33, 0.29061, 2, 3, -107.31, -10.04, 0.11716, 2, 191.82, -10.3, 0.88284 ],
				"hull": 20
			}
		},
		"glasses": {
			"glasses": { "x": 145.73, "y": -19.45, "rotation": -88.46, "width": 261, "height": 71 }
		},
		"head": {
			"head": { "path": "Layer 7", "x": 177.83, "y": -7.4, "rotation": -88.46, "width": 307, "height": 366 }
		},
		"lip01": {
			"Lip02": { "x": 2.51, "y": -14, "rotation": -88.46, "width": 83, "height": 18 },
			"lip01": { "x": -4.48, "y": -14.19, "rotation": -88.46, "width": 101, "height": 36 },
			"lip03": { "x": -6.51, "y": -13.24, "rotation": -88.46, "width": 83, "height": 30 },
			"lip04": { "x": 0.54, "y": -15.05, "rotation": -88.46, "width": 97, "height": 26 }
		},
		"neck": {
			"neck": { "path": "Layer 6", "x": 131.48, "y": -7.24, "rotation": -78.11, "width": 247, "height": 281 }
		}
	}
},
"animations": {
	"1.3": {
		"slots": {
			"lip01": {
				"attachment": [
					{ "time": 0, "name": "Lip02" },
					{ "time": 2, "name": "Lip02" },
					{ "time": 4, "name": "Lip02" },
					{ "time": 6, "name": "Lip02" }
				]
			}
		},
		"bones": {
			"R-arm2": {
				"rotate": [
					{ "time": 0, "angle": -7.67 },
					{ "time": 1, "angle": 6.15 },
					{ "time": 2, "angle": -7.67 },
					{ "time": 3, "angle": 6.15 },
					{ "time": 4, "angle": -7.67 },
					{ "time": 5, "angle": 6.15 },
					{ "time": 6, "angle": -7.67 },
					{ "time": 7, "angle": 6.15 },
					{ "time": 8, "angle": -7.67 }
				]
			},
			"L-Arm": {
				"rotate": [
					{ "time": 0, "angle": 323.48, "curve": "stepped" },
					{ "time": 2, "angle": 323.48, "curve": "stepped" },
					{ "time": 4, "angle": 323.48, "curve": "stepped" },
					{ "time": 6, "angle": 323.48 }
				]
			},
			"L-Hand": {
				"rotate": [
					{ "time": 0, "angle": -26.2, "curve": "stepped" },
					{ "time": 2, "angle": -26.2, "curve": "stepped" },
					{ "time": 4, "angle": -26.2, "curve": "stepped" },
					{ "time": 6, "angle": -26.2 }
				]
			},
			"R-arm": {
				"rotate": [
					{ "time": 0, "angle": 15.11 },
					{ "time": 0.0667, "angle": 17.06 },
					{ "time": 1.0667, "angle": 347.78 },
					{ "time": 2, "angle": 15.11 },
					{ "time": 2.0667, "angle": 17.06 },
					{ "time": 3.0667, "angle": 347.78 },
					{ "time": 4, "angle": 15.11 },
					{ "time": 4.0667, "angle": 17.06 },
					{ "time": 5.0667, "angle": 347.78 },
					{ "time": 6, "angle": 15.11 },
					{ "time": 6.0667, "angle": 17.06 },
					{ "time": 7.0667, "angle": 347.78 },
					{ "time": 8, "angle": 15.11 }
				]
			},
			"R-Hand": {
				"rotate": [
					{ "time": 0, "angle": 9.73 },
					{ "time": 0.5, "angle": 16.78 },
					{ "time": 1, "angle": -11.87 },
					{ "time": 1.6667, "angle": 17.31 },
					{ "time": 2, "angle": 9.73 },
					{ "time": 2.5, "angle": 16.78 },
					{ "time": 3, "angle": -11.87 },
					{ "time": 3.6667, "angle": 17.31 },
					{ "time": 4, "angle": 9.73 },
					{ "time": 4.5, "angle": 16.78 },
					{ "time": 5, "angle": -11.87 },
					{ "time": 5.6667, "angle": 17.31 },
					{ "time": 6, "angle": 9.73 },
					{ "time": 6.5, "angle": 16.78 },
					{ "time": 7, "angle": -11.87 },
					{ "time": 7.6667, "angle": 17.31 },
					{ "time": 8, "angle": 9.73 }
				]
			},
			"Torso 01": {
				"rotate": [
					{ "time": 0, "angle": 9.89, "curve": "stepped" },
					{ "time": 2, "angle": 9.89, "curve": "stepped" },
					{ "time": 4, "angle": 9.89, "curve": "stepped" },
					{ "time": 6, "angle": 9.89 }
				]
			},
			"Torso 2": {
				"rotate": [
					{ "time": 0, "angle": 9.54, "curve": "stepped" },
					{ "time": 2, "angle": 9.54, "curve": "stepped" },
					{ "time": 4, "angle": 9.54, "curve": "stepped" },
					{ "time": 6, "angle": 9.54 }
				]
			},
			"L-coat": {
				"rotate": [
					{ "time": 0, "angle": 354.63, "curve": "stepped" },
					{ "time": 2, "angle": 354.63, "curve": "stepped" },
					{ "time": 4, "angle": 354.63, "curve": "stepped" },
					{ "time": 6, "angle": 354.63 }
				]
			},
			"R-coat": {
				"rotate": [
					{
						"time": 0,
						"angle": 3.96,
						"curve": [ 0.25, 0, 0.75, 1 ]
					},
					{
						"time": 0.5,
						"angle": -1.5,
						"curve": [ 0.25, 0, 0.75, 1 ]
					},
					{
						"time": 1,
						"angle": -0.95,
						"curve": [ 0.25, 0, 0.75, 1 ]
					},
					{
						"time": 1.5,
						"angle": -2.39,
						"curve": [ 0.25, 0, 0.75, 1 ]
					},
					{
						"time": 2,
						"angle": 3.96,
						"curve": [ 0.25, 0, 0.75, 1 ]
					},
					{
						"time": 2.5,
						"angle": -1.5,
						"curve": [ 0.25, 0, 0.75, 1 ]
					},
					{
						"time": 3,
						"angle": -0.95,
						"curve": [ 0.25, 0, 0.75, 1 ]
					},
					{
						"time": 3.5,
						"angle": -2.39,
						"curve": [ 0.25, 0, 0.75, 1 ]
					},
					{
						"time": 4,
						"angle": 3.96,
						"curve": [ 0.25, 0, 0.75, 1 ]
					},
					{
						"time": 4.5,
						"angle": -1.5,
						"curve": [ 0.25, 0, 0.75, 1 ]
					},
					{
						"time": 5,
						"angle": -0.95,
						"curve": [ 0.25, 0, 0.75, 1 ]
					},
					{
						"time": 5.5,
						"angle": -2.39,
						"curve": [ 0.25, 0, 0.75, 1 ]
					},
					{
						"time": 6,
						"angle": 3.96,
						"curve": [ 0.25, 0, 0.75, 1 ]
					},
					{
						"time": 6.5,
						"angle": -1.5,
						"curve": [ 0.25, 0, 0.75, 1 ]
					},
					{
						"time": 7,
						"angle": -0.95,
						"curve": [ 0.25, 0, 0.75, 1 ]
					},
					{
						"time": 7.5,
						"angle": -2.39,
						"curve": [ 0.25, 0, 0.75, 1 ]
					},
					{ "time": 8, "angle": 3.96 }
				]
			},
			"head": {
				"rotate": [
					{ "time": 0, "angle": -14.87 },
					{ "time": 0.5, "angle": -11.52 },
					{ "time": 1, "angle": -21.39 },
					{ "time": 1.5, "angle": -12.53 },
					{ "time": 2, "angle": -14.87 },
					{ "time": 2.5, "angle": -11.52 },
					{ "time": 3, "angle": -21.39 },
					{ "time": 3.5, "angle": -12.53 },
					{ "time": 4, "angle": -14.87 },
					{ "time": 4.5, "angle": -11.52 },
					{ "time": 5, "angle": -21.39 },
					{ "time": 5.5, "angle": -12.53 },
					{ "time": 6, "angle": -14.87 },
					{ "time": 6.5, "angle": -11.52 },
					{ "time": 7, "angle": -21.39 },
					{ "time": 7.5, "angle": -12.53 },
					{ "time": 8, "angle": -14.87 }
				]
			},
			"Look": {
				"translate": [
					{ "time": 0, "x": -1.47, "y": 20.48, "curve": "stepped" },
					{ "time": 0.4333, "x": -1.47, "y": 20.48 },
					{ "time": 0.5, "x": -3.31, "y": 13.29, "curve": "stepped" },
					{ "time": 1, "x": -3.31, "y": 13.29 },
					{ "time": 1.0667, "x": -1.47, "y": 20.48, "curve": "stepped" },
					{ "time": 2, "x": -1.47, "y": 20.48, "curve": "stepped" },
					{ "time": 2.4333, "x": -1.47, "y": 20.48 },
					{ "time": 2.5, "x": -3.31, "y": 13.29, "curve": "stepped" },
					{ "time": 3, "x": -3.31, "y": 13.29 },
					{ "time": 3.0667, "x": -1.47, "y": 20.48, "curve": "stepped" },
					{ "time": 4, "x": -1.47, "y": 20.48, "curve": "stepped" },
					{ "time": 4.4333, "x": -1.47, "y": 20.48 },
					{ "time": 4.5, "x": -3.31, "y": 13.29, "curve": "stepped" },
					{ "time": 5, "x": -3.31, "y": 13.29 },
					{ "time": 5.0667, "x": -1.47, "y": 20.48, "curve": "stepped" },
					{ "time": 6, "x": -1.47, "y": 20.48, "curve": "stepped" },
					{ "time": 6.4333, "x": -1.47, "y": 20.48 },
					{ "time": 6.5, "x": -3.31, "y": 13.29, "curve": "stepped" },
					{ "time": 7, "x": -3.31, "y": 13.29 },
					{ "time": 7.0667, "x": -1.47, "y": 20.48 }
				]
			},
			"Blink": {
				"translate": [
					{ "time": 0, "x": 0.61, "y": 11.63, "curve": "stepped" },
					{ "time": 2, "x": 0.61, "y": 11.63, "curve": "stepped" },
					{ "time": 4, "x": 0.61, "y": 11.63, "curve": "stepped" },
					{ "time": 6, "x": 0.61, "y": 11.63 }
				],
				"scale": [
					{ "time": 0.4667, "x": 1, "y": 1 },
					{ "time": 0.5333, "x": 0.05, "y": 1 },
					{ "time": 0.6, "x": 1, "y": 1, "curve": "stepped" },
					{ "time": 1.6667, "x": 1, "y": 1 },
					{ "time": 1.7333, "x": 0.05, "y": 1 },
					{ "time": 1.8, "x": 1, "y": 1, "curve": "stepped" },
					{ "time": 2.4667, "x": 1, "y": 1 },
					{ "time": 2.5333, "x": 0.05, "y": 1 },
					{ "time": 2.6, "x": 1, "y": 1, "curve": "stepped" },
					{ "time": 3.6667, "x": 1, "y": 1 },
					{ "time": 3.7333, "x": 0.05, "y": 1 },
					{ "time": 3.8, "x": 1, "y": 1, "curve": "stepped" },
					{ "time": 4.4667, "x": 1, "y": 1 },
					{ "time": 4.5333, "x": 0.05, "y": 1 },
					{ "time": 4.6, "x": 1, "y": 1, "curve": "stepped" },
					{ "time": 5.6667, "x": 1, "y": 1 },
					{ "time": 5.7333, "x": 0.05, "y": 1 },
					{ "time": 5.8, "x": 1, "y": 1, "curve": "stepped" },
					{ "time": 6.4667, "x": 1, "y": 1 },
					{ "time": 6.5333, "x": 0.05, "y": 1 },
					{ "time": 6.6, "x": 1, "y": 1, "curve": "stepped" },
					{ "time": 7.6667, "x": 1, "y": 1 },
					{ "time": 7.7333, "x": 0.05, "y": 1 },
					{ "time": 7.8, "x": 1, "y": 1 }
				]
			},
			"L-Leg": {
				"translate": [
					{ "time": 0, "x": -168.1, "y": -29.83 },
					{ "time": 0.5, "x": 49.01, "y": -0.64 },
					{
						"time": 1,
						"x": 463.17,
						"y": 123.43,
						"curve": [ 0.26, 0, 0.674, 1 ]
					},
					{
						"time": 1.5,
						"x": 399.32,
						"y": 283.98,
						"curve": [ 0.26, 0, 0.674, 1 ]
					},
					{ "time": 2, "x": -168.1, "y": -29.83 },
					{ "time": 2.5, "x": 49.01, "y": -0.64 },
					{
						"time": 3,
						"x": 463.17,
						"y": 123.43,
						"curve": [ 0.26, 0, 0.674, 1 ]
					},
					{
						"time": 3.5,
						"x": 399.32,
						"y": 283.98,
						"curve": [ 0.26, 0, 0.674, 1 ]
					},
					{ "time": 4, "x": -168.1, "y": -29.83 },
					{ "time": 4.5, "x": 49.01, "y": -0.64 },
					{
						"time": 5,
						"x": 463.17,
						"y": 123.43,
						"curve": [ 0.26, 0, 0.674, 1 ]
					},
					{
						"time": 5.5,
						"x": 399.32,
						"y": 283.98,
						"curve": [ 0.26, 0, 0.674, 1 ]
					},
					{ "time": 6, "x": -168.1, "y": -29.83 },
					{ "time": 6.5, "x": 49.01, "y": -0.64 },
					{
						"time": 7,
						"x": 463.17,
						"y": 123.43,
						"curve": [ 0.26, 0, 0.674, 1 ]
					},
					{
						"time": 7.5,
						"x": 399.32,
						"y": 283.98,
						"curve": [ 0.26, 0, 0.674, 1 ]
					},
					{ "time": 8, "x": -168.1, "y": -29.83 }
				]
			},
			"R-Leg": {
				"translate": [
					{ "time": 0, "x": 227.11, "y": 131.62 },
					{ "time": 0.5, "x": 135.89, "y": 242.91 },
					{ "time": 1, "x": -371.32, "y": -17.99 },
					{ "time": 1.5, "x": -90.35, "y": -5.22 },
					{ "time": 2, "x": 227.11, "y": 131.62 },
					{ "time": 2.5, "x": 135.89, "y": 242.91 },
					{ "time": 3, "x": -371.32, "y": -17.99 },
					{ "time": 3.5, "x": -90.35, "y": -5.22 },
					{ "time": 4, "x": 227.11, "y": 131.62 },
					{ "time": 4.5, "x": 135.89, "y": 242.91 },
					{ "time": 5, "x": -371.32, "y": -17.99 },
					{ "time": 5.5, "x": -90.35, "y": -5.22 },
					{ "time": 6, "x": 227.11, "y": 131.62 },
					{ "time": 6.5, "x": 135.89, "y": 242.91 },
					{ "time": 7, "x": -371.32, "y": -17.99 },
					{ "time": 7.5, "x": -90.35, "y": -5.22 },
					{ "time": 8, "x": 227.11, "y": 131.62 }
				]
			},
			"Hip": {
				"translate": [
					{
						"time": 0,
						"x": -132.59,
						"y": -48.21,
						"curve": [ 0.27, -0.01, 0.66, 1 ]
					},
					{
						"time": 0.5,
						"x": -135.9,
						"y": -20.81,
						"curve": [ 0.27, -0.01, 0.66, 1 ]
					},
					{
						"time": 1,
						"x": -115.19,
						"y": -65.61,
						"curve": [ 0.27, -0.01, 0.66, 1 ]
					},
					{
						"time": 1.5,
						"x": -97.62,
						"y": -10.37,
						"curve": [ 0.27, -0.01, 0.66, 1 ]
					},
					{
						"time": 2,
						"x": -132.59,
						"y": -48.21,
						"curve": [ 0.27, -0.01, 0.66, 1 ]
					},
					{
						"time": 2.5,
						"x": -135.9,
						"y": -20.81,
						"curve": [ 0.27, -0.01, 0.66, 1 ]
					},
					{
						"time": 3,
						"x": -115.19,
						"y": -65.61,
						"curve": [ 0.27, -0.01, 0.66, 1 ]
					},
					{
						"time": 3.5,
						"x": -97.62,
						"y": -10.37,
						"curve": [ 0.27, -0.01, 0.66, 1 ]
					},
					{
						"time": 4,
						"x": -132.59,
						"y": -48.21,
						"curve": [ 0.27, -0.01, 0.66, 1 ]
					},
					{
						"time": 4.5,
						"x": -135.9,
						"y": -20.81,
						"curve": [ 0.27, -0.01, 0.66, 1 ]
					},
					{
						"time": 5,
						"x": -115.19,
						"y": -65.61,
						"curve": [ 0.27, -0.01, 0.66, 1 ]
					},
					{
						"time": 5.5,
						"x": -97.62,
						"y": -10.37,
						"curve": [ 0.27, -0.01, 0.66, 1 ]
					},
					{
						"time": 6,
						"x": -132.59,
						"y": -48.21,
						"curve": [ 0.27, -0.01, 0.66, 1 ]
					},
					{
						"time": 6.5,
						"x": -135.9,
						"y": -20.81,
						"curve": [ 0.27, -0.01, 0.66, 1 ]
					},
					{
						"time": 7,
						"x": -115.19,
						"y": -65.61,
						"curve": [ 0.27, -0.01, 0.66, 1 ]
					},
					{
						"time": 7.5,
						"x": -97.62,
						"y": -10.37,
						"curve": [ 0.27, -0.01, 0.66, 1 ]
					},
					{ "time": 8, "x": -132.59, "y": -48.21 }
				]
			},
			"L-Arm2": {
				"rotate": [
					{ "time": 0, "angle": -14.88 },
					{ "time": 1, "angle": -17.85 },
					{ "time": 2, "angle": -14.88 },
					{ "time": 3, "angle": -17.85 },
					{ "time": 4, "angle": -14.88 },
					{ "time": 5, "angle": -17.85 },
					{ "time": 6, "angle": -14.88 },
					{ "time": 7, "angle": -17.85 },
					{ "time": 8, "angle": -14.88 }
				]
			},
			"Brow": {
				"translate": [
					{ "time": 0.1667, "x": 0, "y": 0 },
					{ "time": 0.5, "x": 14.34, "y": 1.19, "curve": "stepped" },
					{ "time": 1.1, "x": 14.34, "y": 1.19 },
					{ "time": 1.4333, "x": 0, "y": 0, "curve": "stepped" },
					{ "time": 2.1667, "x": 0, "y": 0 },
					{ "time": 2.5, "x": 14.34, "y": 1.19, "curve": "stepped" },
					{ "time": 3.1, "x": 14.34, "y": 1.19 },
					{ "time": 3.4333, "x": 0, "y": 0, "curve": "stepped" },
					{ "time": 4.1667, "x": 0, "y": 0 },
					{ "time": 4.5, "x": 14.34, "y": 1.19, "curve": "stepped" },
					{ "time": 5.1, "x": 14.34, "y": 1.19 },
					{ "time": 5.4333, "x": 0, "y": 0, "curve": "stepped" },
					{ "time": 6.1667, "x": 0, "y": 0 },
					{ "time": 6.5, "x": 14.34, "y": 1.19, "curve": "stepped" },
					{ "time": 7.1, "x": 14.34, "y": 1.19 },
					{ "time": 7.4333, "x": 0, "y": 0 }
				]
			},
			"L-Foot01": {
				"rotate": [
					{ "time": 0, "angle": -32.15 },
					{ "time": 0.2333, "angle": -18.26 },
					{ "time": 0.8333, "angle": -12.84 },
					{ "time": 1.1667, "angle": 20.3 },
					{ "time": 1.6667, "angle": -41.91 },
					{ "time": 2, "angle": -32.15 },
					{ "time": 2.2333, "angle": -18.26 },
					{ "time": 2.8333, "angle": -12.84 },
					{ "time": 3.1667, "angle": 20.3 },
					{ "time": 3.6667, "angle": -41.91 },
					{ "time": 4, "angle": -32.15 },
					{ "time": 4.2333, "angle": -18.26 },
					{ "time": 4.8333, "angle": -12.84 },
					{ "time": 5.1667, "angle": 20.3 },
					{ "time": 5.6667, "angle": -41.91 },
					{ "time": 6, "angle": -32.15 },
					{ "time": 6.2333, "angle": -18.26 },
					{ "time": 6.8333, "angle": -12.84 },
					{ "time": 7.1667, "angle": 20.3 },
					{ "time": 7.6667, "angle": -41.91 },
					{ "time": 8, "angle": -32.15 }
				]
			},
			"R-foot01": {
				"rotate": [
					{ "time": 0, "angle": 0.59 },
					{ "time": 0.5, "angle": 22.91 },
					{ "time": 1, "angle": -25.4 },
					{ "time": 1.1667, "angle": -4.25 },
					{ "time": 1.5, "angle": -3.14 },
					{ "time": 2, "angle": 0.59 },
					{ "time": 2.5, "angle": 22.91 },
					{ "time": 3, "angle": -25.4 },
					{ "time": 3.1667, "angle": -4.25 },
					{ "time": 3.5, "angle": -3.14 },
					{ "time": 4, "angle": 0.59 },
					{ "time": 4.5, "angle": 22.91 },
					{ "time": 5, "angle": -25.4 },
					{ "time": 5.1667, "angle": -4.25 },
					{ "time": 5.5, "angle": -3.14 },
					{ "time": 6, "angle": 0.59 },
					{ "time": 6.5, "angle": 22.91 },
					{ "time": 7, "angle": -25.4 },
					{ "time": 7.1667, "angle": -4.25 },
					{ "time": 7.5, "angle": -3.14 },
					{ "time": 8, "angle": -1.21 }
				]
			},
			"L hand": {
				"rotate": [
					{ "time": 0, "angle": -4.87, "curve": "stepped" },
					{ "time": 2, "angle": -4.87, "curve": "stepped" },
					{ "time": 4, "angle": -4.87, "curve": "stepped" },
					{ "time": 6, "angle": -4.87 }
				],
				"translate": [
					{ "time": 0, "x": -575.84, "y": -28.32 },
					{ "time": 0.5, "x": -595.9, "y": -8.26 },
					{ "time": 1, "x": -559.32, "y": -14.16 },
					{ "time": 1.5, "x": -567.58, "y": 18.88 },
					{ "time": 2, "x": -575.84, "y": -28.32 },
					{ "time": 2.5, "x": -595.9, "y": -8.26 },
					{ "time": 3, "x": -559.32, "y": -14.16 },
					{ "time": 3.5, "x": -567.58, "y": 18.88 },
					{ "time": 4, "x": -575.84, "y": -28.32 },
					{ "time": 4.5, "x": -595.9, "y": -8.26 },
					{ "time": 5, "x": -559.32, "y": -14.16 },
					{ "time": 5.5, "x": -567.58, "y": 18.88 },
					{ "time": 6, "x": -575.84, "y": -28.32 },
					{ "time": 6.5, "x": -595.9, "y": -8.26 },
					{ "time": 7, "x": -559.32, "y": -14.16 },
					{ "time": 7.5, "x": -567.58, "y": 18.88 },
					{ "time": 8, "x": -575.84, "y": -28.32 }
				]
			}
		}
	},
	"1.4": {
		"slots": {
			"lip01": {
				"attachment": [
					{ "time": 0, "name": "lip03" },
					{ "time": 0.1333, "name": "lip03" },
					{ "time": 0.4667, "name": "lip03" },
					{ "time": 0.6, "name": "lip03" },
					{ "time": 1.0333, "name": "lip03" },
					{ "time": 1.2, "name": "lip03" },
					{ "time": 1.6, "name": "lip03" },
					{ "time": 2.1333, "name": "lip03" },
					{ "time": 2.5333, "name": "lip03" },
					{ "time": 2.6667, "name": "lip03" },
					{ "time": 3, "name": "Lip02" },
					{ "time": 3.3333, "name": "lip03" },
					{ "time": 3.4667, "name": "lip03" },
					{ "time": 3.8, "name": "lip03" },
					{ "time": 3.9333, "name": "lip03" },
					{ "time": 4.3667, "name": "lip03" },
					{ "time": 4.5333, "name": "lip03" },
					{ "time": 4.9333, "name": "lip03" },
					{ "time": 5.4667, "name": "lip03" },
					{ "time": 5.8667, "name": "lip03" },
					{ "time": 6, "name": "lip03" },
					{ "time": 6.3333, "name": "Lip02" },
					{ "time": 6.6667, "name": "lip03" }
				]
			}
		},
		"bones": {
			"Hip": {
				"rotate": [
					{
						"time": 0,
						"angle": 0,
						"curve": [ 0.65, 0, 0.432, 1 ]
					},
					{
						"time": 1.6667,
						"angle": -1.91,
						"curve": [ 0.65, 0, 0.432, 1 ]
					},
					{
						"time": 3.3333,
						"angle": 0,
						"curve": [ 0.65, 0, 0.432, 1 ]
					},
					{
						"time": 5,
						"angle": -1.91,
						"curve": [ 0.65, 0, 0.432, 1 ]
					},
					{ "time": 6.6667, "angle": 0 }
				],
				"translate": [
					{
						"time": 0,
						"x": -106.85,
						"y": -38.48,
						"curve": [ 0.612, 0, 0.816, 0.5 ]
					},
					{
						"time": 1.6667,
						"x": -86.82,
						"y": -39.88,
						"curve": [ 0.208, 0.5, 0.395, 1 ]
					},
					{
						"time": 3.3333,
						"x": -106.85,
						"y": -38.48,
						"curve": [ 0.612, 0, 0.816, 0.5 ]
					},
					{
						"time": 5,
						"x": -86.82,
						"y": -39.88,
						"curve": [ 0.208, 0.5, 0.395, 1 ]
					},
					{ "time": 6.6667, "x": -106.85, "y": -38.48 }
				]
			},
			"L-Leg": {
				"rotate": [
					{ "time": 0, "angle": -19.38, "curve": "stepped" },
					{ "time": 3.3333, "angle": -19.38, "curve": "stepped" },
					{ "time": 6.6667, "angle": -19.38 }
				],
				"translate": [
					{ "time": 0, "x": -4.67, "y": -37.33, "curve": "stepped" },
					{ "time": 3.3333, "x": -4.67, "y": -37.33, "curve": "stepped" },
					{ "time": 6.6667, "x": -4.67, "y": -37.33 }
				]
			},
			"L-Foot01": {
				"rotate": [
					{ "time": 0, "angle": -11.93, "curve": "stepped" },
					{ "time": 3.3333, "angle": -11.93, "curve": "stepped" },
					{ "time": 6.6667, "angle": -11.93 }
				]
			},
			"R-Leg": {
				"translate": [
					{ "time": 0, "x": -18.66, "y": -23.33, "curve": "stepped" },
					{ "time": 3.3333, "x": -18.66, "y": -23.33, "curve": "stepped" },
					{ "time": 6.6667, "x": -18.66, "y": -23.33 }
				]
			},
			"L hand": {
				"rotate": [
					{
						"time": 0,
						"angle": -115.79,
						"curve": [ 0.612, 0, 0.816, 0.5 ]
					},
					{
						"time": 1.6667,
						"angle": -137.34,
						"curve": [ 0.208, 0.5, 0.395, 1 ]
					},
					{
						"time": 3.3333,
						"angle": -115.79,
						"curve": [ 0.612, 0, 0.816, 0.5 ]
					},
					{
						"time": 5,
						"angle": -137.34,
						"curve": [ 0.208, 0.5, 0.395, 1 ]
					},
					{ "time": 6.6667, "angle": -115.79 }
				],
				"translate": [
					{
						"time": 0,
						"x": -518.08,
						"y": 533.42,
						"curve": [ 0.266, 0, 0.7, 1 ]
					},
					{
						"time": 1.6667,
						"x": -487.23,
						"y": 678.17,
						"curve": [ 0.266, 0, 0.7, 1 ]
					},
					{
						"time": 3.3333,
						"x": -518.08,
						"y": 533.42,
						"curve": [ 0.266, 0, 0.7, 1 ]
					},
					{
						"time": 5,
						"x": -487.23,
						"y": 678.17,
						"curve": [ 0.266, 0, 0.7, 1 ]
					},
					{ "time": 6.6667, "x": -518.08, "y": 533.42 }
				]
			},
			"Look": {
				"translate": [
					{ "time": 0, "x": -0.99, "y": 7.13, "curve": "stepped" },
					{
						"time": 1.7,
						"x": -0.99,
						"y": 7.13,
						"curve": [ 0.331, 0.34, 0.658, 0.67 ]
					},
					{ "time": 1.9667, "x": -2.8, "y": -9.45, "curve": "stepped" },
					{
						"time": 3,
						"x": -2.8,
						"y": -9.45,
						"curve": [ 0.199, 0.54, 0.441, 1 ]
					},
					{ "time": 3.3333, "x": -0.99, "y": 7.13, "curve": "stepped" },
					{
						"time": 5.0333,
						"x": -0.99,
						"y": 7.13,
						"curve": [ 0.331, 0.34, 0.658, 0.67 ]
					},
					{ "time": 5.3, "x": -2.8, "y": -9.45, "curve": "stepped" },
					{
						"time": 6.3333,
						"x": -2.8,
						"y": -9.45,
						"curve": [ 0.199, 0.54, 0.441, 1 ]
					},
					{ "time": 6.6667, "x": -0.99, "y": 7.13 }
				]
			},
			"Blink": {
				"scale": [
					{
						"time": 0,
						"x": 0.8,
						"y": 1,
						"curve": [ 0.44, 0, 0.757, 0.39 ]
					},
					{ "time": 0.7, "x": 0.56, "y": 1, "curve": "stepped" },
					{
						"time": 1.5,
						"x": 0.56,
						"y": 1,
						"curve": [ 0.322, 0.34, 0.653, 0.68 ]
					},
					{
						"time": 1.6,
						"x": 0.114,
						"y": 1,
						"curve": [ 0.323, 0.34, 0.655, 0.67 ]
					},
					{ "time": 1.6667, "x": 0.56, "y": 1, "curve": "stepped" },
					{
						"time": 2.3333,
						"x": 0.56,
						"y": 1,
						"curve": [ 0.46, 0.25, 0.745, 0.62 ]
					},
					{
						"time": 2.6667,
						"x": 0.671,
						"y": 1,
						"curve": [ 0.338, 0.33, 0.669, 0.67 ]
					},
					{
						"time": 2.7333,
						"x": 0.154,
						"y": 1,
						"curve": [ 0.327, 0.34, 0.655, 0.68 ]
					},
					{
						"time": 2.8333,
						"x": 0.74,
						"y": 1,
						"curve": [ 0.199, 0.55, 0.449, 1 ]
					},
					{
						"time": 3.3333,
						"x": 0.8,
						"y": 1,
						"curve": [ 0.44, 0, 0.757, 0.39 ]
					},
					{ "time": 4.0333, "x": 0.56, "y": 1, "curve": "stepped" },
					{
						"time": 4.8333,
						"x": 0.56,
						"y": 1,
						"curve": [ 0.322, 0.34, 0.653, 0.68 ]
					},
					{
						"time": 4.9333,
						"x": 0.114,
						"y": 1,
						"curve": [ 0.323, 0.34, 0.655, 0.67 ]
					},
					{ "time": 5, "x": 0.56, "y": 1, "curve": "stepped" },
					{
						"time": 5.6667,
						"x": 0.56,
						"y": 1,
						"curve": [ 0.46, 0.25, 0.745, 0.62 ]
					},
					{
						"time": 6,
						"x": 0.671,
						"y": 1,
						"curve": [ 0.338, 0.33, 0.669, 0.67 ]
					},
					{
						"time": 6.0667,
						"x": 0.154,
						"y": 1,
						"curve": [ 0.327, 0.34, 0.655, 0.68 ]
					},
					{
						"time": 6.1667,
						"x": 0.74,
						"y": 1,
						"curve": [ 0.199, 0.55, 0.449, 1 ]
					},
					{ "time": 6.6667, "x": 0.8, "y": 1 }
				]
			},
			"Brow": {
				"translate": [
					{
						"time": 0,
						"x": 26.25,
						"y": -0.09,
						"curve": [ 0.266, 0, 0.7, 1 ]
					},
					{ "time": 1, "x": 8.66, "y": 2.36, "curve": "stepped" },
					{
						"time": 2.3333,
						"x": 8.66,
						"y": 2.36,
						"curve": [ 0.266, 0, 0.7, 1 ]
					},
					{
						"time": 3.3333,
						"x": 26.25,
						"y": -0.09,
						"curve": [ 0.266, 0, 0.7, 1 ]
					},
					{ "time": 4.3333, "x": 8.66, "y": 2.36, "curve": "stepped" },
					{
						"time": 5.6667,
						"x": 8.66,
						"y": 2.36,
						"curve": [ 0.266, 0, 0.7, 1 ]
					},
					{ "time": 6.6667, "x": 26.25, "y": -0.09 }
				]
			},
			"R-arm": {
				"rotate": [
					{ "time": 0, "angle": 18.31, "curve": "stepped" },
					{ "time": 3.3333, "angle": 18.31, "curve": "stepped" },
					{ "time": 6.6667, "angle": 18.31 }
				]
			},
			"R-arm2": {
				"rotate": [
					{ "time": 0, "angle": -41.27, "curve": "stepped" },
					{ "time": 3.3333, "angle": -41.27, "curve": "stepped" },
					{ "time": 6.6667, "angle": -41.27 }
				]
			},
			"R-Hand": {
				"rotate": [
					{ "time": 0, "angle": 38.66, "curve": "stepped" },
					{ "time": 3.3333, "angle": 38.66, "curve": "stepped" },
					{ "time": 6.6667, "angle": 38.66 }
				]
			},
			"mouth": {
				"scale": [
					{
						"time": 0.0667,
						"x": 0.343,
						"y": 1,
						"curve": [ 0.65, 0, 0.432, 1 ]
					},
					{
						"time": 0.1333,
						"x": 0.8,
						"y": 1,
						"curve": [ 0.65, 0, 0.432, 1 ]
					},
					{
						"time": 0.2,
						"x": 0.8,
						"y": 0.754,
						"curve": [ 0.65, 0, 0.432, 1 ]
					},
					{
						"time": 0.2667,
						"x": 0.8,
						"y": 1.008,
						"curve": [ 0.65, 0, 0.432, 1 ]
					},
					{
						"time": 0.3333,
						"x": 0.619,
						"y": 0.847,
						"curve": [ 0.65, 0, 0.432, 1 ]
					},
					{
						"time": 0.4,
						"x": 1.106,
						"y": 0.982,
						"curve": [ 0.65, 0, 0.432, 1 ]
					},
					{
						"time": 0.5333,
						"x": 0.343,
						"y": 1,
						"curve": [ 0.65, 0, 0.432, 1 ]
					},
					{
						"time": 0.6,
						"x": 0.8,
						"y": 1,
						"curve": [ 0.65, 0, 0.432, 1 ]
					},
					{
						"time": 0.7333,
						"x": 0.8,
						"y": 0.754,
						"curve": [ 0.65, 0, 0.432, 1 ]
					},
					{
						"time": 0.8,
						"x": 0.8,
						"y": 1.008,
						"curve": [ 0.65, 0, 0.432, 1 ]
					},
					{
						"time": 0.9,
						"x": 0.619,
						"y": 0.847,
						"curve": [ 0.65, 0, 0.432, 1 ]
					},
					{
						"time": 0.9667,
						"x": 1.106,
						"y": 0.982,
						"curve": [ 0.65, 0, 0.432, 1 ]
					},
					{
						"time": 1.1333,
						"x": 0.343,
						"y": 1,
						"curve": [ 0.65, 0, 0.432, 1 ]
					},
					{
						"time": 1.2,
						"x": 0.8,
						"y": 1,
						"curve": [ 0.65, 0, 0.432, 1 ]
					},
					{
						"time": 1.3,
						"x": 0.8,
						"y": 0.754,
						"curve": [ 0.65, 0, 0.432, 1 ]
					},
					{
						"time": 1.3667,
						"x": 0.8,
						"y": 1.008,
						"curve": [ 0.65, 0, 0.432, 1 ]
					},
					{
						"time": 1.4667,
						"x": 0.619,
						"y": 0.847,
						"curve": [ 0.65, 0, 0.432, 1 ]
					},
					{
						"time": 1.5333,
						"x": 1.106,
						"y": 0.982,
						"curve": [ 0.65, 0, 0.432, 1 ]
					},
					{
						"time": 1.7,
						"x": 0.343,
						"y": 1,
						"curve": [ 0.65, 0, 0.432, 1 ]
					},
					{
						"time": 2.1333,
						"x": 0.8,
						"y": 1,
						"curve": [ 0.65, 0, 0.432, 1 ]
					},
					{
						"time": 2.2333,
						"x": 0.8,
						"y": 0.754,
						"curve": [ 0.65, 0, 0.432, 1 ]
					},
					{
						"time": 2.3,
						"x": 0.8,
						"y": 1.008,
						"curve": [ 0.65, 0, 0.432, 1 ]
					},
					{
						"time": 2.4,
						"x": 0.619,
						"y": 0.847,
						"curve": [ 0.65, 0, 0.432, 1 ]
					},
					{
						"time": 2.4667,
						"x": 1.106,
						"y": 0.982,
						"curve": [ 0.65, 0, 0.432, 1 ]
					},
					{
						"time": 2.6,
						"x": 0.343,
						"y": 1,
						"curve": [ 0.65, 0, 0.432, 1 ]
					},
					{
						"time": 2.6667,
						"x": 0.8,
						"y": 1,
						"curve": [ 0.65, 0, 0.432, 1 ]
					},
					{
						"time": 2.7333,
						"x": 0.8,
						"y": 0.754,
						"curve": [ 0.65, 0, 0.432, 1 ]
					},
					{
						"time": 2.8,
						"x": 0.8,
						"y": 1.008,
						"curve": [ 0.65, 0, 0.432, 1 ]
					},
					{
						"time": 2.8667,
						"x": 0.619,
						"y": 0.847,
						"curve": [ 0.65, 0, 0.432, 1 ]
					},
					{
						"time": 2.9333,
						"x": 1.106,
						"y": 0.982,
						"curve": [ 0.65, 0, 0.432, 1 ]
					},
					{
						"time": 3.4,
						"x": 0.343,
						"y": 1,
						"curve": [ 0.65, 0, 0.432, 1 ]
					},
					{
						"time": 3.4667,
						"x": 0.8,
						"y": 1,
						"curve": [ 0.65, 0, 0.432, 1 ]
					},
					{
						"time": 3.5333,
						"x": 0.8,
						"y": 0.754,
						"curve": [ 0.65, 0, 0.432, 1 ]
					},
					{
						"time": 3.6,
						"x": 0.8,
						"y": 1.008,
						"curve": [ 0.65, 0, 0.432, 1 ]
					},
					{
						"time": 3.6667,
						"x": 0.619,
						"y": 0.847,
						"curve": [ 0.65, 0, 0.432, 1 ]
					},
					{
						"time": 3.7333,
						"x": 1.106,
						"y": 0.982,
						"curve": [ 0.65, 0, 0.432, 1 ]
					},
					{
						"time": 3.8667,
						"x": 0.343,
						"y": 1,
						"curve": [ 0.65, 0, 0.432, 1 ]
					},
					{
						"time": 3.9333,
						"x": 0.8,
						"y": 1,
						"curve": [ 0.65, 0, 0.432, 1 ]
					},
					{
						"time": 4.0667,
						"x": 0.8,
						"y": 0.754,
						"curve": [ 0.65, 0, 0.432, 1 ]
					},
					{
						"time": 4.1333,
						"x": 0.8,
						"y": 1.008,
						"curve": [ 0.65, 0, 0.432, 1 ]
					},
					{
						"time": 4.2333,
						"x": 0.619,
						"y": 0.847,
						"curve": [ 0.65, 0, 0.432, 1 ]
					},
					{
						"time": 4.3,
						"x": 1.106,
						"y": 0.982,
						"curve": [ 0.65, 0, 0.432, 1 ]
					},
					{
						"time": 4.4667,
						"x": 0.343,
						"y": 1,
						"curve": [ 0.65, 0, 0.432, 1 ]
					},
					{
						"time": 4.5333,
						"x": 0.8,
						"y": 1,
						"curve": [ 0.65, 0, 0.432, 1 ]
					},
					{
						"time": 4.6333,
						"x": 0.8,
						"y": 0.754,
						"curve": [ 0.65, 0, 0.432, 1 ]
					},
					{
						"time": 4.7,
						"x": 0.8,
						"y": 1.008,
						"curve": [ 0.65, 0, 0.432, 1 ]
					},
					{
						"time": 4.8,
						"x": 0.619,
						"y": 0.847,
						"curve": [ 0.65, 0, 0.432, 1 ]
					},
					{
						"time": 4.8667,
						"x": 1.106,
						"y": 0.982,
						"curve": [ 0.65, 0, 0.432, 1 ]
					},
					{
						"time": 5.0333,
						"x": 0.343,
						"y": 1,
						"curve": [ 0.65, 0, 0.432, 1 ]
					},
					{
						"time": 5.4667,
						"x": 0.8,
						"y": 1,
						"curve": [ 0.65, 0, 0.432, 1 ]
					},
					{
						"time": 5.5667,
						"x": 0.8,
						"y": 0.754,
						"curve": [ 0.65, 0, 0.432, 1 ]
					},
					{
						"time": 5.6333,
						"x": 0.8,
						"y": 1.008,
						"curve": [ 0.65, 0, 0.432, 1 ]
					},
					{
						"time": 5.7333,
						"x": 0.619,
						"y": 0.847,
						"curve": [ 0.65, 0, 0.432, 1 ]
					},
					{
						"time": 5.8,
						"x": 1.106,
						"y": 0.982,
						"curve": [ 0.65, 0, 0.432, 1 ]
					},
					{
						"time": 5.9333,
						"x": 0.343,
						"y": 1,
						"curve": [ 0.65, 0, 0.432, 1 ]
					},
					{
						"time": 6,
						"x": 0.8,
						"y": 1,
						"curve": [ 0.65, 0, 0.432, 1 ]
					},
					{
						"time": 6.0667,
						"x": 0.8,
						"y": 0.754,
						"curve": [ 0.65, 0, 0.432, 1 ]
					},
					{
						"time": 6.1333,
						"x": 0.8,
						"y": 1.008,
						"curve": [ 0.65, 0, 0.432, 1 ]
					},
					{
						"time": 6.2,
						"x": 0.619,
						"y": 0.847,
						"curve": [ 0.65, 0, 0.432, 1 ]
					},
					{ "time": 6.2667, "x": 1.106, "y": 0.982 }
				]
			},
			"root": {
				"translate": [
					{ "time": 0, "x": -874.22, "y": -977.3 }
				],
				"scale": [
					{ "time": 0, "x": -1, "y": 1 }
				]
			},
			"L-coat": {
				"translate": [
					{ "time": 0, "x": 4.63, "y": 0.59 }
				]
			}
		}
	}
}
}