%YAML 1.1
%TAG !u! tag:unity3d.com,2011:
--- !u!114 &11400000
MonoBehaviour:
  m_ObjectHideFlags: 0
  m_CorrespondingSourceObject: {fileID: 0}
  m_PrefabInternal: {fileID: 0}
  m_GameObject: {fileID: 0}
  m_Enabled: 1
  m_EditorHideFlags: 0
  m_Script: {fileID: 11500000, guid: a6b194f808b1af6499c93410e504af42, type: 3}
  m_Name: fight scene_Atlas
  m_EditorClassIdentifier: 
  atlasFile: {fileID: 4900000, guid: ea9b59a6c13304f969aa8868bb77de48, type: 3}
  materials:
  - {fileID: 2100000, guid: 70ded769833bb47bd81105f90bcf1446, type: 2}
