%YAML 1.1
%TAG !u! tag:unity3d.com,2011:
--- !u!114 &11400000
MonoBehaviour:
  m_ObjectHideFlags: 0
  m_CorrespondingSourceObject: {fileID: 0}
  m_PrefabInternal: {fileID: 0}
  m_GameObject: {fileID: 0}
  m_Enabled: 1
  m_EditorHideFlags: 0
  m_Script: {fileID: 11500000, guid: a6b194f808b1af6499c93410e504af42, type: 3}
  m_Name: America_Atlas
  m_EditorClassIdentifier: 
  atlasFile: {fileID: 4900000, guid: b824c4680996641258225cb3454fe8f8, type: 3}
  materials:
  - {fileID: 2100000, guid: ecc3478fa776c4dc3892c81eea656111, type: 2}
