{
"skeleton": { "hash": "3V8vlk0EefN1l0vuyNCxWtKMgTE", "spine": "3.6.52", "width": 1242, "height": 2209.7 },
"bones": [
	{ "name": "root" },
	{ "name": "bone", "parent": "root" }
],
"slots": [
	{ "name": "Light Flare", "bone": "bone", "attachment": "1.4 (4)", "blend": "screen" },
	{ "name": "1.4 (3)2", "bone": "bone", "attachment": "1.4 (3)" }
],
"skins": {
	"default": {
		"1.4 (3)2": {
			"1.4 (3)": { "y": 577.22, "width": 1242, "height": 1155 }
		},
		"Light Flare": {
			"1.4 (4)": { "y": 1546.42, "width": 1242, "height": 1326 }
		}
	}
},
"animations": {
	"animation": {
		"slots": {
			"1.4 (3)2": {
				"attachment": [
					{ "time": 0, "name": "1.4 (3)" },
					{ "time": 6.6667, "name": "1.4 (3)" }
				]
			},
			"Light Flare": {
				"attachment": [
					{ "time": 0, "name": "1.4 (4)" },
					{ "time": 6.6667, "name": "1.4 (4)" }
				]
			}
		},
		"bones": {
			"bone": {
				"translate": [
					{ "time": 0, "x": 0, "y": 0, "curve": "stepped" },
					{ "time": 6.6667, "x": 0, "y": 0 }
				],
				"scale": [
					{
						"time": 0,
						"x": 1,
						"y": 1,
						"curve": [ 0.612, 0, 0.816, 0.5 ]
					},
					{
						"time": 3.3333,
						"x": 1.196,
						"y": 1,
						"curve": [ 0.208, 0.5, 0.395, 1 ]
					},
					{ "time": 6.6667, "x": 1, "y": 1 }
				]
			}
		}
	}
}
}