%YAML 1.1
%TAG !u! tag:unity3d.com,2011:
--- !u!114 &11400000
MonoBehaviour:
  m_ObjectHideFlags: 0
  m_CorrespondingSourceObject: {fileID: 0}
  m_PrefabInternal: {fileID: 0}
  m_GameObject: {fileID: 0}
  m_Enabled: 1
  m_EditorHideFlags: 0
  m_Script: {fileID: 11500000, guid: a6b194f808b1af6499c93410e504af42, type: 3}
  m_Name: fight scene_Atlas
  m_EditorClassIdentifier: 
  atlasFile: {fileID: 4900000, guid: ca2fe93f4826244799432c93403383d8, type: 3}
  materials:
  - {fileID: 2100000, guid: 5fc4af97f5ac447859daf75b9e58f37d, type: 2}
