{
"skeleton": { "hash": "VivCsvj+8ZIHGrsHv9Oo7P16mcI", "spine": "3.6.52", "width": 721.63, "height": 2124.16 },
"bones": [
	{ "name": "root", "x": 1610.61, "y": -2944.88, "scaleX": -1 },
	{ "name": "Hip", "parent": "root", "x": 5.66, "y": 1178.93 },
	{ "name": "Torso", "parent": "Hip", "length": 165.39, "rotation": 98.07, "x": -19.64, "y": 45.61 },
	{ "name": "Torso2", "parent": "Torso", "length": 276.08, "rotation": -26.16, "x": 165.56, "y": 1.21 },
	{ "name": "L hand", "parent": "root", "x": -177.97, "y": 1063.76 },
	{ "name": "L-Arm", "parent": "Torso2", "length": 207.64, "rotation": -172.9, "x": 166.61, "y": 91.47 },
	{ "name": "L-Arm2", "parent": "L-Arm", "length": 325.15, "rotation": -4.89, "x": 207.64 },
	{ "name": "L-Hand", "parent": "L-Arm2", "length": 171.51, "rotation": -9.41, "x": 304.32, "y": 4.77 },
	{ "name": "Acessorie", "parent": "L-Hand", "rotation": 0.73, "x": 96.6, "y": 24.32 },
	{
		"name": "Head",
		"parent": "Torso2",
		"length": 291.53,
		"rotation": 20.64,
		"x": 275.78,
		"y": 3.71,
		"scaleX": 0.974,
		"scaleY": 0.974
	},
	{ "name": "Eye blink", "parent": "Head", "x": 167.98, "y": 298.95 },
	{ "name": "Eyebrows", "parent": "Head", "x": 208.91, "y": 43.03 },
	{ "name": "Hair L", "parent": "Head", "length": 621.74, "rotation": 167.54, "x": 318.79, "y": 7.05 },
	{ "name": "L Leg", "parent": "root", "x": 48.02, "y": 115.87 },
	{ "name": "L-Leg", "parent": "Hip", "length": 508.88, "rotation": -95.33, "x": -47.17, "y": -15.06 },
	{ "name": "L-Leg2", "parent": "L-Leg", "length": 558.44, "rotation": 11.01, "x": 501.31, "y": -2.29 },
	{ "name": "L-Shoe", "parent": "L Leg", "length": 160.4, "rotation": -147.47, "x": -0.89, "y": -0.39 },
	{ "name": "Puf", "parent": "Head", "length": 276.13, "rotation": 106.63, "x": 322.73, "y": -114.9 },
	{ "name": "Pupil", "parent": "Head", "x": 169.34, "y": 364.11 },
	{ "name": "R LEg", "parent": "root", "x": 167.41, "y": 99.04 },
	{ "name": "R hand", "parent": "root", "x": -125.13, "y": 1304.96 },
	{ "name": "R-Arm", "parent": "Torso2", "length": 227.73, "rotation": -166.92, "x": 257.41, "y": -160.08 },
	{ "name": "R-Arm2", "parent": "R-Arm", "length": 285.01, "rotation": -65.55, "x": 228.49, "y": 1.11 },
	{ "name": "R-Eye", "parent": "Eye blink", "rotation": 354.91, "x": 5.83, "y": -334.73 },
	{ "name": "R-Hair", "parent": "Head", "length": 609.15, "rotation": -173.19, "x": 252.33, "y": -153.41 },
	{ "name": "R-Hand", "parent": "R-Arm2", "length": 202.61, "rotation": -7, "x": 283.49, "y": -0.53 },
	{ "name": "R-Leg", "parent": "Hip", "length": 519.32, "rotation": -87.13, "x": 104.56, "y": -28.54 },
	{ "name": "R-Leg2", "parent": "R-Leg", "length": 550.94, "rotation": 2.69, "x": 519.32 },
	{ "name": "R-Shoe", "parent": "R LEg", "length": 176.92, "rotation": -142.54, "x": 1.45, "y": 0.58 },
	{ "name": "hair back", "parent": "Head", "length": 577.24, "rotation": -177.84, "x": 284.92, "y": -28.92 },
	{ "name": "l_Eye", "parent": "Eye blink", "rotation": 354.91, "x": 3.84, "y": -214.71 }
],
"slots": [
	{ "name": "mask table", "bone": "root", "attachment": "mask table" },
	{ "name": "hair back", "bone": "hair back", "attachment": "hair back" },
	{ "name": "Hair L", "bone": "Hair L", "attachment": "Hair L" },
	{ "name": "L-Hand", "bone": "L-Hand", "attachment": "L-Hand" },
	{ "name": "L-Arm", "bone": "L-Arm", "attachment": "L-Arm" },
	{ "name": "L-Leg", "bone": "L-Leg", "attachment": "L-Leg" },
	{ "name": "L-Shoe", "bone": "L-Shoe", "attachment": "L-Shoe" },
	{ "name": "Hip", "bone": "Hip", "attachment": "Hip" },
	{ "name": "R-Leg", "bone": "R-Leg", "attachment": "R-Leg" },
	{ "name": "R-Shoe", "bone": "R-Shoe", "attachment": "R-Shoe" },
	{ "name": "Torso", "bone": "Torso", "attachment": "Torso" },
	{ "name": "Head", "bone": "Head", "attachment": "Head" },
	{ "name": "R-Eyebrow", "bone": "Eyebrows", "attachment": "R-Eyebrow" },
	{ "name": "L-Eyebrow", "bone": "Eyebrows", "attachment": "L-Eyebrow" },
	{ "name": "l_Eye", "bone": "l_Eye", "attachment": "l_Eye" },
	{ "name": "Leye mask", "bone": "Eye blink", "attachment": "Leye mask" },
	{ "name": "L-Pupil", "bone": "Pupil", "attachment": "L-Pupil" },
	{ "name": "R-Eye", "bone": "R-Eye", "attachment": "R-Eye" },
	{ "name": "REye mask", "bone": "Eye blink", "attachment": "REye mask" },
	{ "name": "R-Pupil", "bone": "Pupil", "attachment": "R-Pupil" },
	{ "name": "Lip", "bone": "Head", "attachment": "Lip" },
	{ "name": "Puf", "bone": "Puf", "attachment": "Puf" },
	{ "name": "R-Hand", "bone": "R-Hand", "attachment": "R-Hand" },
	{ "name": "R-Arm", "bone": "R-Arm", "attachment": "R-Arm" },
	{ "name": "R-Hair", "bone": "R-Hair", "attachment": "R-Hair" },
	{ "name": "money", "bone": "Acessorie", "attachment": "1" }
],
"ik": [
	{
		"name": "L Leg",
		"order": 1,
		"bones": [ "L-Leg", "L-Leg2" ],
		"target": "L Leg"
	},
	{
		"name": "L hand",
		"order": 2,
		"bones": [ "L-Arm", "L-Arm2" ],
		"target": "L hand",
		"bendPositive": false
	},
	{
		"name": "R LEg",
		"order": 0,
		"bones": [ "R-Leg", "R-Leg2" ],
		"target": "R LEg"
	},
	{
		"name": "R hand",
		"order": 3,
		"bones": [ "R-Arm", "R-Arm2" ],
		"target": "R hand",
		"bendPositive": false
	}
],
"skins": {
	"default": {
		"Hair L": {
			"Hair L": { "x": 315.38, "y": 12.05, "rotation": 100.3, "width": 424, "height": 744 }
		},
		"Head": {
			"Head": { "x": 158.06, "y": -21.92, "scaleX": 1.026, "scaleY": 1.026, "rotation": -92.54, "width": 259, "height": 395 }
		},
		"Hip": {
			"Hip": { "x": 26.54, "y": 8.93, "width": 283, "height": 230 }
		},
		"L-Arm": {
			"L-Arm": {
				"type": "mesh",
				"uvs": [ 0.04099, 1, 0.18656, 1, 0.38358, 1, 0.53882, 0.86189, 0.88676, 0.52016, 0.86535, 0.47979, 0.85252, 0.45329, 0.83323, 0.41346, 0.8437, 0.38983, 0.87605, 0.31685, 1, 0.09336, 0.99917, 0, 0.62175, 0, 0.26046, 0, 0.12129, 0.08038, 0.0517, 0.31253, 0.04635, 0.40048, 0.04635, 0.4423, 0.04371, 0.46648, 0.04099, 0.49132, 0.01958, 0.53746, 0, 0.8518, 0.21263, 0.85742, 0.27412, 0.53719, 0.27916, 0.4977, 0.28794, 0.4415, 0.28794, 0.39713, 0.29453, 0.31491, 0.55806, 0.09695, 0.28393, 0.46718, 0.65324, 0.52665, 0.62097, 0.48725, 0.6181, 0.45902, 0.60841, 0.42502, 0.59646, 0.39308, 0.63373, 0.31604 ],
				"triangles": [ 29, 17, 25, 25, 34, 33, 25, 26, 34, 25, 16, 26, 28, 13, 12, 14, 13, 28, 10, 28, 12, 10, 12, 11, 27, 14, 28, 15, 14, 27, 9, 35, 28, 27, 28, 35, 10, 9, 28, 8, 35, 9, 34, 27, 35, 34, 35, 8, 26, 15, 27, 26, 27, 34, 16, 15, 26, 17, 16, 25, 7, 34, 8, 29, 25, 33, 32, 7, 6, 29, 33, 32, 31, 32, 6, 31, 6, 5, 24, 18, 29, 19, 18, 24, 31, 24, 29, 31, 29, 32, 30, 31, 5, 30, 5, 4, 23, 19, 24, 23, 24, 31, 23, 31, 30, 20, 19, 23, 22, 20, 23, 21, 20, 22, 3, 23, 30, 22, 23, 3, 3, 30, 4, 0, 21, 22, 1, 0, 22, 2, 22, 3, 1, 22, 2, 32, 33, 7, 33, 34, 7, 18, 17, 29 ],
				"vertices": [ 1, 6, 323.06, -18.64, 1, 1, 6, 321.73, 3.59, 1, 1, 6, 319.94, 33.68, 1, 1, 6, 240.22, 52.73, 1, 1, 6, 43.3, 94.33, 1, 1, 6, 20.6, 89.7, 1, 2, 6, -1.25, 86.7, 0.944, 5, 206.39, 86.7, 0.056, 2, 6, -16.71, 82.56, 0.88215, 5, 180.17, 79.63, 0.11785, 1, 5, 166.69, 78.64, 1, 2, 6, -71.88, 85.84, 0.02001, 5, 125.05, 75.59, 0.97999, 1, 5, -3.18, 69.99, 1, 1, 5, -55.21, 59.75, 1, 1, 5, -44.19, 3.07, 1, 1, 5, -33.65, -51.19, 1, 1, 5, 15.23, -63.39, 1, 1, 5, 146.7, -48.69, 1, 2, 6, -16.92, -38.06, 0.1697, 5, 195.9, -39.96, 0.8303, 2, 6, 6.79, -36.65, 0.6023, 5, 219.21, -35.43, 0.3977, 2, 6, 21.42, -35.98, 0.79751, 5, 229.06, -35.98, 0.20249, 1, 6, 34.64, -35.81, 1, 1, 6, 60.99, -37.53, 1, 1, 6, 239.4, -29.91, 1, 1, 6, 240.65, 2.76, 1, 2, 6, 58.53, 1.34, 0.99984, 5, 265.47, 9.06, 1.6E-4, 1, 6, 36.09, 0.78, 1, 1, 5, 211.72, 0.77, 1, 2, 6, -21.01, -1.28, 0.648, 5, 186.98, -4.04, 0.352, 1, 5, 140.94, -11.96, 1, 1, 5, 11.72, 4.01, 1, 2, 6, 18.74, 0.52, 0.744, 5, 226.38, 0.52, 0.256, 1, 6, 47.87, 59.36, 1, 1, 6, 23.14, 53.26, 1, 2, 6, 6.99, 51.17, 0.936, 5, 214.63, 51.17, 0.064, 2, 6, -12.4, 47.48, 0.78309, 5, 195.24, 47.48, 0.21691, 2, 6, -31.92, 41.86, 0.584, 5, 175.71, 41.86, 0.416, 2, 6, -75.84, 39.23, 0.01167, 5, 131.8, 39.23, 0.98833 ],
				"hull": 22
			}
		},
		"L-Eyebrow": {
			"L-Eyebrow": { "x": 1.2, "y": 42.68, "rotation": -92.54, "width": 51, "height": 19 }
		},
		"L-Hand": {
			"L-Hand": { "x": 95.24, "y": 17.81, "rotation": 102.81, "width": 150, "height": 221 }
		},
		"L-Leg": {
			"L-Leg": {
				"type": "mesh",
				"uvs": [ 0.11695, 1, 0.27044, 1, 0.39208, 1, 0.45295, 0.9613, 0.57226, 0.95779, 0.80435, 0.76127, 0.85774, 0.56428, 0.81518, 0.53123, 0.77432, 0.49951, 0.7543, 0.48024, 0.77432, 0.44169, 0.93116, 0.27575, 1, 0.13069, 1, 0.03112, 0.8177, 0, 0.43729, 0, 0.21037, 0.02363, 0, 0.07448, 0, 0.12266, 0, 0.27255, 0, 0.43548, 0.06355, 0.47724, 0.10025, 0.50186, 0.06643, 0.54561, 0.04686, 0.57092, 0.03685, 0.7603, 0.02684, 0.94953, 0.10359, 0.96345, 0.27378, 0.96077, 0.33718, 0.76003, 0.3467, 0.57437, 0.37434, 0.51308, 0.37434, 0.49903, 0.36996, 0.46073, 0.45539, 0.26819, 0.50357, 0.12308, 0.3589, 0.54733 ],
				"triangles": [ 31, 9, 8, 22, 21, 32, 31, 22, 32, 36, 22, 31, 23, 22, 36, 36, 31, 8, 30, 23, 36, 24, 23, 30, 30, 36, 7, 30, 7, 6, 29, 24, 30, 25, 24, 29, 5, 30, 6, 29, 30, 5, 4, 29, 5, 28, 25, 29, 3, 28, 29, 27, 26, 25, 4, 3, 29, 28, 27, 25, 0, 27, 28, 1, 0, 28, 2, 28, 3, 1, 28, 2, 36, 8, 7, 21, 20, 33, 32, 33, 9, 18, 17, 16, 35, 15, 14, 14, 13, 12, 35, 14, 12, 35, 16, 15, 34, 16, 35, 19, 18, 16, 19, 16, 34, 11, 35, 12, 34, 35, 11, 33, 20, 19, 10, 34, 11, 34, 33, 19, 33, 34, 10, 9, 33, 10, 21, 33, 32, 31, 32, 9 ],
				"vertices": [ 1, 15, 573.54, -28.73, 1, 1, 15, 572.62, -0.5, 1, 1, 15, 571.89, 21.87, 1, 1, 15, 527.17, 31.62, 1, 1, 15, 522.42, 53.43, 1, 1, 15, 295.74, 88.75, 1, 2, 14, 569.4, 90.03, 0.16, 15, 69.59, 91.2, 0.84, 2, 14, 531.92, 80.35, 0.272, 15, 31.96, 82.13, 0.728, 2, 14, 495.95, 71.06, 0.488, 15, -4.16, 73.43, 0.512, 2, 14, 474.05, 66.3, 0.912, 15, -26.13, 69.03, 0.088, 1, 14, 429.72, 67.81, 1, 1, 14, 238.19, 87.31, 1, 1, 14, 71.39, 91.81, 1, 1, 14, -42.68, 86.21, 1, 1, 14, -76.69, 50.96, 1, 1, 14, -73.26, -18.95, 1, 1, 14, -44.15, -59.33, 1, 1, 14, 16.01, -95.13, 1, 1, 14, 71.2, -92.42, 1, 1, 14, 242.92, -84, 1, 2, 14, 429.58, -74.84, 0.768, 15, -72.91, -71.36, 0.232, 2, 14, 476.84, -60.81, 0.328, 15, -25.42, -58.11, 0.672, 2, 14, 504.72, -52.68, 0.02577, 15, 2.58, -50.44, 0.97423, 1, 15, 52.94, -55.03, 1, 1, 15, 82.07, -57.68, 1, 1, 15, 299.23, -52.43, 1, 1, 15, 516.23, -47.19, 1, 1, 15, 531.73, -32.55, 1, 1, 15, 527.64, -1.35, 1, 1, 15, 297.13, 2.79, 1, 1, 15, 84.22, -2.41, 1, 1, 15, 13.8, 0.38, 1, 2, 14, 499.01, -2.47, 0.752, 15, -2.31, -0.14, 0.248, 2, 14, 455.17, -5.43, 0.95538, 15, -46.19, -2.38, 0.04462, 1, 14, 233.82, -0.55, 1, 1, 14, 67.15, 0.15, 1, 1, 15, 53.16, -1.17, 1 ],
				"hull": 28
			}
		},
		"L-Pupil": {
			"L-Pupil": { "x": 4.61, "y": -282.01, "rotation": -115.47, "width": 31, "height": 31 }
		},
		"L-Shoe": {
			"L-Shoe": { "x": 66.61, "y": -7.73, "rotation": 138.88, "width": 221, "height": 172 }
		},
		"Leye mask": {
			"Leye mask": {
				"type": "clipping",
				"end": "L-Pupil",
				"vertexCount": 21,
				"vertices": [ 15.51, -196.08, 16.48, -201.56, 16.84, -207.02, 16.28, -212.83, 14.91, -223.24, 11.47, -230.44, 7.2, -235.79, 0.36, -242.53, -3.58, -244.98, -12, -237.35, -12.44, -231.39, -12.93, -226.54, -12.6, -221.42, -11.26, -216.14, -8.84, -211.61, -6.32, -206.99, -4.38, -204.16, -1.44, -201.47, 1.77, -199.4, 5.39, -197.24, 8.56, -196.18 ]
			}
		},
		"Lip": {
			"Lip": { "x": 79.45, "y": 24.22, "rotation": -92.54, "width": 76, "height": 38 },
			"_0000_Mouth-Aw": { "x": 79.78, "y": 25.27, "rotation": 87.94, "width": 57, "height": 24 },
			"_0001_lip-sad": { "x": 80.62, "y": 23.71, "rotation": -87.73, "width": 63, "height": 20 },
			"_0002_lip-laugh": { "x": 77.05, "y": 27.43, "rotation": -98.98, "width": 73, "height": 46 }
		},
		"Puf": {
			"Puf": { "x": 145.01, "y": -7.46, "rotation": 150.44, "width": 393, "height": 240 }
		},
		"R-Arm": {
			"R-Arm": {
				"type": "mesh",
				"uvs": [ 0.74831, 1, 0.55935, 1, 0.45079, 0.94169, 0.43471, 0.85871, 0.36234, 0.75627, 0.2176, 0.68456, 0.16336, 0.54108, 0.14872, 0.50235, 0.13317, 0.46123, 0.1017, 0.41692, 0.08171, 0.38879, 0, 0.27376, 0, 0.10882, 0.16131, 0, 0.45077, 0, 0.75233, 0, 0.86491, 0.09551, 0.80862, 0.25634, 0.89492, 0.36751, 0.91391, 0.39197, 0.95336, 0.44279, 0.96523, 0.49935, 0.97164, 0.5299, 1, 0.66509, 1, 0.74295, 0.92924, 0.84539, 1, 0.93861, 1, 1, 0.71213, 0.94681, 0.65182, 0.85051, 0.63171, 0.74602, 0.58749, 0.66714, 0.52315, 0.45551, 0.53718, 0.50165, 0.47088, 0.40634, 0.54835, 0.53839, 0.4548, 0.37048, 0.37037, 0.2578, 0.39851, 0.10516 ],
				"triangles": [ 7, 8, 32, 38, 13, 14, 38, 14, 15, 38, 15, 16, 12, 13, 38, 17, 38, 16, 37, 12, 38, 37, 38, 17, 11, 12, 37, 36, 37, 17, 36, 17, 18, 10, 11, 37, 10, 37, 36, 34, 36, 18, 34, 18, 19, 9, 10, 36, 9, 36, 34, 32, 34, 19, 8, 9, 34, 8, 34, 32, 32, 19, 20, 7, 32, 33, 6, 7, 33, 33, 20, 21, 35, 33, 21, 35, 21, 22, 6, 33, 35, 31, 35, 22, 31, 22, 23, 5, 6, 35, 5, 35, 31, 30, 31, 23, 24, 30, 23, 4, 5, 31, 4, 31, 30, 25, 30, 24, 29, 30, 25, 3, 4, 30, 3, 30, 29, 2, 3, 29, 28, 29, 25, 2, 29, 28, 28, 25, 26, 1, 2, 28, 27, 0, 28, 1, 28, 0, 27, 28, 26, 33, 32, 20 ],
				"vertices": [ 1, 22, 306.85, 2.06, 1, 1, 22, 303.3, -25.3, 1, 1, 22, 268.12, -36.71, 1, 1, 22, 220.66, -32.9, 1, 1, 22, 161.09, -35.81, 1, 1, 22, 114.29, -29.74, 1, 1, 22, 43.35, -28.12, 1, 1, 22, 31.15, -28.09, 1, 1, 21, 216.97, -42.42, 1, 1, 21, 192.76, -42.4, 1, 1, 21, 178.62, -46.12, 1, 2, 22, -16.78, -122.11, 0.112, 21, 115.27, -47.62, 0.888, 2, 22, -63.78, -200.84, 0.056, 21, 23.58, -48.06, 0.944, 1, 21, -41.64, -35.26, 1, 1, 21, -40.43, 6.98, 1, 1, 21, -39.17, 50.99, 1, 1, 21, 16, 65.86, 1, 1, 21, 107.89, 55.01, 1, 1, 21, 171.92, 65.78, 1, 1, 21, 224.65, 68.17, 1, 2, 22, -38.92, 48.09, 0.672, 21, 249.55, 59.28, 0.328, 1, 22, 24, 69.96, 1, 2, 22, 43.7, 69.14, 0.9972, 21, 310.26, -0.58, 0.0028, 1, 22, 121.3, 63.25, 1, 1, 22, 165.54, 57.5, 1, 1, 22, 222.41, 39.68, 1, 1, 22, 276.72, 43.03, 1, 1, 22, 311.6, 38.5, 1, 1, 22, 275.95, 0.75, 1, 1, 22, 220.1, -0.86, 1, 1, 22, 160.34, 3.95, 1, 1, 22, 114.69, 3.38, 1, 2, 22, -11.67, -1.96, 0.352, 21, 220.77, 10.09, 0.648, 1, 22, 19.71, 8.33, 1, 1, 21, 194.57, 6.29, 1, 1, 22, 40.8, 7.23, 1, 2, 22, -29.7, -48.21, 0.00231, 21, 171.86, 1.62, 0.99769, 1, 21, 106.89, -8.97, 1, 1, 21, 19.58, -2.37, 1 ],
				"hull": 28
			}
		},
		"R-Eye": {
			"R-Eye": { "x": -0.07, "y": -3.46, "rotation": -92.54, "width": 93, "height": 49 }
		},
		"R-Eyebrow": {
			"R-Eyebrow": { "x": 4.77, "y": -73.58, "rotation": -92.54, "width": 109, "height": 30 }
		},
		"R-Hair": {
			"R-Hair": { "x": 295.53, "y": -6.41, "rotation": 82.68, "width": 300, "height": 686 }
		},
		"R-Hand": {
			"R-Hand": { "x": 102.52, "y": 25.6, "rotation": 89.59, "width": 148, "height": 225 }
		},
		"R-Leg": {
			"R-Leg": {
				"type": "mesh",
				"uvs": [ 0.70243, 1, 0.57745, 1, 0.53942, 0.96667, 0.48236, 0.9536, 0.42802, 0.84855, 0.31391, 0.69475, 0.27315, 0.59222, 0.28402, 0.54095, 0.28402, 0.52537, 0.24598, 0.50426, 0.19708, 0.47461, 0.12372, 0.4158, 0, 0.23084, 0, 0.04034, 0.30304, 0, 0.6481, 0, 0.8084, 0.03331, 0.86002, 0.23134, 0.81927, 0.4168, 0.81927, 0.44545, 0.81927, 0.47008, 0.86817, 0.50225, 0.88447, 0.5314, 1, 0.68168, 1, 0.85006, 0.93881, 0.95511, 0.85459, 0.96767, 0.82198, 1, 0.70438, 0.96873, 0.69858, 0.94905, 0.68891, 0.84959, 0.62896, 0.68985, 0.55596, 0.58872, 0.51535, 0.51144, 0.53401, 0.54695, 0.50568, 0.49213, 0.49408, 0.46279, 0.49408, 0.42451, 0.42704, 0.22668, 0.33284, 0.05447 ],
				"triangles": [ 33, 20, 21, 7, 8, 33, 34, 33, 21, 7, 33, 34, 32, 34, 22, 6, 7, 34, 6, 34, 32, 31, 32, 22, 31, 22, 23, 5, 6, 32, 5, 32, 31, 4, 5, 31, 30, 31, 23, 4, 31, 30, 30, 23, 24, 25, 29, 30, 3, 4, 30, 3, 30, 29, 24, 25, 30, 2, 3, 29, 26, 29, 25, 28, 29, 26, 2, 29, 28, 1, 2, 28, 0, 1, 28, 27, 28, 26, 0, 28, 27, 34, 21, 22, 39, 14, 15, 13, 14, 39, 39, 15, 16, 38, 39, 16, 12, 13, 39, 12, 39, 38, 38, 16, 17, 11, 12, 38, 17, 37, 38, 18, 37, 17, 11, 38, 37, 37, 18, 19, 37, 10, 11, 36, 37, 19, 35, 36, 19, 36, 10, 37, 20, 35, 19, 9, 10, 36, 9, 36, 35, 33, 35, 20, 8, 9, 35, 8, 35, 33 ],
				"vertices": [ 1, 27, 562.3, -3.35, 1, 1, 27, 560.24, -29.77, 1, 1, 27, 521.53, -34.84, 1, 1, 27, 505.66, -45.73, 1, 1, 27, 384.75, -47.86, 1, 1, 27, 207.14, -58.27, 1, 1, 27, 89.32, -57.75, 1, 1, 27, 30.93, -50.88, 1, 2, 26, 533.81, -49.11, 0.68971, 27, 13.12, -49.49, 0.31029, 1, 26, 509.25, -55.95, 1, 1, 26, 474.79, -64.61, 1, 1, 26, 406.7, -76.76, 1, 1, 26, 193.69, -92.34, 1, 1, 26, -24.34, -81.41, 1, 1, 26, -67.3, -14.93, 1, 1, 26, -63.64, 58.13, 1, 1, 26, -23.81, 90.16, 1, 1, 26, 203.39, 89.72, 1, 1, 26, 415.24, 70.45, 1, 2, 26, 448.03, 68.8, 0.98865, 27, -69.36, 70.75, 0.01135, 1, 26, 476.22, 67.39, 1, 1, 27, -3.66, 76.03, 1, 2, 26, 547.09, 77.68, 0.112, 27, 29.91, 76.88, 0.888, 1, 27, 203.52, 87.9, 1, 1, 27, 395.9, 72.9, 1, 1, 27, 514.91, 50.61, 1, 1, 27, 527.88, 31.69, 1, 1, 27, 564.27, 21.91, 1, 1, 27, 526.61, -0.15, 1, 1, 27, 504.03, 0.37, 1, 1, 27, 390.23, 7.19, 1, 1, 27, 206.74, 8.75, 1, 1, 27, 89.99, 2.34, 1, 2, 26, 520.33, 0.67, 0.45576, 27, 1.02, 0.64, 0.54424, 1, 27, 41.9, 1.42, 1, 1, 26, 498.12, -0.27, 1, 1, 26, 464.42, -1.04, 1, 1, 26, 420.6, 1.15, 1, 1, 26, 193.46, -1.69, 1, 1, 26, -4.64, -11.75, 1 ],
				"hull": 28
			}
		},
		"R-Pupil": {
			"R-Pupil": { "x": 2.18, "y": -390.61, "rotation": -92.54, "width": 38, "height": 40 }
		},
		"R-Shoe": {
			"R-Shoe": { "x": 64.94, "y": -2.8, "rotation": 135, "width": 224, "height": 184 }
		},
		"REye mask": {
			"REye mask": {
				"type": "clipping",
				"end": "R-Pupil",
				"vertexCount": 32,
				"vertices": [ -2.91, -292.95, 2.21, -296.65, 7.6, -301.27, 9.92, -303.34, 12.51, -306.32, 18.08, -313.52, 20.23, -316.18, 21.8, -321.54, 22.48, -326.55, 22.53, -335.62, 21.78, -342.38, 20.01, -348.19, 18.79, -351.76, 15.57, -359.77, 13.07, -364.95, 12.06, -367.32, 8.24, -364.89, 4.27, -362.59, 0.5, -358.95, -1.81, -356.59, -5.54, -352.04, -8.35, -347.38, -10.57, -343.06, -12.05, -338.91, -13.22, -334.63, -14.03, -329.16, -14.34, -322.35, -14.44, -317.81, -13.69, -314.52, -11.72, -307.66, -10.22, -304.56, -5.32, -296.32 ]
			}
		},
		"Torso": {
			"Torso": {
				"type": "mesh",
				"uvs": [ 0.06424, 1, 0.37904, 1, 0.86141, 0.92993, 0.85972, 0.87356, 0.72262, 0.69773, 0.69385, 0.63196, 0.74124, 0.53666, 0.78755, 0.4477, 0.85688, 0.31452, 0.89357, 0.24406, 0.96634, 0.12997, 0.96127, 0.09776, 0.69554, 0, 0.53476, 0, 0.27242, 0.03593, 0.09809, 0.11512, 0.08624, 0.17955, 0.07101, 0.26008, 0, 0.32853, 0, 0.47484, 0.08286, 0.60503, 0.07947, 0.68959, 0.0727, 0.75804, 0.34181, 0.74596, 0.32827, 0.68524, 0.33504, 0.6074, 0.32319, 0.46915, 0.37397, 0.2657, 0.36133, 0.31632 ],
				"triangles": [ 20, 26, 25, 20, 19, 26, 6, 26, 7, 19, 18, 26, 26, 28, 7, 26, 18, 28, 28, 27, 7, 7, 27, 8, 18, 17, 28, 28, 17, 27, 8, 27, 9, 10, 9, 27, 27, 13, 12, 17, 16, 27, 27, 16, 14, 16, 15, 14, 27, 14, 13, 11, 10, 12, 12, 10, 27, 1, 0, 23, 0, 22, 23, 2, 4, 3, 2, 1, 4, 1, 23, 4, 22, 24, 23, 22, 21, 24, 23, 5, 4, 23, 24, 5, 21, 20, 24, 24, 25, 5, 24, 20, 25, 5, 25, 6, 25, 26, 6 ],
				"vertices": [ 2, 2, -35.08, 113.51, 0.99257, 3, -229.6, 12.32, 0.00743, 1, 2, -52.19, -7.11, 1, 1, 2, -44.54, -196.74, 1, 1, 2, -17.21, -199.95, 1, 2, 2, 75.2, -159.47, 0.94181, 3, -10.25, -184.06, 0.05819, 2, 2, 108.54, -152.95, 0.81224, 3, 16.8, -163.51, 0.18776, 2, 2, 152.01, -177.64, 0.52568, 3, 66.7, -166.5, 0.47432, 2, 2, 192.47, -201.48, 0.30149, 3, 113.53, -170.05, 0.69851, 2, 2, 253.05, -237.16, 0.09694, 3, 183.64, -175.37, 0.90306, 2, 2, 285.11, -256.05, 0.04252, 3, 220.74, -178.18, 0.95748, 2, 2, 336.28, -291.75, 0.00752, 3, 282.4, -187.66, 0.99248, 2, 2, 352.12, -292.01, 0.00627, 3, 296.74, -180.91, 0.99373, 1, 3, 310.15, -68.35, 1, 1, 3, 290.82, -9.2, 1, 1, 3, 242.62, 81.86, 1, 1, 3, 184.93, 133.99, 1, 1, 3, 153.63, 128.58, 1, 1, 3, 114.44, 121.98, 1, 1, 3, 74.15, 137.72, 1, 1, 3, 6.29, 115.55, 1, 2, 2, 154.74, 79.32, 0.08895, 3, -44.15, 65.34, 0.91105, 2, 2, 114.07, 86.41, 0.47515, 3, -83.78, 53.77, 0.52485, 2, 2, 81.36, 93.69, 0.72926, 3, -116.35, 45.88, 0.27074, 1, 2, 72.58, -10.25, 1, 1, 2, 102.65, -9.22, 1, 1, 2, 139.9, -17.15, 1, 2, 2, 207.34, -22.08, 0.01339, 3, 47.77, -2.48, 0.98661, 1, 3, 148.24, 9.68, 1, 1, 3, 123.25, 6.65, 1 ],
				"hull": 23
			}
		},
		"hair back": {
			"hair back": { "x": 294.28, "y": -31.79, "rotation": 85.29, "width": 275, "height": 654 }
		},
		"l_Eye": {
			"l_Eye": { "x": 4.49, "y": 3.81, "rotation": -92.54, "width": 71, "height": 49 }
		},
		"mask table": {
			"mask table": {
				"type": "clipping",
				"end": "Torso",
				"vertexCount": 6,
				"vertices": [ 511.53, 1333.16, -734.67, 1335.17, -664.32, 1871.84, -315.91, 2231.99, 337.86, 2243.12, 693.95, 1789.65 ]
			}
		},
		"money": {
			"1": { "type": "point", "color": "f0f10000" },
			"_0003_money": { "x": 23.46, "y": 68.04, "rotation": 109.49, "width": 145, "height": 127 }
		}
	}
},
"animations": {
	"1.2": {
		"slots": {
			"money": {
				"color": [
					{ "time": 0, "color": "ffffffff" }
				],
				"attachment": [
					{ "time": 0, "name": "_0003_money" }
				]
			}
		},
		"bones": {
			"R LEg": {
				"rotate": [
					{
						"time": 0,
						"angle": 5.91,
						"curve": [ 0.25, 0, 0.75, 1 ]
					},
					{
						"time": 1.8,
						"angle": 37,
						"curve": [ 0.25, 0, 0.75, 1 ]
					},
					{ "time": 2.5667, "angle": 5.91, "curve": "stepped" },
					{ "time": 4.3333, "angle": 5.91 }
				],
				"translate": [
					{
						"time": 0,
						"x": -3.22,
						"y": 36.58,
						"curve": [ 0.25, 0, 0.75, 1 ]
					},
					{
						"time": 1.8,
						"x": -12.09,
						"y": 92.64,
						"curve": [ 0.25, 0, 0.75, 1 ]
					},
					{ "time": 2.5667, "x": -3.22, "y": 36.58, "curve": "stepped" },
					{ "time": 4.3333, "x": -3.22, "y": 36.58 }
				]
			},
			"L Leg": {
				"rotate": [
					{ "time": 0, "angle": -0.36, "curve": "stepped" },
					{
						"time": 2.8,
						"angle": -0.36,
						"curve": [ 0.25, 0, 0.75, 1 ]
					},
					{
						"time": 3.3333,
						"angle": -1.85,
						"curve": [ 0.25, 0, 0.75, 1 ]
					},
					{ "time": 4.3333, "angle": -0.36 }
				],
				"translate": [
					{ "time": 0, "x": -54.27, "y": 1.96, "curve": "stepped" },
					{
						"time": 2.8,
						"x": -54.27,
						"y": 1.96,
						"curve": [ 0.25, 0, 0.75, 1 ]
					},
					{
						"time": 3.3333,
						"x": -56.15,
						"y": -1.66,
						"curve": [ 0.25, 0, 0.75, 1 ]
					},
					{ "time": 4.3333, "x": -54.27, "y": 1.96 }
				]
			},
			"Hip": {
				"rotate": [
					{
						"time": 0,
						"angle": 18.83,
						"curve": [ 0.25, 0, 0.75, 1 ]
					},
					{
						"time": 1.8,
						"angle": 23.51,
						"curve": [ 0.25, 0, 0.75, 1 ]
					},
					{
						"time": 2.5667,
						"angle": 13.58,
						"curve": [ 0.25, 0, 0.75, 1 ]
					},
					{ "time": 4.3333, "angle": 18.83 }
				],
				"translate": [
					{
						"time": 0,
						"x": -56.13,
						"y": 8.89,
						"curve": [ 0.25, 0, 0.75, 1 ]
					},
					{
						"time": 1.0333,
						"x": -90.96,
						"y": -36.62,
						"curve": [ 0.25, 0, 0.75, 1 ]
					},
					{
						"time": 1.8,
						"x": -149.96,
						"y": 9.5,
						"curve": [ 0.25, 0, 0.75, 1 ]
					},
					{
						"time": 2.5667,
						"x": -95,
						"y": -33.52,
						"curve": [ 0.25, 0, 0.75, 1 ]
					},
					{
						"time": 2.8,
						"x": -91.47,
						"y": -8.78,
						"curve": [ 0.25, 0, 0.75, 1 ]
					},
					{
						"time": 3.3333,
						"x": -95,
						"y": -33.52,
						"curve": [ 0.25, 0, 0.75, 1 ]
					},
					{ "time": 4.3333, "x": -56.13, "y": 8.89 }
				]
			},
			"Torso": {
				"rotate": [
					{ "time": 0, "angle": -12.49, "curve": "stepped" },
					{ "time": 1.8, "angle": -12.49, "curve": "stepped" },
					{ "time": 2.5667, "angle": -12.49, "curve": "stepped" },
					{ "time": 4.3333, "angle": -12.49 }
				]
			},
			"R hand": {
				"rotate": [
					{
						"time": 0,
						"angle": -29.09,
						"curve": [ 0.25, 0, 0.75, 1 ]
					},
					{
						"time": 1.8,
						"angle": -42.97,
						"curve": [ 0.25, 0, 0.75, 1 ]
					},
					{ "time": 2.5667, "angle": -29.09, "curve": "stepped" },
					{ "time": 4.3333, "angle": -29.09 }
				],
				"translate": [
					{
						"time": 0,
						"x": -80.83,
						"y": 159.06,
						"curve": [ 0.247, 0, 0.631, 0.53 ]
					},
					{
						"time": 1,
						"x": -107.2,
						"y": 105.76,
						"curve": [ 0.379, 0.53, 0.746, 1 ]
					},
					{
						"time": 1.8,
						"x": -46.01,
						"y": 90.93,
						"curve": [ 0.25, 0, 0.75, 1 ]
					},
					{ "time": 2.5667, "x": -120.98, "y": 70.25 },
					{ "time": 4.3333, "x": -80.83, "y": 159.06 }
				]
			},
			"R-Hand": {
				"rotate": [
					{ "time": 0, "angle": 55.02 },
					{
						"time": 1,
						"angle": 44.41,
						"curve": [ 0.379, 0.53, 0.746, 1 ]
					},
					{
						"time": 1.8,
						"angle": 34.19,
						"curve": [ 0.25, 0, 0.75, 1 ]
					},
					{ "time": 2.5667, "angle": 79.64 },
					{ "time": 4.3333, "angle": 55.02 }
				]
			},
			"Head": {
				"rotate": [
					{
						"time": 0,
						"angle": -5.32,
						"curve": [ 0.25, 0, 0.75, 1 ]
					},
					{
						"time": 1.8,
						"angle": -7.46,
						"curve": [ 0.25, 0, 0.75, 1 ]
					},
					{
						"time": 2.5667,
						"angle": 2.9,
						"curve": [ 0.25, 0, 0.75, 1 ]
					},
					{ "time": 4.3333, "angle": -5.32 }
				]
			},
			"Pupil": {
				"translate": [
					{ "time": 0, "x": 4.67, "y": 2.37 },
					{ "time": 1.8, "x": -6.42, "y": 10.45 },
					{ "time": 2.5667, "x": 4.67, "y": 2.37, "curve": "stepped" },
					{ "time": 3, "x": 4.67, "y": 2.37 },
					{ "time": 3.1667, "x": -0.21, "y": -5.59, "curve": "stepped" },
					{ "time": 3.6667, "x": -0.21, "y": -5.59 },
					{ "time": 3.8333, "x": 4.67, "y": 2.37, "curve": "stepped" },
					{ "time": 4.3333, "x": 4.67, "y": 2.37 }
				]
			},
			"Eye blink": {
				"scale": [
					{ "time": 1.1, "x": 1, "y": 1 },
					{ "time": 1.2, "x": 0.276, "y": 1 },
					{ "time": 1.3333, "x": 1, "y": 1, "curve": "stepped" },
					{ "time": 2.0667, "x": 1, "y": 1 },
					{ "time": 2.1667, "x": 0.276, "y": 1 },
					{ "time": 2.3, "x": 1, "y": 1, "curve": "stepped" },
					{ "time": 3.5667, "x": 1, "y": 1 },
					{ "time": 3.6667, "x": 0.276, "y": 1 },
					{ "time": 3.8, "x": 1, "y": 1 }
				]
			},
			"Puf": {
				"rotate": [
					{
						"time": 0,
						"angle": -0.02,
						"curve": [ 0.297, 0.65, 0.628, 1 ]
					},
					{
						"time": 0.0667,
						"angle": 0,
						"curve": [ 0.65, 0, 0.432, 1 ]
					},
					{
						"time": 1.0667,
						"angle": -2.24,
						"curve": [ 0.083, 0.12, 0.618, 1.01 ]
					},
					{
						"time": 1.5,
						"angle": 4.63,
						"curve": [ 0.65, 0, 0.432, 1 ]
					},
					{ "time": 2.5, "angle": -7.32 },
					{
						"time": 2.8667,
						"angle": 2.29,
						"curve": [ 0.65, 0, 0.432, 1 ]
					},
					{
						"time": 3.3667,
						"angle": -1.48,
						"curve": [ 0.681, 0, 0.526, 0.86 ]
					},
					{ "time": 4.3333, "angle": -0.02 }
				]
			},
			"R-Hair": {
				"rotate": [
					{
						"time": 0,
						"angle": 0,
						"curve": [ 0.25, 0, 0.75, 1 ]
					},
					{
						"time": 1.8,
						"angle": 5.46,
						"curve": [ 0.359, -0.01, 0.618, 1.01 ]
					},
					{
						"time": 2.5667,
						"angle": -3.44,
						"curve": [ 0.359, -0.01, 0.618, 1.01 ]
					},
					{
						"time": 3.5,
						"angle": -0.73,
						"curve": [ 0.359, -0.01, 0.618, 1.01 ]
					},
					{ "time": 4.3333, "angle": 0 }
				]
			},
			"Hair L": {
				"rotate": [
					{
						"time": 0,
						"angle": -1.82,
						"curve": [ 0.29, 0.64, 0.62, 1 ]
					},
					{
						"time": 0.1667,
						"angle": -1.78,
						"curve": [ 0.359, -0.01, 0.618, 1.01 ]
					},
					{
						"time": 1.9667,
						"angle": 5.04,
						"curve": [ 0.65, 0, 0.432, 1 ]
					},
					{
						"time": 2.7333,
						"angle": -3.76,
						"curve": [ 0.685, 0, 0.542, 0.84 ]
					},
					{ "time": 4.3333, "angle": -1.82 }
				]
			},
			"L hand": {
				"translate": [
					{
						"time": 0,
						"x": -187.96,
						"y": 23.08,
						"curve": [ 0.235, 0.46, 0.366, 1 ]
					},
					{
						"time": 0.6667,
						"x": -137.27,
						"y": 931.79,
						"curve": [ 0.288, 0.37, 0.565, 0.74 ]
					},
					{
						"time": 0.9333,
						"x": -137.27,
						"y": 876.8,
						"curve": [ 0.235, 0.61, 0.545, 1 ]
					},
					{
						"time": 1.1667,
						"x": -137.27,
						"y": 931.79,
						"curve": [ 0.325, 0.34, 0.645, 0.68 ]
					},
					{
						"time": 1.3333,
						"x": -143.74,
						"y": 886.5,
						"curve": [ 0.201, 0.56, 0.463, 1 ]
					},
					{
						"time": 1.8333,
						"x": -137.27,
						"y": 931.79,
						"curve": [ 0.332, 0.34, 0.66, 0.67 ]
					},
					{
						"time": 1.9667,
						"x": -394.97,
						"y": 644.79,
						"curve": [ 0.306, 0.35, 0.628, 0.69 ]
					},
					{
						"time": 2.1667,
						"x": -374.57,
						"y": 279.94,
						"curve": [ 0.213, 0.58, 0.502, 1 ]
					},
					{ "time": 2.7, "x": -187.96, "y": 23.08, "curve": "stepped" },
					{ "time": 4.3333, "x": -187.96, "y": 23.08 }
				]
			},
			"L-Hand": {
				"rotate": [
					{
						"time": 0,
						"angle": 6.79,
						"curve": [ 0.279, 0, 0.622, 0.39 ]
					},
					{
						"time": 1,
						"angle": -24.74,
						"curve": [ 0.31, 0.26, 0.657, 0.64 ]
					},
					{
						"time": 2.3,
						"angle": 31.96,
						"curve": [ 0.346, 0.38, 0.689, 0.74 ]
					},
					{
						"time": 3.3667,
						"angle": -34.99,
						"curve": [ 0.377, 0.61, 0.72, 1 ]
					},
					{ "time": 4.3333, "angle": 6.79 }
				]
			}
		}
	},
	"1.6": {
		"slots": {
			"Lip": {
				"attachment": [
					{ "time": 0, "name": "_0002_lip-laugh" }
				]
			},
			"money": {
				"attachment": [
					{ "time": 0, "name": "1" },
					{ "time": 2.1667, "name": "1" },
					{ "time": 4.3333, "name": "1" }
				]
			}
		},
		"bones": {
			"L hand": {
				"translate": [
					{
						"time": 0,
						"x": 142.47,
						"y": 758.07,
						"curve": [ 0.266, 0, 0.7, 1 ]
					},
					{
						"time": 1.5,
						"x": 141.01,
						"y": 733.31,
						"curve": [ 0.266, 0, 0.7, 1 ]
					},
					{
						"time": 2.1667,
						"x": 142.47,
						"y": 758.07,
						"curve": [ 0.266, 0, 0.7, 1 ]
					},
					{
						"time": 3.6667,
						"x": 141.01,
						"y": 733.31,
						"curve": [ 0.266, 0, 0.7, 1 ]
					},
					{
						"time": 4.3333,
						"x": 142.47,
						"y": 758.07,
						"curve": [ 0.266, 0, 0.7, 1 ]
					},
					{
						"time": 5.8333,
						"x": 141.01,
						"y": 733.31,
						"curve": [ 0.266, 0, 0.7, 1 ]
					},
					{ "time": 6.5, "x": 142.47, "y": 758.07 }
				]
			},
			"R-Hair": {
				"rotate": [
					{
						"time": 0,
						"angle": 11.49,
						"curve": [ 0.25, 0, 0.75, 1 ]
					},
					{
						"time": 1.1,
						"angle": 6.8,
						"curve": [ 0.25, 0, 0.75, 1 ]
					},
					{
						"time": 2.1667,
						"angle": 11.49,
						"curve": [ 0.25, 0, 0.75, 1 ]
					},
					{
						"time": 3.2667,
						"angle": 6.8,
						"curve": [ 0.25, 0, 0.75, 1 ]
					},
					{
						"time": 4.3333,
						"angle": 11.49,
						"curve": [ 0.25, 0, 0.75, 1 ]
					},
					{
						"time": 5.4333,
						"angle": 6.8,
						"curve": [ 0.25, 0, 0.75, 1 ]
					},
					{ "time": 6.5, "angle": 11.49 }
				]
			},
			"hair back": {
				"rotate": [
					{ "time": 0, "angle": 6.66, "curve": "stepped" },
					{ "time": 2.1667, "angle": 6.66, "curve": "stepped" },
					{ "time": 4.3333, "angle": 6.66 }
				]
			},
			"Hair L": {
				"rotate": [
					{
						"time": 0,
						"angle": 9.51,
						"curve": [ 0.266, 0, 0.7, 1 ]
					},
					{
						"time": 0.8333,
						"angle": 5.47,
						"curve": [ 0.266, 0, 0.7, 1 ]
					},
					{
						"time": 2.1667,
						"angle": 9.51,
						"curve": [ 0.266, 0, 0.7, 1 ]
					},
					{
						"time": 3,
						"angle": 5.47,
						"curve": [ 0.266, 0, 0.7, 1 ]
					},
					{
						"time": 4.3333,
						"angle": 9.51,
						"curve": [ 0.266, 0, 0.7, 1 ]
					},
					{
						"time": 5.1667,
						"angle": 5.47,
						"curve": [ 0.266, 0, 0.7, 1 ]
					},
					{ "time": 6.5, "angle": 9.51 }
				]
			},
			"Eye blink": {
				"scale": [
					{ "time": 0, "x": 0.482, "y": 1 },
					{
						"time": 1,
						"x": 0.549,
						"y": 1,
						"curve": [ 0.403, 0, 0.73, 0.37 ]
					},
					{
						"time": 1.1667,
						"x": 0.141,
						"y": 1,
						"curve": [ 0.407, 0.24, 0.73, 0.59 ]
					},
					{
						"time": 1.3333,
						"x": 0.556,
						"y": 1,
						"curve": [ 0.335, 0.36, 0.343, 1 ]
					},
					{ "time": 2.1667, "x": 0.626, "y": 1 },
					{
						"time": 3.1667,
						"x": 0.667,
						"y": 1.007,
						"curve": [ 0.403, 0, 0.73, 0.37 ]
					},
					{
						"time": 3.3333,
						"x": 0.054,
						"y": 1.007,
						"curve": [ 0.485, 0.22, 0.368, 1 ]
					},
					{
						"time": 3.5,
						"x": 0.667,
						"y": 1.007,
						"curve": [ 0.403, 0, 0.73, 0.37 ]
					},
					{ "time": 4.3333, "x": 0.705, "y": 1 },
					{ "time": 6.5, "x": 0.482, "y": 1 }
				]
			},
			"Pupil": {
				"translate": [
					{ "time": 0, "x": -0.66, "y": 6.7, "curve": "stepped" },
					{ "time": 2.1667, "x": -0.66, "y": 6.7, "curve": "stepped" },
					{ "time": 4.3333, "x": -0.66, "y": 6.7 }
				]
			},
			"Puf": {
				"rotate": [
					{
						"time": 0,
						"angle": 0,
						"curve": [ 0.25, 0, 0.75, 1 ]
					},
					{
						"time": 1.0333,
						"angle": -6.01,
						"curve": [ 0.25, 0, 0.75, 1 ]
					},
					{
						"time": 2.1667,
						"angle": 0,
						"curve": [ 0.25, 0, 0.75, 1 ]
					},
					{
						"time": 3.2,
						"angle": -6.01,
						"curve": [ 0.25, 0, 0.75, 1 ]
					},
					{
						"time": 4.3333,
						"angle": 0,
						"curve": [ 0.25, 0, 0.75, 1 ]
					},
					{
						"time": 5.3667,
						"angle": -6.01,
						"curve": [ 0.25, 0, 0.75, 1 ]
					},
					{ "time": 6.5, "angle": 0 }
				]
			},
			"Acessorie": {
				"rotate": [
					{ "time": 0, "angle": 7.65, "curve": "stepped" },
					{ "time": 2.1667, "angle": 7.65, "curve": "stepped" },
					{ "time": 4.3333, "angle": 7.65 }
				]
			},
			"Eyebrows": {
				"translate": [
					{
						"time": 1.5,
						"x": 0,
						"y": 0,
						"curve": [ 0.65, 0, 0.432, 1 ]
					},
					{ "time": 2.1667, "x": 6.83, "y": -3.8, "curve": "stepped" },
					{
						"time": 5.1667,
						"x": 6.83,
						"y": -3.8,
						"curve": [ 0.65, 0, 0.432, 1 ]
					},
					{ "time": 5.8333, "x": 0, "y": 0 }
				]
			},
			"Torso2": {
				"rotate": [
					{
						"time": 0,
						"angle": 0,
						"curve": [ 0.618, 0, 0.815, 0.51 ]
					},
					{
						"time": 2.3,
						"angle": -4.11,
						"curve": [ 0.206, 0.51, 0.4, 1 ]
					},
					{
						"time": 4.5,
						"angle": 2.59,
						"curve": [ 0.65, 0, 0.432, 1 ]
					},
					{ "time": 6.5, "angle": 0 }
				]
			},
			"R LEg": {
				"rotate": [
					{ "time": 1.3333, "angle": -0.2 }
				],
				"translate": [
					{
						"time": 0,
						"x": 0,
						"y": 0,
						"curve": [ 0.701, 0, 0.7, 0.67 ]
					},
					{
						"time": 0.7667,
						"x": 46.67,
						"y": 37.2,
						"curve": [ 0.229, 0.6, 0.534, 1 ]
					},
					{ "time": 1.3333, "x": 66.42, "y": 0, "curve": "stepped" },
					{
						"time": 4.3333,
						"x": 66.42,
						"y": 0,
						"curve": [ 0.513, 0, 0.798, 0.43 ]
					},
					{
						"time": 4.6667,
						"x": 51.56,
						"y": 29.23,
						"curve": [ 0.294, 0.4, 0.345, 1 ]
					},
					{ "time": 5.3333, "x": 0, "y": 0, "curve": "stepped" },
					{ "time": 6.5, "x": 0, "y": 0 }
				]
			},
			"Hip": {
				"rotate": [
					{
						"time": 0,
						"angle": 0,
						"curve": [ 0.65, 0, 0.432, 1 ]
					},
					{
						"time": 0.7667,
						"angle": -1.78,
						"curve": [ 0.65, 0, 0.432, 1 ]
					},
					{
						"time": 2.6667,
						"angle": 2.03,
						"curve": [ 0.658, 0, 0.795, 0.55 ]
					},
					{ "time": 6.5, "angle": 0 }
				]
			},
			"R-Hand": {
				"rotate": [
					{ "time": 0, "angle": -32.95 }
				]
			},
			"R hand": {
				"translate": [
					{
						"time": 0,
						"x": -93.39,
						"y": 590.62,
						"curve": [ 0.25, 0, 0.75, 1 ]
					},
					{
						"time": 1.3333,
						"x": -128.72,
						"y": 593.14,
						"curve": [ 0.25, 0, 0.75, 1 ]
					},
					{
						"time": 2.3333,
						"x": -104.75,
						"y": 589.35,
						"curve": [ 0.25, 0, 0.75, 1 ]
					},
					{ "time": 6.5, "x": -93.39, "y": 590.62 }
				]
			}
		},
		"drawOrder": [
			{ "time": 0 }
		]
	},
	"cafateria 2.1": {
		"bones": {
			"L Leg": {
				"translate": [
					{ "time": 0, "x": -283.53, "y": 483.46, "curve": "stepped" },
					{ "time": 3.3333, "x": -283.53, "y": 483.46, "curve": "stepped" },
					{ "time": 6.6667, "x": -283.53, "y": 483.46 }
				]
			},
			"R LEg": {
				"translate": [
					{ "time": 0, "x": -43.62, "y": 443.47, "curve": "stepped" },
					{ "time": 3.3333, "x": -43.62, "y": 443.47, "curve": "stepped" },
					{ "time": 6.6667, "x": -43.62, "y": 443.47 }
				]
			},
			"L hand": {
				"translate": [
					{ "time": 0, "x": -223.39, "y": 121.59, "curve": "stepped" },
					{ "time": 3.3333, "x": -223.39, "y": 121.59, "curve": "stepped" },
					{ "time": 6.6667, "x": -223.39, "y": 121.59 }
				]
			},
			"R hand": {
				"rotate": [
					{ "time": 0, "angle": 0, "curve": "stepped" },
					{ "time": 3.3333, "angle": 0, "curve": "stepped" },
					{ "time": 6.6667, "angle": 0 }
				],
				"translate": [
					{ "time": 0, "x": 97.46, "y": 37.88, "curve": "stepped" },
					{ "time": 1.6667, "x": 97.46, "y": 37.88 },
					{ "time": 2, "x": 146.92, "y": 285.2 },
					{ "time": 4.0333, "x": 134.1, "y": 285.2 },
					{ "time": 4.6667, "x": 146.92, "y": 285.2 },
					{ "time": 5, "x": 97.46, "y": 39.67 },
					{ "time": 6.6667, "x": 97.46, "y": 37.88 }
				]
			},
			"Pupil": {
				"translate": [
					{ "time": 0, "x": -9.66, "y": -8.84, "curve": "stepped" },
					{ "time": 1.6667, "x": -9.66, "y": -8.84 },
					{ "time": 2, "x": 3.14, "y": 3.74, "curve": "stepped" },
					{ "time": 3.3333, "x": 3.14, "y": 3.74 },
					{ "time": 3.6667, "x": -9.66, "y": -8.84, "curve": "stepped" },
					{ "time": 5.6667, "x": -9.66, "y": -8.84 },
					{ "time": 6, "x": -7.65, "y": 1.17 },
					{ "time": 6.6667, "x": -9.66, "y": -8.84 }
				]
			},
			"Head": {
				"rotate": [
					{ "time": 0, "angle": 19.46, "curve": "stepped" },
					{ "time": 1.3333, "angle": 19.46 },
					{ "time": 1.6667, "angle": 13.63 },
					{ "time": 3.3333, "angle": 15.95 },
					{ "time": 3.6667, "angle": 19.46, "curve": "stepped" },
					{ "time": 6.6667, "angle": 19.46 }
				]
			},
			"Torso2": {
				"rotate": [
					{ "time": 0, "angle": -1.14 },
					{ "time": 1.6667, "angle": -7.05 },
					{ "time": 3.3333, "angle": -8.56 },
					{ "time": 5, "angle": -7.05 },
					{ "time": 6.6667, "angle": -1.14 }
				]
			},
			"R-Hair": {
				"rotate": [
					{ "time": 0, "angle": 349.81, "curve": "stepped" },
					{ "time": 3.3333, "angle": 349.81, "curve": "stepped" },
					{ "time": 6.6667, "angle": 349.81 }
				],
				"scale": [
					{ "time": 0, "x": 0.845, "y": 0.845, "curve": "stepped" },
					{ "time": 3.3333, "x": 0.845, "y": 0.845, "curve": "stepped" },
					{ "time": 6.6667, "x": 0.845, "y": 0.845 }
				]
			},
			"Hair L": {
				"rotate": [
					{ "time": 0, "angle": -9.13, "curve": "stepped" },
					{ "time": 3.3333, "angle": -9.13, "curve": "stepped" },
					{ "time": 6.6667, "angle": -9.13 }
				]
			},
			"hair back": {
				"rotate": [
					{ "time": 0, "angle": 347.7, "curve": "stepped" },
					{ "time": 3.3333, "angle": 347.7, "curve": "stepped" },
					{ "time": 6.6667, "angle": 347.7 }
				]
			},
			"Puf": {
				"rotate": [
					{ "time": 0, "angle": -1.2, "curve": "stepped" },
					{ "time": 3.3333, "angle": -1.2, "curve": "stepped" },
					{ "time": 6.6667, "angle": -1.2 }
				]
			},
			"R-Hand": {
				"rotate": [
					{ "time": 0, "angle": 0, "curve": "stepped" },
					{ "time": 0.3, "angle": 0 },
					{ "time": 0.6667, "angle": -7.89 },
					{ "time": 0.9667, "angle": 0, "curve": "stepped" },
					{ "time": 1, "angle": 0 },
					{ "time": 1.3667, "angle": -7.89 },
					{ "time": 1.6667, "angle": 0 },
					{ "time": 2.0333, "angle": 73.2, "curve": "stepped" },
					{ "time": 4.1667, "angle": 73.2 },
					{ "time": 4.4333, "angle": 39.74 },
					{ "time": 4.9667, "angle": -20.07 },
					{ "time": 5.3333, "angle": 0 }
				]
			},
			"Eye blink": {
				"scale": [
					{ "time": 1.5, "x": 1, "y": 1 },
					{ "time": 1.6667, "x": 0.214, "y": 1 },
					{ "time": 1.8333, "x": 1, "y": 1, "curve": "stepped" },
					{ "time": 3.6667, "x": 1, "y": 1 },
					{ "time": 3.8333, "x": 0.214, "y": 1 },
					{ "time": 4, "x": 1, "y": 1, "curve": "stepped" },
					{ "time": 5.4333, "x": 1, "y": 1 },
					{ "time": 5.6, "x": 0.214, "y": 1 },
					{ "time": 5.7667, "x": 1, "y": 1, "curve": "stepped" },
					{ "time": 6, "x": 1, "y": 1 },
					{ "time": 6.1667, "x": 0.214, "y": 1 },
					{ "time": 6.3333, "x": 1, "y": 1 }
				]
			}
		}
	}
}
}