%YAML 1.1
%TAG !u! tag:unity3d.com,2011:
--- !u!114 &11400000
MonoBehaviour:
  m_ObjectHideFlags: 0
  m_PrefabParentObject: {fileID: 0}
  m_PrefabInternal: {fileID: 0}
  m_GameObject: {fileID: 0}
  m_Enabled: 1
  m_EditorHideFlags: 0
  m_Script: {fileID: 11500000, guid: f1b3b4b945939a54ea0b23d3396115fb, type: 3}
  m_Name: spineboy_SkeletonData
  m_EditorClassIdentifier: 
  atlasAssets:
  - {fileID: 11400000, guid: 2fc9866d5b475d74b981f97a77312320, type: 2}
  scale: 0.01
  skeletonJSON: {fileID: 4900000, guid: c4a131ce07ddbbf4fa38e01f472a366f, type: 3}
  fromAnimation:
  - idle
  - run
  - walk
  - run
  toAnimation:
  - idle-turn
  - run-to-idle
  - run
  - walk
  duration:
  - 0
  - 0.1
  - 0.3
  - 0.3
  defaultMix: 0.1
  controller: {fileID: 0}
